ARM GAS  C:\Users\mjphi\AppData\Local\Temp\ccpTIsgp.s 			page 1


   1              		.syntax unified
   2              		.cpu cortex-m3
   3              		.fpu softvfp
   4              		.eabi_attribute 20, 1
   5              		.eabi_attribute 21, 1
   6              		.eabi_attribute 23, 3
   7              		.eabi_attribute 24, 1
   8              		.eabi_attribute 25, 1
   9              		.eabi_attribute 26, 1
  10              		.eabi_attribute 30, 4
  11              		.eabi_attribute 34, 1
  12              		.eabi_attribute 18, 4
  13              		.thumb
  14              		.file	"cymetadata.c"
  15              		.text
  16              	.Ltext0:
  17              		.cfi_sections	.debug_frame
  18              		.global	cy_metadata
  19              		.global	cy_meta_flashprotect
  20              		.global	cy_meta_wonvl
  21              		.global	cy_meta_custnvl
  22              		.global	cy_meta_configecc
  23              		.section	.cyconfigecc,"a",%progbits
  24              		.type	cy_meta_configecc, %object
  25              		.size	cy_meta_configecc, 40
  26              	cy_meta_configecc:
  27 0000 02       		.byte	2
  28 0001 52       		.byte	82
  29 0002 00       		.byte	0
  30 0003 40       		.byte	64
  31 0004 34       		.byte	52
  32 0005 30       		.byte	48
  33 0006 64       		.byte	100
  34 0007 20       		.byte	32
  35 0008 20       		.byte	32
  36 0009 00       		.byte	0
  37 000a 00       		.byte	0
  38 000b 20       		.byte	32
  39 000c 00       		.byte	0
  40 000d 00       		.byte	0
  41 000e 00       		.byte	0
  42 000f 00       		.byte	0
  43 0010 00       		.byte	0
  44 0011 00       		.byte	0
  45 0012 00       		.byte	0
  46 0013 00       		.byte	0
  47 0014 00       		.byte	0
  48 0015 7C       		.byte	124
  49 0016 7C       		.byte	124
  50 0017 00       		.byte	0
  51 0018 00       		.byte	0
  52 0019 00       		.byte	0
  53 001a 00       		.byte	0
  54 001b 00       		.byte	0
  55 001c 30       		.byte	48
  56 001d 00       		.byte	0
  57 001e 00       		.byte	0
ARM GAS  C:\Users\mjphi\AppData\Local\Temp\ccpTIsgp.s 			page 2


  58 001f 30       		.byte	48
  59 0020 00       		.byte	0
  60 0021 00       		.byte	0
  61 0022 00       		.byte	0
  62 0023 00       		.byte	0
  63 0024 00       		.byte	0
  64 0025 00       		.byte	0
  65 0026 00       		.byte	0
  66 0027 00       		.byte	0
  67              		.section	.cywolatch,"a",%progbits
  68              		.type	cy_meta_wonvl, %object
  69              		.size	cy_meta_wonvl, 4
  70              	cy_meta_wonvl:
  71 0000 BC       		.byte	-68
  72 0001 90       		.byte	-112
  73 0002 AC       		.byte	-84
  74 0003 AF       		.byte	-81
  75              		.section	.cycustnvl,"a",%progbits
  76              		.type	cy_meta_custnvl, %object
  77              		.size	cy_meta_custnvl, 4
  78              	cy_meta_custnvl:
  79 0000 00       		.byte	0
  80 0001 00       		.byte	0
  81 0002 40       		.byte	64
  82 0003 05       		.byte	5
  83              		.section	.cymeta,"a",%progbits
  84              		.type	cy_metadata, %object
  85              		.size	cy_metadata, 12
  86              	cy_metadata:
  87 0000 00       		.byte	0
  88 0001 01       		.byte	1
  89 0002 2E       		.byte	46
  90 0003 16       		.byte	22
  91 0004 00       		.byte	0
  92 0005 69       		.byte	105
  93 0006 00       		.byte	0
  94 0007 01       		.byte	1
  95 0008 00       		.byte	0
  96 0009 00       		.byte	0
  97 000a 00       		.byte	0
  98 000b 00       		.byte	0
  99              		.section	.cyflashprotect,"a",%progbits
 100              		.type	cy_meta_flashprotect, %object
 101              		.size	cy_meta_flashprotect, 256
 102              	cy_meta_flashprotect:
 103 0000 00000000 		.space	256
 103      00000000 
 103      00000000 
 103      00000000 
 103      00000000 
 104              		.text
 105              	.Letext0:
 106              		.file 1 ".\\Generated_Source\\PSoC5\\cymetadata.c"
 107              		.file 2 ".\\Generated_Source\\PSoC5\\cytypes.h"
 108              		.section	.debug_info,"",%progbits
 109              	.Ldebug_info0:
 110 0000 35010000 		.4byte	0x135
ARM GAS  C:\Users\mjphi\AppData\Local\Temp\ccpTIsgp.s 			page 3


 111 0004 0400     		.2byte	0x4
 112 0006 00000000 		.4byte	.Ldebug_abbrev0
 113 000a 04       		.byte	0x4
 114 000b 01       		.uleb128 0x1
 115 000c 07010000 		.4byte	.LASF18
 116 0010 01       		.byte	0x1
 117 0011 00000000 		.4byte	.LASF19
 118 0015 AA010000 		.4byte	.LASF20
 119 0019 00000000 		.4byte	.Ldebug_line0
 120 001d 02       		.uleb128 0x2
 121 001e 01       		.byte	0x1
 122 001f 06       		.byte	0x6
 123 0020 9E010000 		.4byte	.LASF0
 124 0024 02       		.uleb128 0x2
 125 0025 01       		.byte	0x1
 126 0026 08       		.byte	0x8
 127 0027 3E000000 		.4byte	.LASF1
 128 002b 02       		.uleb128 0x2
 129 002c 02       		.byte	0x2
 130 002d 05       		.byte	0x5
 131 002e FD000000 		.4byte	.LASF2
 132 0032 02       		.uleb128 0x2
 133 0033 02       		.byte	0x2
 134 0034 07       		.byte	0x7
 135 0035 5E000000 		.4byte	.LASF3
 136 0039 02       		.uleb128 0x2
 137 003a 04       		.byte	0x4
 138 003b 05       		.byte	0x5
 139 003c 95010000 		.4byte	.LASF4
 140 0040 02       		.uleb128 0x2
 141 0041 04       		.byte	0x4
 142 0042 07       		.byte	0x7
 143 0043 4C000000 		.4byte	.LASF5
 144 0047 02       		.uleb128 0x2
 145 0048 08       		.byte	0x8
 146 0049 05       		.byte	0x5
 147 004a EA000000 		.4byte	.LASF6
 148 004e 02       		.uleb128 0x2
 149 004f 08       		.byte	0x8
 150 0050 07       		.byte	0x7
 151 0051 A7000000 		.4byte	.LASF7
 152 0055 03       		.uleb128 0x3
 153 0056 04       		.byte	0x4
 154 0057 05       		.byte	0x5
 155 0058 696E7400 		.ascii	"int\000"
 156 005c 02       		.uleb128 0x2
 157 005d 04       		.byte	0x4
 158 005e 07       		.byte	0x7
 159 005f 9A000000 		.4byte	.LASF8
 160 0063 04       		.uleb128 0x4
 161 0064 38000000 		.4byte	.LASF21
 162 0068 02       		.byte	0x2
 163 0069 C2       		.byte	0xc2
 164 006a 24000000 		.4byte	0x24
 165 006e 02       		.uleb128 0x2
 166 006f 04       		.byte	0x4
 167 0070 04       		.byte	0x4
ARM GAS  C:\Users\mjphi\AppData\Local\Temp\ccpTIsgp.s 			page 4


 168 0071 32000000 		.4byte	.LASF9
 169 0075 02       		.uleb128 0x2
 170 0076 08       		.byte	0x8
 171 0077 04       		.byte	0x4
 172 0078 71000000 		.4byte	.LASF10
 173 007c 02       		.uleb128 0x2
 174 007d 01       		.byte	0x1
 175 007e 08       		.byte	0x8
 176 007f F8000000 		.4byte	.LASF11
 177 0083 05       		.uleb128 0x5
 178 0084 63000000 		.4byte	0x63
 179 0088 93000000 		.4byte	0x93
 180 008c 06       		.uleb128 0x6
 181 008d 93000000 		.4byte	0x93
 182 0091 27       		.byte	0x27
 183 0092 00       		.byte	0
 184 0093 02       		.uleb128 0x2
 185 0094 04       		.byte	0x4
 186 0095 07       		.byte	0x7
 187 0096 E1000000 		.4byte	.LASF12
 188 009a 07       		.uleb128 0x7
 189 009b 88000000 		.4byte	.LASF13
 190 009f 01       		.byte	0x1
 191 00a0 1C       		.byte	0x1c
 192 00a1 AB000000 		.4byte	0xab
 193 00a5 05       		.uleb128 0x5
 194 00a6 03       		.byte	0x3
 195 00a7 00000000 		.4byte	cy_meta_configecc
 196 00ab 08       		.uleb128 0x8
 197 00ac 83000000 		.4byte	0x83
 198 00b0 05       		.uleb128 0x5
 199 00b1 63000000 		.4byte	0x63
 200 00b5 C0000000 		.4byte	0xc0
 201 00b9 06       		.uleb128 0x6
 202 00ba 93000000 		.4byte	0x93
 203 00be 03       		.byte	0x3
 204 00bf 00       		.byte	0
 205 00c0 07       		.uleb128 0x7
 206 00c1 78000000 		.4byte	.LASF14
 207 00c5 01       		.byte	0x1
 208 00c6 2B       		.byte	0x2b
 209 00c7 D1000000 		.4byte	0xd1
 210 00cb 05       		.uleb128 0x5
 211 00cc 03       		.byte	0x3
 212 00cd 00000000 		.4byte	cy_meta_custnvl
 213 00d1 08       		.uleb128 0x8
 214 00d2 B0000000 		.4byte	0xb0
 215 00d6 07       		.uleb128 0x7
 216 00d7 D3000000 		.4byte	.LASF15
 217 00db 01       		.byte	0x1
 218 00dc 36       		.byte	0x36
 219 00dd E7000000 		.4byte	0xe7
 220 00e1 05       		.uleb128 0x5
 221 00e2 03       		.byte	0x3
 222 00e3 00000000 		.4byte	cy_meta_wonvl
 223 00e7 08       		.uleb128 0x8
 224 00e8 B0000000 		.4byte	0xb0
ARM GAS  C:\Users\mjphi\AppData\Local\Temp\ccpTIsgp.s 			page 5


 225 00ec 05       		.uleb128 0x5
 226 00ed 63000000 		.4byte	0x63
 227 00f1 FC000000 		.4byte	0xfc
 228 00f5 06       		.uleb128 0x6
 229 00f6 93000000 		.4byte	0x93
 230 00fa FF       		.byte	0xff
 231 00fb 00       		.byte	0
 232 00fc 07       		.uleb128 0x7
 233 00fd BE000000 		.4byte	.LASF16
 234 0101 01       		.byte	0x1
 235 0102 41       		.byte	0x41
 236 0103 0D010000 		.4byte	0x10d
 237 0107 05       		.uleb128 0x5
 238 0108 03       		.byte	0x3
 239 0109 00000000 		.4byte	cy_meta_flashprotect
 240 010d 08       		.uleb128 0x8
 241 010e EC000000 		.4byte	0xec
 242 0112 05       		.uleb128 0x5
 243 0113 63000000 		.4byte	0x63
 244 0117 22010000 		.4byte	0x122
 245 011b 06       		.uleb128 0x6
 246 011c 93000000 		.4byte	0x93
 247 0120 0B       		.byte	0xb
 248 0121 00       		.byte	0
 249 0122 07       		.uleb128 0x7
 250 0123 26000000 		.4byte	.LASF17
 251 0127 01       		.byte	0x1
 252 0128 6B       		.byte	0x6b
 253 0129 33010000 		.4byte	0x133
 254 012d 05       		.uleb128 0x5
 255 012e 03       		.byte	0x3
 256 012f 00000000 		.4byte	cy_metadata
 257 0133 08       		.uleb128 0x8
 258 0134 12010000 		.4byte	0x112
 259 0138 00       		.byte	0
 260              		.section	.debug_abbrev,"",%progbits
 261              	.Ldebug_abbrev0:
 262 0000 01       		.uleb128 0x1
 263 0001 11       		.uleb128 0x11
 264 0002 01       		.byte	0x1
 265 0003 25       		.uleb128 0x25
 266 0004 0E       		.uleb128 0xe
 267 0005 13       		.uleb128 0x13
 268 0006 0B       		.uleb128 0xb
 269 0007 03       		.uleb128 0x3
 270 0008 0E       		.uleb128 0xe
 271 0009 1B       		.uleb128 0x1b
 272 000a 0E       		.uleb128 0xe
 273 000b 10       		.uleb128 0x10
 274 000c 17       		.uleb128 0x17
 275 000d 00       		.byte	0
 276 000e 00       		.byte	0
 277 000f 02       		.uleb128 0x2
 278 0010 24       		.uleb128 0x24
 279 0011 00       		.byte	0
 280 0012 0B       		.uleb128 0xb
 281 0013 0B       		.uleb128 0xb
ARM GAS  C:\Users\mjphi\AppData\Local\Temp\ccpTIsgp.s 			page 6


 282 0014 3E       		.uleb128 0x3e
 283 0015 0B       		.uleb128 0xb
 284 0016 03       		.uleb128 0x3
 285 0017 0E       		.uleb128 0xe
 286 0018 00       		.byte	0
 287 0019 00       		.byte	0
 288 001a 03       		.uleb128 0x3
 289 001b 24       		.uleb128 0x24
 290 001c 00       		.byte	0
 291 001d 0B       		.uleb128 0xb
 292 001e 0B       		.uleb128 0xb
 293 001f 3E       		.uleb128 0x3e
 294 0020 0B       		.uleb128 0xb
 295 0021 03       		.uleb128 0x3
 296 0022 08       		.uleb128 0x8
 297 0023 00       		.byte	0
 298 0024 00       		.byte	0
 299 0025 04       		.uleb128 0x4
 300 0026 16       		.uleb128 0x16
 301 0027 00       		.byte	0
 302 0028 03       		.uleb128 0x3
 303 0029 0E       		.uleb128 0xe
 304 002a 3A       		.uleb128 0x3a
 305 002b 0B       		.uleb128 0xb
 306 002c 3B       		.uleb128 0x3b
 307 002d 0B       		.uleb128 0xb
 308 002e 49       		.uleb128 0x49
 309 002f 13       		.uleb128 0x13
 310 0030 00       		.byte	0
 311 0031 00       		.byte	0
 312 0032 05       		.uleb128 0x5
 313 0033 01       		.uleb128 0x1
 314 0034 01       		.byte	0x1
 315 0035 49       		.uleb128 0x49
 316 0036 13       		.uleb128 0x13
 317 0037 01       		.uleb128 0x1
 318 0038 13       		.uleb128 0x13
 319 0039 00       		.byte	0
 320 003a 00       		.byte	0
 321 003b 06       		.uleb128 0x6
 322 003c 21       		.uleb128 0x21
 323 003d 00       		.byte	0
 324 003e 49       		.uleb128 0x49
 325 003f 13       		.uleb128 0x13
 326 0040 2F       		.uleb128 0x2f
 327 0041 0B       		.uleb128 0xb
 328 0042 00       		.byte	0
 329 0043 00       		.byte	0
 330 0044 07       		.uleb128 0x7
 331 0045 34       		.uleb128 0x34
 332 0046 00       		.byte	0
 333 0047 03       		.uleb128 0x3
 334 0048 0E       		.uleb128 0xe
 335 0049 3A       		.uleb128 0x3a
 336 004a 0B       		.uleb128 0xb
 337 004b 3B       		.uleb128 0x3b
 338 004c 0B       		.uleb128 0xb
ARM GAS  C:\Users\mjphi\AppData\Local\Temp\ccpTIsgp.s 			page 7


 339 004d 49       		.uleb128 0x49
 340 004e 13       		.uleb128 0x13
 341 004f 3F       		.uleb128 0x3f
 342 0050 19       		.uleb128 0x19
 343 0051 02       		.uleb128 0x2
 344 0052 18       		.uleb128 0x18
 345 0053 00       		.byte	0
 346 0054 00       		.byte	0
 347 0055 08       		.uleb128 0x8
 348 0056 26       		.uleb128 0x26
 349 0057 00       		.byte	0
 350 0058 49       		.uleb128 0x49
 351 0059 13       		.uleb128 0x13
 352 005a 00       		.byte	0
 353 005b 00       		.byte	0
 354 005c 00       		.byte	0
 355              		.section	.debug_aranges,"",%progbits
 356 0000 14000000 		.4byte	0x14
 357 0004 0200     		.2byte	0x2
 358 0006 00000000 		.4byte	.Ldebug_info0
 359 000a 04       		.byte	0x4
 360 000b 00       		.byte	0
 361 000c 0000     		.2byte	0
 362 000e 0000     		.2byte	0
 363 0010 00000000 		.4byte	0
 364 0014 00000000 		.4byte	0
 365              		.section	.debug_line,"",%progbits
 366              	.Ldebug_line0:
 367 0000 4F000000 		.section	.debug_str,"MS",%progbits,1
 367      02004900 
 367      00000201 
 367      FB0E0D00 
 367      01010101 
 368              	.LASF19:
 369 0000 2E5C4765 		.ascii	".\\Generated_Source\\PSoC5\\cymetadata.c\000"
 369      6E657261 
 369      7465645F 
 369      536F7572 
 369      63655C50 
 370              	.LASF17:
 371 0026 63795F6D 		.ascii	"cy_metadata\000"
 371      65746164 
 371      61746100 
 372              	.LASF9:
 373 0032 666C6F61 		.ascii	"float\000"
 373      7400
 374              	.LASF21:
 375 0038 75696E74 		.ascii	"uint8\000"
 375      3800
 376              	.LASF1:
 377 003e 756E7369 		.ascii	"unsigned char\000"
 377      676E6564 
 377      20636861 
 377      7200
 378              	.LASF5:
 379 004c 6C6F6E67 		.ascii	"long unsigned int\000"
 379      20756E73 
ARM GAS  C:\Users\mjphi\AppData\Local\Temp\ccpTIsgp.s 			page 8


 379      69676E65 
 379      6420696E 
 379      7400
 380              	.LASF3:
 381 005e 73686F72 		.ascii	"short unsigned int\000"
 381      7420756E 
 381      7369676E 
 381      65642069 
 381      6E7400
 382              	.LASF10:
 383 0071 646F7562 		.ascii	"double\000"
 383      6C6500
 384              	.LASF14:
 385 0078 63795F6D 		.ascii	"cy_meta_custnvl\000"
 385      6574615F 
 385      63757374 
 385      6E766C00 
 386              	.LASF13:
 387 0088 63795F6D 		.ascii	"cy_meta_configecc\000"
 387      6574615F 
 387      636F6E66 
 387      69676563 
 387      6300
 388              	.LASF8:
 389 009a 756E7369 		.ascii	"unsigned int\000"
 389      676E6564 
 389      20696E74 
 389      00
 390              	.LASF7:
 391 00a7 6C6F6E67 		.ascii	"long long unsigned int\000"
 391      206C6F6E 
 391      6720756E 
 391      7369676E 
 391      65642069 
 392              	.LASF16:
 393 00be 63795F6D 		.ascii	"cy_meta_flashprotect\000"
 393      6574615F 
 393      666C6173 
 393      6870726F 
 393      74656374 
 394              	.LASF15:
 395 00d3 63795F6D 		.ascii	"cy_meta_wonvl\000"
 395      6574615F 
 395      776F6E76 
 395      6C00
 396              	.LASF12:
 397 00e1 73697A65 		.ascii	"sizetype\000"
 397      74797065 
 397      00
 398              	.LASF6:
 399 00ea 6C6F6E67 		.ascii	"long long int\000"
 399      206C6F6E 
 399      6720696E 
 399      7400
 400              	.LASF11:
 401 00f8 63686172 		.ascii	"char\000"
 401      00
ARM GAS  C:\Users\mjphi\AppData\Local\Temp\ccpTIsgp.s 			page 9


 402              	.LASF2:
 403 00fd 73686F72 		.ascii	"short int\000"
 403      7420696E 
 403      7400
 404              	.LASF18:
 405 0107 474E5520 		.ascii	"GNU C 4.9.3 20150303 (release) [ARM/embedded-4_9-br"
 405      4320342E 
 405      392E3320 
 405      32303135 
 405      30333033 
 406 013a 616E6368 		.ascii	"anch revision 221220] -mcpu=cortex-m3 -mthumb -g -O"
 406      20726576 
 406      6973696F 
 406      6E203232 
 406      31323230 
 407 016d 73202D66 		.ascii	"s -ffunction-sections -ffat-lto-objects\000"
 407      66756E63 
 407      74696F6E 
 407      2D736563 
 407      74696F6E 
 408              	.LASF4:
 409 0195 6C6F6E67 		.ascii	"long int\000"
 409      20696E74 
 409      00
 410              	.LASF0:
 411 019e 7369676E 		.ascii	"signed char\000"
 411      65642063 
 411      68617200 
 412              	.LASF20:
 413 01aa 433A5C46 		.ascii	"C:\\FreeRTOS\\FreeRTOS\\Demo\\CORTEX_CY8C5588_PSoC_"
 413      72656552 
 413      544F535C 
 413      46726565 
 413      52544F53 
 414 01d9 43726561 		.ascii	"Creator_GCC\\Lab5.cydsn\000"
 414      746F725F 
 414      4743435C 
 414      4C616235 
 414      2E637964 
 415              		.ident	"GCC: (GNU Tools for ARM Embedded Processors) 4.9.3 20150303 (release) [ARM/embedded-4_9-br
