ARM GAS  C:\Users\mjphi\AppData\Local\Temp\ccKcoe2k.s 			page 1


   1              		.syntax unified
   2              		.cpu cortex-m3
   3              		.fpu softvfp
   4              		.eabi_attribute 20, 1
   5              		.eabi_attribute 21, 1
   6              		.eabi_attribute 23, 3
   7              		.eabi_attribute 24, 1
   8              		.eabi_attribute 25, 1
   9              		.eabi_attribute 26, 1
  10              		.eabi_attribute 30, 4
  11              		.eabi_attribute 34, 1
  12              		.eabi_attribute 18, 4
  13              		.thumb
  14              		.file	"sw2.c"
  15              		.text
  16              	.Ltext0:
  17              		.cfi_sections	.debug_frame
  18              		.section	.text.sw2_Write,"ax",%progbits
  19              		.align	1
  20              		.global	sw2_Write
  21              		.thumb
  22              		.thumb_func
  23              		.type	sw2_Write, %function
  24              	sw2_Write:
  25              	.LFB0:
  26              		.file 1 ".\\Generated_Source\\PSoC5\\sw2.c"
   1:.\Generated_Source\PSoC5/sw2.c **** /*******************************************************************************
   2:.\Generated_Source\PSoC5/sw2.c **** * File Name: sw2.c  
   3:.\Generated_Source\PSoC5/sw2.c **** * Version 2.10
   4:.\Generated_Source\PSoC5/sw2.c **** *
   5:.\Generated_Source\PSoC5/sw2.c **** * Description:
   6:.\Generated_Source\PSoC5/sw2.c **** *  This file contains API to enable firmware control of a Pins component.
   7:.\Generated_Source\PSoC5/sw2.c **** *
   8:.\Generated_Source\PSoC5/sw2.c **** * Note:
   9:.\Generated_Source\PSoC5/sw2.c **** *
  10:.\Generated_Source\PSoC5/sw2.c **** ********************************************************************************
  11:.\Generated_Source\PSoC5/sw2.c **** * Copyright 2008-2014, Cypress Semiconductor Corporation.  All rights reserved.
  12:.\Generated_Source\PSoC5/sw2.c **** * You may use this file only in accordance with the license, terms, conditions, 
  13:.\Generated_Source\PSoC5/sw2.c **** * disclaimers, and limitations in the end user license agreement accompanying 
  14:.\Generated_Source\PSoC5/sw2.c **** * the software package with which this file was provided.
  15:.\Generated_Source\PSoC5/sw2.c **** *******************************************************************************/
  16:.\Generated_Source\PSoC5/sw2.c **** 
  17:.\Generated_Source\PSoC5/sw2.c **** #include "cytypes.h"
  18:.\Generated_Source\PSoC5/sw2.c **** #include "sw2.h"
  19:.\Generated_Source\PSoC5/sw2.c **** 
  20:.\Generated_Source\PSoC5/sw2.c **** /* APIs are not generated for P15[7:6] on PSoC 5 */
  21:.\Generated_Source\PSoC5/sw2.c **** #if !(CY_PSOC5A &&\
  22:.\Generated_Source\PSoC5/sw2.c **** 	 sw2__PORT == 15 && ((sw2__MASK & 0xC0) != 0))
  23:.\Generated_Source\PSoC5/sw2.c **** 
  24:.\Generated_Source\PSoC5/sw2.c **** 
  25:.\Generated_Source\PSoC5/sw2.c **** /*******************************************************************************
  26:.\Generated_Source\PSoC5/sw2.c **** * Function Name: sw2_Write
  27:.\Generated_Source\PSoC5/sw2.c **** ********************************************************************************
  28:.\Generated_Source\PSoC5/sw2.c **** *
  29:.\Generated_Source\PSoC5/sw2.c **** * Summary:
  30:.\Generated_Source\PSoC5/sw2.c **** *  Assign a new value to the digital port's data output register.  
  31:.\Generated_Source\PSoC5/sw2.c **** *
ARM GAS  C:\Users\mjphi\AppData\Local\Temp\ccKcoe2k.s 			page 2


  32:.\Generated_Source\PSoC5/sw2.c **** * Parameters:  
  33:.\Generated_Source\PSoC5/sw2.c **** *  prtValue:  The value to be assigned to the Digital Port. 
  34:.\Generated_Source\PSoC5/sw2.c **** *
  35:.\Generated_Source\PSoC5/sw2.c **** * Return: 
  36:.\Generated_Source\PSoC5/sw2.c **** *  None
  37:.\Generated_Source\PSoC5/sw2.c **** *  
  38:.\Generated_Source\PSoC5/sw2.c **** *******************************************************************************/
  39:.\Generated_Source\PSoC5/sw2.c **** void sw2_Write(uint8 value) 
  40:.\Generated_Source\PSoC5/sw2.c **** {
  27              		.loc 1 40 0
  28              		.cfi_startproc
  29              		@ args = 0, pretend = 0, frame = 0
  30              		@ frame_needed = 0, uses_anonymous_args = 0
  31              		@ link register save eliminated.
  32              	.LVL0:
  41:.\Generated_Source\PSoC5/sw2.c ****     uint8 staticBits = (sw2_DR & (uint8)(~sw2_MASK));
  33              		.loc 1 41 0
  34 0000 044A     		ldr	r2, .L2
  42:.\Generated_Source\PSoC5/sw2.c ****     sw2_DR = staticBits | ((uint8)(value << sw2_SHIFT) & sw2_MASK);
  35              		.loc 1 42 0
  36 0002 0001     		lsls	r0, r0, #4
  37              	.LVL1:
  41:.\Generated_Source\PSoC5/sw2.c ****     uint8 staticBits = (sw2_DR & (uint8)(~sw2_MASK));
  38              		.loc 1 41 0
  39 0004 1378     		ldrb	r3, [r2]	@ zero_extendqisi2
  40              	.LVL2:
  41              		.loc 1 42 0
  42 0006 00F01000 		and	r0, r0, #16
  41:.\Generated_Source\PSoC5/sw2.c ****     uint8 staticBits = (sw2_DR & (uint8)(~sw2_MASK));
  43              		.loc 1 41 0
  44 000a 03F0EF03 		and	r3, r3, #239
  45              	.LVL3:
  46              		.loc 1 42 0
  47 000e 0343     		orrs	r3, r3, r0
  48 0010 1370     		strb	r3, [r2]
  49 0012 7047     		bx	lr
  50              	.L3:
  51              		.align	2
  52              	.L2:
  53 0014 60510040 		.word	1073762656
  54              		.cfi_endproc
  55              	.LFE0:
  56              		.size	sw2_Write, .-sw2_Write
  57              		.section	.text.sw2_SetDriveMode,"ax",%progbits
  58              		.align	1
  59              		.global	sw2_SetDriveMode
  60              		.thumb
  61              		.thumb_func
  62              		.type	sw2_SetDriveMode, %function
  63              	sw2_SetDriveMode:
  64              	.LFB1:
  43:.\Generated_Source\PSoC5/sw2.c **** }
  44:.\Generated_Source\PSoC5/sw2.c **** 
  45:.\Generated_Source\PSoC5/sw2.c **** 
  46:.\Generated_Source\PSoC5/sw2.c **** /*******************************************************************************
  47:.\Generated_Source\PSoC5/sw2.c **** * Function Name: sw2_SetDriveMode
  48:.\Generated_Source\PSoC5/sw2.c **** ********************************************************************************
ARM GAS  C:\Users\mjphi\AppData\Local\Temp\ccKcoe2k.s 			page 3


  49:.\Generated_Source\PSoC5/sw2.c **** *
  50:.\Generated_Source\PSoC5/sw2.c **** * Summary:
  51:.\Generated_Source\PSoC5/sw2.c **** *  Change the drive mode on the pins of the port.
  52:.\Generated_Source\PSoC5/sw2.c **** * 
  53:.\Generated_Source\PSoC5/sw2.c **** * Parameters:  
  54:.\Generated_Source\PSoC5/sw2.c **** *  mode:  Change the pins to one of the following drive modes.
  55:.\Generated_Source\PSoC5/sw2.c **** *
  56:.\Generated_Source\PSoC5/sw2.c **** *  sw2_DM_STRONG     Strong Drive 
  57:.\Generated_Source\PSoC5/sw2.c **** *  sw2_DM_OD_HI      Open Drain, Drives High 
  58:.\Generated_Source\PSoC5/sw2.c **** *  sw2_DM_OD_LO      Open Drain, Drives Low 
  59:.\Generated_Source\PSoC5/sw2.c **** *  sw2_DM_RES_UP     Resistive Pull Up 
  60:.\Generated_Source\PSoC5/sw2.c **** *  sw2_DM_RES_DWN    Resistive Pull Down 
  61:.\Generated_Source\PSoC5/sw2.c **** *  sw2_DM_RES_UPDWN  Resistive Pull Up/Down 
  62:.\Generated_Source\PSoC5/sw2.c **** *  sw2_DM_DIG_HIZ    High Impedance Digital 
  63:.\Generated_Source\PSoC5/sw2.c **** *  sw2_DM_ALG_HIZ    High Impedance Analog 
  64:.\Generated_Source\PSoC5/sw2.c **** *
  65:.\Generated_Source\PSoC5/sw2.c **** * Return: 
  66:.\Generated_Source\PSoC5/sw2.c **** *  None
  67:.\Generated_Source\PSoC5/sw2.c **** *
  68:.\Generated_Source\PSoC5/sw2.c **** *******************************************************************************/
  69:.\Generated_Source\PSoC5/sw2.c **** void sw2_SetDriveMode(uint8 mode) 
  70:.\Generated_Source\PSoC5/sw2.c **** {
  65              		.loc 1 70 0
  66              		.cfi_startproc
  67              		@ args = 0, pretend = 0, frame = 0
  68              		@ frame_needed = 0, uses_anonymous_args = 0
  69              		@ link register save eliminated.
  70              	.LVL4:
  71:.\Generated_Source\PSoC5/sw2.c **** 	CyPins_SetPinDriveMode(sw2_0, mode);
  71              		.loc 1 71 0
  72 0000 044A     		ldr	r2, .L5
  73 0002 00F00E00 		and	r0, r0, #14
  74              	.LVL5:
  75 0006 1378     		ldrb	r3, [r2]	@ zero_extendqisi2
  76 0008 03F0F103 		and	r3, r3, #241
  77 000c 0343     		orrs	r3, r3, r0
  78 000e 1370     		strb	r3, [r2]
  79 0010 7047     		bx	lr
  80              	.L6:
  81 0012 00BF     		.align	2
  82              	.L5:
  83 0014 34500040 		.word	1073762356
  84              		.cfi_endproc
  85              	.LFE1:
  86              		.size	sw2_SetDriveMode, .-sw2_SetDriveMode
  87              		.section	.text.sw2_Read,"ax",%progbits
  88              		.align	1
  89              		.global	sw2_Read
  90              		.thumb
  91              		.thumb_func
  92              		.type	sw2_Read, %function
  93              	sw2_Read:
  94              	.LFB2:
  72:.\Generated_Source\PSoC5/sw2.c **** }
  73:.\Generated_Source\PSoC5/sw2.c **** 
  74:.\Generated_Source\PSoC5/sw2.c **** 
  75:.\Generated_Source\PSoC5/sw2.c **** /*******************************************************************************
ARM GAS  C:\Users\mjphi\AppData\Local\Temp\ccKcoe2k.s 			page 4


  76:.\Generated_Source\PSoC5/sw2.c **** * Function Name: sw2_Read
  77:.\Generated_Source\PSoC5/sw2.c **** ********************************************************************************
  78:.\Generated_Source\PSoC5/sw2.c **** *
  79:.\Generated_Source\PSoC5/sw2.c **** * Summary:
  80:.\Generated_Source\PSoC5/sw2.c **** *  Read the current value on the pins of the Digital Port in right justified 
  81:.\Generated_Source\PSoC5/sw2.c **** *  form.
  82:.\Generated_Source\PSoC5/sw2.c **** *
  83:.\Generated_Source\PSoC5/sw2.c **** * Parameters:  
  84:.\Generated_Source\PSoC5/sw2.c **** *  None
  85:.\Generated_Source\PSoC5/sw2.c **** *
  86:.\Generated_Source\PSoC5/sw2.c **** * Return: 
  87:.\Generated_Source\PSoC5/sw2.c **** *  Returns the current value of the Digital Port as a right justified number
  88:.\Generated_Source\PSoC5/sw2.c **** *  
  89:.\Generated_Source\PSoC5/sw2.c **** * Note:
  90:.\Generated_Source\PSoC5/sw2.c **** *  Macro sw2_ReadPS calls this function. 
  91:.\Generated_Source\PSoC5/sw2.c **** *  
  92:.\Generated_Source\PSoC5/sw2.c **** *******************************************************************************/
  93:.\Generated_Source\PSoC5/sw2.c **** uint8 sw2_Read(void) 
  94:.\Generated_Source\PSoC5/sw2.c **** {
  95              		.loc 1 94 0
  96              		.cfi_startproc
  97              		@ args = 0, pretend = 0, frame = 0
  98              		@ frame_needed = 0, uses_anonymous_args = 0
  99              		@ link register save eliminated.
  95:.\Generated_Source\PSoC5/sw2.c ****     return (sw2_PS & sw2_MASK) >> sw2_SHIFT;
 100              		.loc 1 95 0
 101 0000 024B     		ldr	r3, .L8
 102 0002 1878     		ldrb	r0, [r3]	@ zero_extendqisi2
  96:.\Generated_Source\PSoC5/sw2.c **** }
 103              		.loc 1 96 0
 104 0004 C0F30010 		ubfx	r0, r0, #4, #1
 105 0008 7047     		bx	lr
 106              	.L9:
 107 000a 00BF     		.align	2
 108              	.L8:
 109 000c 61510040 		.word	1073762657
 110              		.cfi_endproc
 111              	.LFE2:
 112              		.size	sw2_Read, .-sw2_Read
 113              		.section	.text.sw2_ReadDataReg,"ax",%progbits
 114              		.align	1
 115              		.global	sw2_ReadDataReg
 116              		.thumb
 117              		.thumb_func
 118              		.type	sw2_ReadDataReg, %function
 119              	sw2_ReadDataReg:
 120              	.LFB3:
  97:.\Generated_Source\PSoC5/sw2.c **** 
  98:.\Generated_Source\PSoC5/sw2.c **** 
  99:.\Generated_Source\PSoC5/sw2.c **** /*******************************************************************************
 100:.\Generated_Source\PSoC5/sw2.c **** * Function Name: sw2_ReadDataReg
 101:.\Generated_Source\PSoC5/sw2.c **** ********************************************************************************
 102:.\Generated_Source\PSoC5/sw2.c **** *
 103:.\Generated_Source\PSoC5/sw2.c **** * Summary:
 104:.\Generated_Source\PSoC5/sw2.c **** *  Read the current value assigned to a Digital Port's data output register
 105:.\Generated_Source\PSoC5/sw2.c **** *
 106:.\Generated_Source\PSoC5/sw2.c **** * Parameters:  
ARM GAS  C:\Users\mjphi\AppData\Local\Temp\ccKcoe2k.s 			page 5


 107:.\Generated_Source\PSoC5/sw2.c **** *  None 
 108:.\Generated_Source\PSoC5/sw2.c **** *
 109:.\Generated_Source\PSoC5/sw2.c **** * Return: 
 110:.\Generated_Source\PSoC5/sw2.c **** *  Returns the current value assigned to the Digital Port's data output register
 111:.\Generated_Source\PSoC5/sw2.c **** *  
 112:.\Generated_Source\PSoC5/sw2.c **** *******************************************************************************/
 113:.\Generated_Source\PSoC5/sw2.c **** uint8 sw2_ReadDataReg(void) 
 114:.\Generated_Source\PSoC5/sw2.c **** {
 121              		.loc 1 114 0
 122              		.cfi_startproc
 123              		@ args = 0, pretend = 0, frame = 0
 124              		@ frame_needed = 0, uses_anonymous_args = 0
 125              		@ link register save eliminated.
 115:.\Generated_Source\PSoC5/sw2.c ****     return (sw2_DR & sw2_MASK) >> sw2_SHIFT;
 126              		.loc 1 115 0
 127 0000 024B     		ldr	r3, .L11
 128 0002 1878     		ldrb	r0, [r3]	@ zero_extendqisi2
 116:.\Generated_Source\PSoC5/sw2.c **** }
 129              		.loc 1 116 0
 130 0004 C0F30010 		ubfx	r0, r0, #4, #1
 131 0008 7047     		bx	lr
 132              	.L12:
 133 000a 00BF     		.align	2
 134              	.L11:
 135 000c 60510040 		.word	1073762656
 136              		.cfi_endproc
 137              	.LFE3:
 138              		.size	sw2_ReadDataReg, .-sw2_ReadDataReg
 139              		.text
 140              	.Letext0:
 141              		.file 2 ".\\Generated_Source\\PSoC5\\cytypes.h"
 142              		.section	.debug_info,"",%progbits
 143              	.Ldebug_info0:
 144 0000 1C010000 		.4byte	0x11c
 145 0004 0400     		.2byte	0x4
 146 0006 00000000 		.4byte	.Ldebug_abbrev0
 147 000a 04       		.byte	0x4
 148 000b 01       		.uleb128 0x1
 149 000c F5000000 		.4byte	.LASF20
 150 0010 01       		.byte	0x1
 151 0011 37000000 		.4byte	.LASF21
 152 0015 98010000 		.4byte	.LASF22
 153 0019 00000000 		.4byte	.Ldebug_ranges0+0
 154 001d 00000000 		.4byte	0
 155 0021 00000000 		.4byte	.Ldebug_line0
 156 0025 02       		.uleb128 0x2
 157 0026 01       		.byte	0x1
 158 0027 06       		.byte	0x6
 159 0028 8C010000 		.4byte	.LASF0
 160 002c 02       		.uleb128 0x2
 161 002d 01       		.byte	0x1
 162 002e 08       		.byte	0x8
 163 002f 80000000 		.4byte	.LASF1
 164 0033 02       		.uleb128 0x2
 165 0034 02       		.byte	0x2
 166 0035 05       		.byte	0x5
 167 0036 EB000000 		.4byte	.LASF2
ARM GAS  C:\Users\mjphi\AppData\Local\Temp\ccKcoe2k.s 			page 6


 168 003a 02       		.uleb128 0x2
 169 003b 02       		.byte	0x2
 170 003c 07       		.byte	0x7
 171 003d 6D000000 		.4byte	.LASF3
 172 0041 02       		.uleb128 0x2
 173 0042 04       		.byte	0x4
 174 0043 05       		.byte	0x5
 175 0044 83010000 		.4byte	.LASF4
 176 0048 02       		.uleb128 0x2
 177 0049 04       		.byte	0x4
 178 004a 07       		.byte	0x7
 179 004b 5B000000 		.4byte	.LASF5
 180 004f 02       		.uleb128 0x2
 181 0050 08       		.byte	0x8
 182 0051 05       		.byte	0x5
 183 0052 CF000000 		.4byte	.LASF6
 184 0056 02       		.uleb128 0x2
 185 0057 08       		.byte	0x8
 186 0058 07       		.byte	0x7
 187 0059 B3000000 		.4byte	.LASF7
 188 005d 03       		.uleb128 0x3
 189 005e 04       		.byte	0x4
 190 005f 05       		.byte	0x5
 191 0060 696E7400 		.ascii	"int\000"
 192 0064 02       		.uleb128 0x2
 193 0065 04       		.byte	0x4
 194 0066 07       		.byte	0x7
 195 0067 A6000000 		.4byte	.LASF8
 196 006b 04       		.uleb128 0x4
 197 006c 31000000 		.4byte	.LASF12
 198 0070 02       		.byte	0x2
 199 0071 C2       		.byte	0xc2
 200 0072 2C000000 		.4byte	0x2c
 201 0076 02       		.uleb128 0x2
 202 0077 04       		.byte	0x4
 203 0078 04       		.byte	0x4
 204 0079 2B000000 		.4byte	.LASF9
 205 007d 02       		.uleb128 0x2
 206 007e 08       		.byte	0x8
 207 007f 04       		.byte	0x4
 208 0080 8E000000 		.4byte	.LASF10
 209 0084 02       		.uleb128 0x2
 210 0085 01       		.byte	0x1
 211 0086 08       		.byte	0x8
 212 0087 E6000000 		.4byte	.LASF11
 213 008b 05       		.uleb128 0x5
 214 008c 56000000 		.4byte	.LASF13
 215 0090 02       		.byte	0x2
 216 0091 6C01     		.2byte	0x16c
 217 0093 97000000 		.4byte	0x97
 218 0097 06       		.uleb128 0x6
 219 0098 6B000000 		.4byte	0x6b
 220 009c 07       		.uleb128 0x7
 221 009d 06000000 		.4byte	.LASF14
 222 00a1 01       		.byte	0x1
 223 00a2 27       		.byte	0x27
 224 00a3 00000000 		.4byte	.LFB0
ARM GAS  C:\Users\mjphi\AppData\Local\Temp\ccKcoe2k.s 			page 7


 225 00a7 18000000 		.4byte	.LFE0-.LFB0
 226 00ab 01       		.uleb128 0x1
 227 00ac 9C       		.byte	0x9c
 228 00ad D0000000 		.4byte	0xd0
 229 00b1 08       		.uleb128 0x8
 230 00b2 00000000 		.4byte	.LASF16
 231 00b6 01       		.byte	0x1
 232 00b7 27       		.byte	0x27
 233 00b8 6B000000 		.4byte	0x6b
 234 00bc 00000000 		.4byte	.LLST0
 235 00c0 09       		.uleb128 0x9
 236 00c1 10000000 		.4byte	.LASF23
 237 00c5 01       		.byte	0x1
 238 00c6 29       		.byte	0x29
 239 00c7 6B000000 		.4byte	0x6b
 240 00cb 21000000 		.4byte	.LLST1
 241 00cf 00       		.byte	0
 242 00d0 07       		.uleb128 0x7
 243 00d1 95000000 		.4byte	.LASF15
 244 00d5 01       		.byte	0x1
 245 00d6 45       		.byte	0x45
 246 00d7 00000000 		.4byte	.LFB1
 247 00db 18000000 		.4byte	.LFE1-.LFB1
 248 00df 01       		.uleb128 0x1
 249 00e0 9C       		.byte	0x9c
 250 00e1 F5000000 		.4byte	0xf5
 251 00e5 08       		.uleb128 0x8
 252 00e6 CA000000 		.4byte	.LASF17
 253 00ea 01       		.byte	0x1
 254 00eb 45       		.byte	0x45
 255 00ec 6B000000 		.4byte	0x6b
 256 00f0 39000000 		.4byte	.LLST2
 257 00f4 00       		.byte	0
 258 00f5 0A       		.uleb128 0xa
 259 00f6 DD000000 		.4byte	.LASF18
 260 00fa 01       		.byte	0x1
 261 00fb 5D       		.byte	0x5d
 262 00fc 6B000000 		.4byte	0x6b
 263 0100 00000000 		.4byte	.LFB2
 264 0104 10000000 		.4byte	.LFE2-.LFB2
 265 0108 01       		.uleb128 0x1
 266 0109 9C       		.byte	0x9c
 267 010a 0A       		.uleb128 0xa
 268 010b 1B000000 		.4byte	.LASF19
 269 010f 01       		.byte	0x1
 270 0110 71       		.byte	0x71
 271 0111 6B000000 		.4byte	0x6b
 272 0115 00000000 		.4byte	.LFB3
 273 0119 10000000 		.4byte	.LFE3-.LFB3
 274 011d 01       		.uleb128 0x1
 275 011e 9C       		.byte	0x9c
 276 011f 00       		.byte	0
 277              		.section	.debug_abbrev,"",%progbits
 278              	.Ldebug_abbrev0:
 279 0000 01       		.uleb128 0x1
 280 0001 11       		.uleb128 0x11
 281 0002 01       		.byte	0x1
ARM GAS  C:\Users\mjphi\AppData\Local\Temp\ccKcoe2k.s 			page 8


 282 0003 25       		.uleb128 0x25
 283 0004 0E       		.uleb128 0xe
 284 0005 13       		.uleb128 0x13
 285 0006 0B       		.uleb128 0xb
 286 0007 03       		.uleb128 0x3
 287 0008 0E       		.uleb128 0xe
 288 0009 1B       		.uleb128 0x1b
 289 000a 0E       		.uleb128 0xe
 290 000b 55       		.uleb128 0x55
 291 000c 17       		.uleb128 0x17
 292 000d 11       		.uleb128 0x11
 293 000e 01       		.uleb128 0x1
 294 000f 10       		.uleb128 0x10
 295 0010 17       		.uleb128 0x17
 296 0011 00       		.byte	0
 297 0012 00       		.byte	0
 298 0013 02       		.uleb128 0x2
 299 0014 24       		.uleb128 0x24
 300 0015 00       		.byte	0
 301 0016 0B       		.uleb128 0xb
 302 0017 0B       		.uleb128 0xb
 303 0018 3E       		.uleb128 0x3e
 304 0019 0B       		.uleb128 0xb
 305 001a 03       		.uleb128 0x3
 306 001b 0E       		.uleb128 0xe
 307 001c 00       		.byte	0
 308 001d 00       		.byte	0
 309 001e 03       		.uleb128 0x3
 310 001f 24       		.uleb128 0x24
 311 0020 00       		.byte	0
 312 0021 0B       		.uleb128 0xb
 313 0022 0B       		.uleb128 0xb
 314 0023 3E       		.uleb128 0x3e
 315 0024 0B       		.uleb128 0xb
 316 0025 03       		.uleb128 0x3
 317 0026 08       		.uleb128 0x8
 318 0027 00       		.byte	0
 319 0028 00       		.byte	0
 320 0029 04       		.uleb128 0x4
 321 002a 16       		.uleb128 0x16
 322 002b 00       		.byte	0
 323 002c 03       		.uleb128 0x3
 324 002d 0E       		.uleb128 0xe
 325 002e 3A       		.uleb128 0x3a
 326 002f 0B       		.uleb128 0xb
 327 0030 3B       		.uleb128 0x3b
 328 0031 0B       		.uleb128 0xb
 329 0032 49       		.uleb128 0x49
 330 0033 13       		.uleb128 0x13
 331 0034 00       		.byte	0
 332 0035 00       		.byte	0
 333 0036 05       		.uleb128 0x5
 334 0037 16       		.uleb128 0x16
 335 0038 00       		.byte	0
 336 0039 03       		.uleb128 0x3
 337 003a 0E       		.uleb128 0xe
 338 003b 3A       		.uleb128 0x3a
ARM GAS  C:\Users\mjphi\AppData\Local\Temp\ccKcoe2k.s 			page 9


 339 003c 0B       		.uleb128 0xb
 340 003d 3B       		.uleb128 0x3b
 341 003e 05       		.uleb128 0x5
 342 003f 49       		.uleb128 0x49
 343 0040 13       		.uleb128 0x13
 344 0041 00       		.byte	0
 345 0042 00       		.byte	0
 346 0043 06       		.uleb128 0x6
 347 0044 35       		.uleb128 0x35
 348 0045 00       		.byte	0
 349 0046 49       		.uleb128 0x49
 350 0047 13       		.uleb128 0x13
 351 0048 00       		.byte	0
 352 0049 00       		.byte	0
 353 004a 07       		.uleb128 0x7
 354 004b 2E       		.uleb128 0x2e
 355 004c 01       		.byte	0x1
 356 004d 3F       		.uleb128 0x3f
 357 004e 19       		.uleb128 0x19
 358 004f 03       		.uleb128 0x3
 359 0050 0E       		.uleb128 0xe
 360 0051 3A       		.uleb128 0x3a
 361 0052 0B       		.uleb128 0xb
 362 0053 3B       		.uleb128 0x3b
 363 0054 0B       		.uleb128 0xb
 364 0055 27       		.uleb128 0x27
 365 0056 19       		.uleb128 0x19
 366 0057 11       		.uleb128 0x11
 367 0058 01       		.uleb128 0x1
 368 0059 12       		.uleb128 0x12
 369 005a 06       		.uleb128 0x6
 370 005b 40       		.uleb128 0x40
 371 005c 18       		.uleb128 0x18
 372 005d 9742     		.uleb128 0x2117
 373 005f 19       		.uleb128 0x19
 374 0060 01       		.uleb128 0x1
 375 0061 13       		.uleb128 0x13
 376 0062 00       		.byte	0
 377 0063 00       		.byte	0
 378 0064 08       		.uleb128 0x8
 379 0065 05       		.uleb128 0x5
 380 0066 00       		.byte	0
 381 0067 03       		.uleb128 0x3
 382 0068 0E       		.uleb128 0xe
 383 0069 3A       		.uleb128 0x3a
 384 006a 0B       		.uleb128 0xb
 385 006b 3B       		.uleb128 0x3b
 386 006c 0B       		.uleb128 0xb
 387 006d 49       		.uleb128 0x49
 388 006e 13       		.uleb128 0x13
 389 006f 02       		.uleb128 0x2
 390 0070 17       		.uleb128 0x17
 391 0071 00       		.byte	0
 392 0072 00       		.byte	0
 393 0073 09       		.uleb128 0x9
 394 0074 34       		.uleb128 0x34
 395 0075 00       		.byte	0
ARM GAS  C:\Users\mjphi\AppData\Local\Temp\ccKcoe2k.s 			page 10


 396 0076 03       		.uleb128 0x3
 397 0077 0E       		.uleb128 0xe
 398 0078 3A       		.uleb128 0x3a
 399 0079 0B       		.uleb128 0xb
 400 007a 3B       		.uleb128 0x3b
 401 007b 0B       		.uleb128 0xb
 402 007c 49       		.uleb128 0x49
 403 007d 13       		.uleb128 0x13
 404 007e 02       		.uleb128 0x2
 405 007f 17       		.uleb128 0x17
 406 0080 00       		.byte	0
 407 0081 00       		.byte	0
 408 0082 0A       		.uleb128 0xa
 409 0083 2E       		.uleb128 0x2e
 410 0084 00       		.byte	0
 411 0085 3F       		.uleb128 0x3f
 412 0086 19       		.uleb128 0x19
 413 0087 03       		.uleb128 0x3
 414 0088 0E       		.uleb128 0xe
 415 0089 3A       		.uleb128 0x3a
 416 008a 0B       		.uleb128 0xb
 417 008b 3B       		.uleb128 0x3b
 418 008c 0B       		.uleb128 0xb
 419 008d 27       		.uleb128 0x27
 420 008e 19       		.uleb128 0x19
 421 008f 49       		.uleb128 0x49
 422 0090 13       		.uleb128 0x13
 423 0091 11       		.uleb128 0x11
 424 0092 01       		.uleb128 0x1
 425 0093 12       		.uleb128 0x12
 426 0094 06       		.uleb128 0x6
 427 0095 40       		.uleb128 0x40
 428 0096 18       		.uleb128 0x18
 429 0097 9742     		.uleb128 0x2117
 430 0099 19       		.uleb128 0x19
 431 009a 00       		.byte	0
 432 009b 00       		.byte	0
 433 009c 00       		.byte	0
 434              		.section	.debug_loc,"",%progbits
 435              	.Ldebug_loc0:
 436              	.LLST0:
 437 0000 00000000 		.4byte	.LVL0
 438 0004 04000000 		.4byte	.LVL1
 439 0008 0100     		.2byte	0x1
 440 000a 50       		.byte	0x50
 441 000b 04000000 		.4byte	.LVL1
 442 000f 18000000 		.4byte	.LFE0
 443 0013 0400     		.2byte	0x4
 444 0015 F3       		.byte	0xf3
 445 0016 01       		.uleb128 0x1
 446 0017 50       		.byte	0x50
 447 0018 9F       		.byte	0x9f
 448 0019 00000000 		.4byte	0
 449 001d 00000000 		.4byte	0
 450              	.LLST1:
 451 0021 06000000 		.4byte	.LVL2
 452 0025 0E000000 		.4byte	.LVL3
ARM GAS  C:\Users\mjphi\AppData\Local\Temp\ccKcoe2k.s 			page 11


 453 0029 0600     		.2byte	0x6
 454 002b 73       		.byte	0x73
 455 002c 00       		.sleb128 0
 456 002d 09       		.byte	0x9
 457 002e EF       		.byte	0xef
 458 002f 1A       		.byte	0x1a
 459 0030 9F       		.byte	0x9f
 460 0031 00000000 		.4byte	0
 461 0035 00000000 		.4byte	0
 462              	.LLST2:
 463 0039 00000000 		.4byte	.LVL4
 464 003d 06000000 		.4byte	.LVL5
 465 0041 0100     		.2byte	0x1
 466 0043 50       		.byte	0x50
 467 0044 06000000 		.4byte	.LVL5
 468 0048 18000000 		.4byte	.LFE1
 469 004c 0400     		.2byte	0x4
 470 004e F3       		.byte	0xf3
 471 004f 01       		.uleb128 0x1
 472 0050 50       		.byte	0x50
 473 0051 9F       		.byte	0x9f
 474 0052 00000000 		.4byte	0
 475 0056 00000000 		.4byte	0
 476              		.section	.debug_aranges,"",%progbits
 477 0000 34000000 		.4byte	0x34
 478 0004 0200     		.2byte	0x2
 479 0006 00000000 		.4byte	.Ldebug_info0
 480 000a 04       		.byte	0x4
 481 000b 00       		.byte	0
 482 000c 0000     		.2byte	0
 483 000e 0000     		.2byte	0
 484 0010 00000000 		.4byte	.LFB0
 485 0014 18000000 		.4byte	.LFE0-.LFB0
 486 0018 00000000 		.4byte	.LFB1
 487 001c 18000000 		.4byte	.LFE1-.LFB1
 488 0020 00000000 		.4byte	.LFB2
 489 0024 10000000 		.4byte	.LFE2-.LFB2
 490 0028 00000000 		.4byte	.LFB3
 491 002c 10000000 		.4byte	.LFE3-.LFB3
 492 0030 00000000 		.4byte	0
 493 0034 00000000 		.4byte	0
 494              		.section	.debug_ranges,"",%progbits
 495              	.Ldebug_ranges0:
 496 0000 00000000 		.4byte	.LFB0
 497 0004 18000000 		.4byte	.LFE0
 498 0008 00000000 		.4byte	.LFB1
 499 000c 18000000 		.4byte	.LFE1
 500 0010 00000000 		.4byte	.LFB2
 501 0014 10000000 		.4byte	.LFE2
 502 0018 00000000 		.4byte	.LFB3
 503 001c 10000000 		.4byte	.LFE3
 504 0020 00000000 		.4byte	0
 505 0024 00000000 		.4byte	0
 506              		.section	.debug_line,"",%progbits
 507              	.Ldebug_line0:
 508 0000 92000000 		.section	.debug_str,"MS",%progbits,1
 508      02004200 
ARM GAS  C:\Users\mjphi\AppData\Local\Temp\ccKcoe2k.s 			page 12


 508      00000201 
 508      FB0E0D00 
 508      01010101 
 509              	.LASF16:
 510 0000 76616C75 		.ascii	"value\000"
 510      6500
 511              	.LASF14:
 512 0006 7377325F 		.ascii	"sw2_Write\000"
 512      57726974 
 512      6500
 513              	.LASF23:
 514 0010 73746174 		.ascii	"staticBits\000"
 514      69634269 
 514      747300
 515              	.LASF19:
 516 001b 7377325F 		.ascii	"sw2_ReadDataReg\000"
 516      52656164 
 516      44617461 
 516      52656700 
 517              	.LASF9:
 518 002b 666C6F61 		.ascii	"float\000"
 518      7400
 519              	.LASF12:
 520 0031 75696E74 		.ascii	"uint8\000"
 520      3800
 521              	.LASF21:
 522 0037 2E5C4765 		.ascii	".\\Generated_Source\\PSoC5\\sw2.c\000"
 522      6E657261 
 522      7465645F 
 522      536F7572 
 522      63655C50 
 523              	.LASF13:
 524 0056 72656738 		.ascii	"reg8\000"
 524      00
 525              	.LASF5:
 526 005b 6C6F6E67 		.ascii	"long unsigned int\000"
 526      20756E73 
 526      69676E65 
 526      6420696E 
 526      7400
 527              	.LASF3:
 528 006d 73686F72 		.ascii	"short unsigned int\000"
 528      7420756E 
 528      7369676E 
 528      65642069 
 528      6E7400
 529              	.LASF1:
 530 0080 756E7369 		.ascii	"unsigned char\000"
 530      676E6564 
 530      20636861 
 530      7200
 531              	.LASF10:
 532 008e 646F7562 		.ascii	"double\000"
 532      6C6500
 533              	.LASF15:
 534 0095 7377325F 		.ascii	"sw2_SetDriveMode\000"
 534      53657444 
ARM GAS  C:\Users\mjphi\AppData\Local\Temp\ccKcoe2k.s 			page 13


 534      72697665 
 534      4D6F6465 
 534      00
 535              	.LASF8:
 536 00a6 756E7369 		.ascii	"unsigned int\000"
 536      676E6564 
 536      20696E74 
 536      00
 537              	.LASF7:
 538 00b3 6C6F6E67 		.ascii	"long long unsigned int\000"
 538      206C6F6E 
 538      6720756E 
 538      7369676E 
 538      65642069 
 539              	.LASF17:
 540 00ca 6D6F6465 		.ascii	"mode\000"
 540      00
 541              	.LASF6:
 542 00cf 6C6F6E67 		.ascii	"long long int\000"
 542      206C6F6E 
 542      6720696E 
 542      7400
 543              	.LASF18:
 544 00dd 7377325F 		.ascii	"sw2_Read\000"
 544      52656164 
 544      00
 545              	.LASF11:
 546 00e6 63686172 		.ascii	"char\000"
 546      00
 547              	.LASF2:
 548 00eb 73686F72 		.ascii	"short int\000"
 548      7420696E 
 548      7400
 549              	.LASF20:
 550 00f5 474E5520 		.ascii	"GNU C 4.9.3 20150303 (release) [ARM/embedded-4_9-br"
 550      4320342E 
 550      392E3320 
 550      32303135 
 550      30333033 
 551 0128 616E6368 		.ascii	"anch revision 221220] -mcpu=cortex-m3 -mthumb -g -O"
 551      20726576 
 551      6973696F 
 551      6E203232 
 551      31323230 
 552 015b 73202D66 		.ascii	"s -ffunction-sections -ffat-lto-objects\000"
 552      66756E63 
 552      74696F6E 
 552      2D736563 
 552      74696F6E 
 553              	.LASF4:
 554 0183 6C6F6E67 		.ascii	"long int\000"
 554      20696E74 
 554      00
 555              	.LASF0:
 556 018c 7369676E 		.ascii	"signed char\000"
 556      65642063 
 556      68617200 
ARM GAS  C:\Users\mjphi\AppData\Local\Temp\ccKcoe2k.s 			page 14


 557              	.LASF22:
 558 0198 433A5C46 		.ascii	"C:\\FreeRTOS\\FreeRTOS\\Demo\\CORTEX_CY8C5588_PSoC_"
 558      72656552 
 558      544F535C 
 558      46726565 
 558      52544F53 
 559 01c7 43726561 		.ascii	"Creator_GCC\\Lab5.cydsn\000"
 559      746F725F 
 559      4743435C 
 559      4C616235 
 559      2E637964 
 560              		.ident	"GCC: (GNU Tools for ARM Embedded Processors) 4.9.3 20150303 (release) [ARM/embedded-4_9-br
