ARM GAS  C:\Users\mjphi\AppData\Local\Temp\cci0X4pZ.s 			page 1


   1              		.syntax unified
   2              		.cpu cortex-m3
   3              		.fpu softvfp
   4              		.eabi_attribute 20, 1
   5              		.eabi_attribute 21, 1
   6              		.eabi_attribute 23, 3
   7              		.eabi_attribute 24, 1
   8              		.eabi_attribute 25, 1
   9              		.eabi_attribute 26, 1
  10              		.eabi_attribute 30, 4
  11              		.eabi_attribute 34, 1
  12              		.eabi_attribute 18, 4
  13              		.thumb
  14              		.file	"cyutils.c"
  15              		.text
  16              	.Ltext0:
  17              		.cfi_sections	.debug_frame
  18              		.section	.text.CySetReg24,"ax",%progbits
  19              		.align	1
  20              		.global	CySetReg24
  21              		.thumb
  22              		.thumb_func
  23              		.type	CySetReg24, %function
  24              	CySetReg24:
  25              	.LFB0:
  26              		.file 1 ".\\Generated_Source\\PSoC5\\cyutils.c"
   1:.\Generated_Source\PSoC5/cyutils.c **** /*******************************************************************************
   2:.\Generated_Source\PSoC5/cyutils.c **** * FILENAME: cyutils.c
   3:.\Generated_Source\PSoC5/cyutils.c **** * Version 5.0
   4:.\Generated_Source\PSoC5/cyutils.c **** *
   5:.\Generated_Source\PSoC5/cyutils.c **** *  Description:
   6:.\Generated_Source\PSoC5/cyutils.c **** *   CyUtils provides a function to handle 24-bit value writes.
   7:.\Generated_Source\PSoC5/cyutils.c **** *
   8:.\Generated_Source\PSoC5/cyutils.c **** ********************************************************************************
   9:.\Generated_Source\PSoC5/cyutils.c **** * Copyright 2008-2015, Cypress Semiconductor Corporation.  All rights reserved.
  10:.\Generated_Source\PSoC5/cyutils.c **** * You may use this file only in accordance with the license, terms, conditions,
  11:.\Generated_Source\PSoC5/cyutils.c **** * disclaimers, and limitations in the end user license agreement accompanying
  12:.\Generated_Source\PSoC5/cyutils.c **** * the software package with which this file was provided.
  13:.\Generated_Source\PSoC5/cyutils.c **** *******************************************************************************/
  14:.\Generated_Source\PSoC5/cyutils.c **** 
  15:.\Generated_Source\PSoC5/cyutils.c **** #include "cytypes.h"
  16:.\Generated_Source\PSoC5/cyutils.c **** 
  17:.\Generated_Source\PSoC5/cyutils.c **** #if (!CY_PSOC3)
  18:.\Generated_Source\PSoC5/cyutils.c **** 
  19:.\Generated_Source\PSoC5/cyutils.c ****     /***************************************************************************
  20:.\Generated_Source\PSoC5/cyutils.c ****     * Function Name: CySetReg24
  21:.\Generated_Source\PSoC5/cyutils.c ****     ****************************************************************************
  22:.\Generated_Source\PSoC5/cyutils.c ****     *
  23:.\Generated_Source\PSoC5/cyutils.c ****     * Summary:
  24:.\Generated_Source\PSoC5/cyutils.c ****     *  Writes a 24-bit value to the specified register.
  25:.\Generated_Source\PSoC5/cyutils.c ****     *
  26:.\Generated_Source\PSoC5/cyutils.c ****     * Parameters:
  27:.\Generated_Source\PSoC5/cyutils.c ****     *  addr : the address where data must be written.
  28:.\Generated_Source\PSoC5/cyutils.c ****     *  value: the data that must be written.
  29:.\Generated_Source\PSoC5/cyutils.c ****     *
  30:.\Generated_Source\PSoC5/cyutils.c ****     * Return:
  31:.\Generated_Source\PSoC5/cyutils.c ****     *  None
ARM GAS  C:\Users\mjphi\AppData\Local\Temp\cci0X4pZ.s 			page 2


  32:.\Generated_Source\PSoC5/cyutils.c ****     *
  33:.\Generated_Source\PSoC5/cyutils.c ****     * Reentrant:
  34:.\Generated_Source\PSoC5/cyutils.c ****     *  No
  35:.\Generated_Source\PSoC5/cyutils.c ****     *
  36:.\Generated_Source\PSoC5/cyutils.c ****     ***************************************************************************/
  37:.\Generated_Source\PSoC5/cyutils.c ****     void CySetReg24(uint32 volatile * addr, uint32 value)
  38:.\Generated_Source\PSoC5/cyutils.c ****     {
  27              		.loc 1 38 0
  28              		.cfi_startproc
  29              		@ args = 0, pretend = 0, frame = 0
  30              		@ frame_needed = 0, uses_anonymous_args = 0
  31              		@ link register save eliminated.
  32              	.LVL0:
  39:.\Generated_Source\PSoC5/cyutils.c ****         uint8 volatile *tmpAddr;
  40:.\Generated_Source\PSoC5/cyutils.c **** 
  41:.\Generated_Source\PSoC5/cyutils.c ****         tmpAddr = (uint8 volatile *) addr;
  42:.\Generated_Source\PSoC5/cyutils.c **** 
  43:.\Generated_Source\PSoC5/cyutils.c ****         tmpAddr[0u] = (uint8) value;
  33              		.loc 1 43 0
  34 0000 CBB2     		uxtb	r3, r1
  35 0002 0370     		strb	r3, [r0]
  44:.\Generated_Source\PSoC5/cyutils.c ****         tmpAddr[1u] = (uint8) (value >> 8u);
  36              		.loc 1 44 0
  37 0004 C1F30723 		ubfx	r3, r1, #8, #8
  45:.\Generated_Source\PSoC5/cyutils.c ****         tmpAddr[2u] = (uint8) (value >> 16u);
  38              		.loc 1 45 0
  39 0008 C1F30741 		ubfx	r1, r1, #16, #8
  40              	.LVL1:
  44:.\Generated_Source\PSoC5/cyutils.c ****         tmpAddr[1u] = (uint8) (value >> 8u);
  41              		.loc 1 44 0
  42 000c 4370     		strb	r3, [r0, #1]
  43              		.loc 1 45 0
  44 000e 8170     		strb	r1, [r0, #2]
  45 0010 7047     		bx	lr
  46              		.cfi_endproc
  47              	.LFE0:
  48              		.size	CySetReg24, .-CySetReg24
  49              		.text
  50              	.Letext0:
  51              		.file 2 ".\\Generated_Source\\PSoC5\\cytypes.h"
  52              		.section	.debug_info,"",%progbits
  53              	.Ldebug_info0:
  54 0000 E8000000 		.4byte	0xe8
  55 0004 0400     		.2byte	0x4
  56 0006 00000000 		.4byte	.Ldebug_abbrev0
  57 000a 04       		.byte	0x4
  58 000b 01       		.uleb128 0x1
  59 000c F2000000 		.4byte	.LASF16
  60 0010 01       		.byte	0x1
  61 0011 06000000 		.4byte	.LASF17
  62 0015 34000000 		.4byte	.LASF18
  63 0019 00000000 		.4byte	.Ldebug_ranges0+0
  64 001d 00000000 		.4byte	0
  65 0021 00000000 		.4byte	.Ldebug_line0
  66 0025 02       		.uleb128 0x2
  67 0026 01       		.byte	0x1
  68 0027 06       		.byte	0x6
ARM GAS  C:\Users\mjphi\AppData\Local\Temp\cci0X4pZ.s 			page 3


  69 0028 89010000 		.4byte	.LASF0
  70 002c 02       		.uleb128 0x2
  71 002d 01       		.byte	0x1
  72 002e 08       		.byte	0x8
  73 002f 68000000 		.4byte	.LASF1
  74 0033 02       		.uleb128 0x2
  75 0034 02       		.byte	0x2
  76 0035 05       		.byte	0x5
  77 0036 E8000000 		.4byte	.LASF2
  78 003a 02       		.uleb128 0x2
  79 003b 02       		.byte	0x2
  80 003c 07       		.byte	0x7
  81 003d 90000000 		.4byte	.LASF3
  82 0041 02       		.uleb128 0x2
  83 0042 04       		.byte	0x4
  84 0043 05       		.byte	0x5
  85 0044 80010000 		.4byte	.LASF4
  86 0048 02       		.uleb128 0x2
  87 0049 04       		.byte	0x4
  88 004a 07       		.byte	0x7
  89 004b 7E000000 		.4byte	.LASF5
  90 004f 02       		.uleb128 0x2
  91 0050 08       		.byte	0x8
  92 0051 05       		.byte	0x5
  93 0052 D5000000 		.4byte	.LASF6
  94 0056 02       		.uleb128 0x2
  95 0057 08       		.byte	0x8
  96 0058 07       		.byte	0x7
  97 0059 BE000000 		.4byte	.LASF7
  98 005d 03       		.uleb128 0x3
  99 005e 04       		.byte	0x4
 100 005f 05       		.byte	0x5
 101 0060 696E7400 		.ascii	"int\000"
 102 0064 02       		.uleb128 0x2
 103 0065 04       		.byte	0x4
 104 0066 07       		.byte	0x7
 105 0067 B1000000 		.4byte	.LASF8
 106 006b 04       		.uleb128 0x4
 107 006c 62000000 		.4byte	.LASF9
 108 0070 02       		.byte	0x2
 109 0071 B3       		.byte	0xb3
 110 0072 2C000000 		.4byte	0x2c
 111 0076 04       		.uleb128 0x4
 112 0077 AA000000 		.4byte	.LASF10
 113 007b 02       		.byte	0x2
 114 007c B5       		.byte	0xb5
 115 007d 48000000 		.4byte	0x48
 116 0081 02       		.uleb128 0x2
 117 0082 04       		.byte	0x4
 118 0083 04       		.byte	0x4
 119 0084 5C000000 		.4byte	.LASF11
 120 0088 02       		.uleb128 0x2
 121 0089 08       		.byte	0x8
 122 008a 04       		.byte	0x4
 123 008b A3000000 		.4byte	.LASF12
 124 008f 02       		.uleb128 0x2
 125 0090 01       		.byte	0x1
ARM GAS  C:\Users\mjphi\AppData\Local\Temp\cci0X4pZ.s 			page 4


 126 0091 08       		.byte	0x8
 127 0092 E3000000 		.4byte	.LASF13
 128 0096 05       		.uleb128 0x5
 129 0097 6B000000 		.4byte	0x6b
 130 009b 05       		.uleb128 0x5
 131 009c 76000000 		.4byte	0x76
 132 00a0 06       		.uleb128 0x6
 133 00a1 29000000 		.4byte	.LASF19
 134 00a5 01       		.byte	0x1
 135 00a6 25       		.byte	0x25
 136 00a7 00000000 		.4byte	.LFB0
 137 00ab 12000000 		.4byte	.LFE0-.LFB0
 138 00af 01       		.uleb128 0x1
 139 00b0 9C       		.byte	0x9c
 140 00b1 DF000000 		.4byte	0xdf
 141 00b5 07       		.uleb128 0x7
 142 00b6 57000000 		.4byte	.LASF14
 143 00ba 01       		.byte	0x1
 144 00bb 25       		.byte	0x25
 145 00bc DF000000 		.4byte	0xdf
 146 00c0 01       		.uleb128 0x1
 147 00c1 50       		.byte	0x50
 148 00c2 08       		.uleb128 0x8
 149 00c3 00000000 		.4byte	.LASF15
 150 00c7 01       		.byte	0x1
 151 00c8 25       		.byte	0x25
 152 00c9 76000000 		.4byte	0x76
 153 00cd 00000000 		.4byte	.LLST0
 154 00d1 09       		.uleb128 0x9
 155 00d2 76000000 		.4byte	.LASF20
 156 00d6 01       		.byte	0x1
 157 00d7 27       		.byte	0x27
 158 00d8 E5000000 		.4byte	0xe5
 159 00dc 01       		.uleb128 0x1
 160 00dd 50       		.byte	0x50
 161 00de 00       		.byte	0
 162 00df 0A       		.uleb128 0xa
 163 00e0 04       		.byte	0x4
 164 00e1 9B000000 		.4byte	0x9b
 165 00e5 0A       		.uleb128 0xa
 166 00e6 04       		.byte	0x4
 167 00e7 96000000 		.4byte	0x96
 168 00eb 00       		.byte	0
 169              		.section	.debug_abbrev,"",%progbits
 170              	.Ldebug_abbrev0:
 171 0000 01       		.uleb128 0x1
 172 0001 11       		.uleb128 0x11
 173 0002 01       		.byte	0x1
 174 0003 25       		.uleb128 0x25
 175 0004 0E       		.uleb128 0xe
 176 0005 13       		.uleb128 0x13
 177 0006 0B       		.uleb128 0xb
 178 0007 03       		.uleb128 0x3
 179 0008 0E       		.uleb128 0xe
 180 0009 1B       		.uleb128 0x1b
 181 000a 0E       		.uleb128 0xe
 182 000b 55       		.uleb128 0x55
ARM GAS  C:\Users\mjphi\AppData\Local\Temp\cci0X4pZ.s 			page 5


 183 000c 17       		.uleb128 0x17
 184 000d 11       		.uleb128 0x11
 185 000e 01       		.uleb128 0x1
 186 000f 10       		.uleb128 0x10
 187 0010 17       		.uleb128 0x17
 188 0011 00       		.byte	0
 189 0012 00       		.byte	0
 190 0013 02       		.uleb128 0x2
 191 0014 24       		.uleb128 0x24
 192 0015 00       		.byte	0
 193 0016 0B       		.uleb128 0xb
 194 0017 0B       		.uleb128 0xb
 195 0018 3E       		.uleb128 0x3e
 196 0019 0B       		.uleb128 0xb
 197 001a 03       		.uleb128 0x3
 198 001b 0E       		.uleb128 0xe
 199 001c 00       		.byte	0
 200 001d 00       		.byte	0
 201 001e 03       		.uleb128 0x3
 202 001f 24       		.uleb128 0x24
 203 0020 00       		.byte	0
 204 0021 0B       		.uleb128 0xb
 205 0022 0B       		.uleb128 0xb
 206 0023 3E       		.uleb128 0x3e
 207 0024 0B       		.uleb128 0xb
 208 0025 03       		.uleb128 0x3
 209 0026 08       		.uleb128 0x8
 210 0027 00       		.byte	0
 211 0028 00       		.byte	0
 212 0029 04       		.uleb128 0x4
 213 002a 16       		.uleb128 0x16
 214 002b 00       		.byte	0
 215 002c 03       		.uleb128 0x3
 216 002d 0E       		.uleb128 0xe
 217 002e 3A       		.uleb128 0x3a
 218 002f 0B       		.uleb128 0xb
 219 0030 3B       		.uleb128 0x3b
 220 0031 0B       		.uleb128 0xb
 221 0032 49       		.uleb128 0x49
 222 0033 13       		.uleb128 0x13
 223 0034 00       		.byte	0
 224 0035 00       		.byte	0
 225 0036 05       		.uleb128 0x5
 226 0037 35       		.uleb128 0x35
 227 0038 00       		.byte	0
 228 0039 49       		.uleb128 0x49
 229 003a 13       		.uleb128 0x13
 230 003b 00       		.byte	0
 231 003c 00       		.byte	0
 232 003d 06       		.uleb128 0x6
 233 003e 2E       		.uleb128 0x2e
 234 003f 01       		.byte	0x1
 235 0040 3F       		.uleb128 0x3f
 236 0041 19       		.uleb128 0x19
 237 0042 03       		.uleb128 0x3
 238 0043 0E       		.uleb128 0xe
 239 0044 3A       		.uleb128 0x3a
ARM GAS  C:\Users\mjphi\AppData\Local\Temp\cci0X4pZ.s 			page 6


 240 0045 0B       		.uleb128 0xb
 241 0046 3B       		.uleb128 0x3b
 242 0047 0B       		.uleb128 0xb
 243 0048 27       		.uleb128 0x27
 244 0049 19       		.uleb128 0x19
 245 004a 11       		.uleb128 0x11
 246 004b 01       		.uleb128 0x1
 247 004c 12       		.uleb128 0x12
 248 004d 06       		.uleb128 0x6
 249 004e 40       		.uleb128 0x40
 250 004f 18       		.uleb128 0x18
 251 0050 9742     		.uleb128 0x2117
 252 0052 19       		.uleb128 0x19
 253 0053 01       		.uleb128 0x1
 254 0054 13       		.uleb128 0x13
 255 0055 00       		.byte	0
 256 0056 00       		.byte	0
 257 0057 07       		.uleb128 0x7
 258 0058 05       		.uleb128 0x5
 259 0059 00       		.byte	0
 260 005a 03       		.uleb128 0x3
 261 005b 0E       		.uleb128 0xe
 262 005c 3A       		.uleb128 0x3a
 263 005d 0B       		.uleb128 0xb
 264 005e 3B       		.uleb128 0x3b
 265 005f 0B       		.uleb128 0xb
 266 0060 49       		.uleb128 0x49
 267 0061 13       		.uleb128 0x13
 268 0062 02       		.uleb128 0x2
 269 0063 18       		.uleb128 0x18
 270 0064 00       		.byte	0
 271 0065 00       		.byte	0
 272 0066 08       		.uleb128 0x8
 273 0067 05       		.uleb128 0x5
 274 0068 00       		.byte	0
 275 0069 03       		.uleb128 0x3
 276 006a 0E       		.uleb128 0xe
 277 006b 3A       		.uleb128 0x3a
 278 006c 0B       		.uleb128 0xb
 279 006d 3B       		.uleb128 0x3b
 280 006e 0B       		.uleb128 0xb
 281 006f 49       		.uleb128 0x49
 282 0070 13       		.uleb128 0x13
 283 0071 02       		.uleb128 0x2
 284 0072 17       		.uleb128 0x17
 285 0073 00       		.byte	0
 286 0074 00       		.byte	0
 287 0075 09       		.uleb128 0x9
 288 0076 34       		.uleb128 0x34
 289 0077 00       		.byte	0
 290 0078 03       		.uleb128 0x3
 291 0079 0E       		.uleb128 0xe
 292 007a 3A       		.uleb128 0x3a
 293 007b 0B       		.uleb128 0xb
 294 007c 3B       		.uleb128 0x3b
 295 007d 0B       		.uleb128 0xb
 296 007e 49       		.uleb128 0x49
ARM GAS  C:\Users\mjphi\AppData\Local\Temp\cci0X4pZ.s 			page 7


 297 007f 13       		.uleb128 0x13
 298 0080 02       		.uleb128 0x2
 299 0081 18       		.uleb128 0x18
 300 0082 00       		.byte	0
 301 0083 00       		.byte	0
 302 0084 0A       		.uleb128 0xa
 303 0085 0F       		.uleb128 0xf
 304 0086 00       		.byte	0
 305 0087 0B       		.uleb128 0xb
 306 0088 0B       		.uleb128 0xb
 307 0089 49       		.uleb128 0x49
 308 008a 13       		.uleb128 0x13
 309 008b 00       		.byte	0
 310 008c 00       		.byte	0
 311 008d 00       		.byte	0
 312              		.section	.debug_loc,"",%progbits
 313              	.Ldebug_loc0:
 314              	.LLST0:
 315 0000 00000000 		.4byte	.LVL0
 316 0004 0C000000 		.4byte	.LVL1
 317 0008 0100     		.2byte	0x1
 318 000a 51       		.byte	0x51
 319 000b 0C000000 		.4byte	.LVL1
 320 000f 12000000 		.4byte	.LFE0
 321 0013 0400     		.2byte	0x4
 322 0015 F3       		.byte	0xf3
 323 0016 01       		.uleb128 0x1
 324 0017 51       		.byte	0x51
 325 0018 9F       		.byte	0x9f
 326 0019 00000000 		.4byte	0
 327 001d 00000000 		.4byte	0
 328              		.section	.debug_aranges,"",%progbits
 329 0000 1C000000 		.4byte	0x1c
 330 0004 0200     		.2byte	0x2
 331 0006 00000000 		.4byte	.Ldebug_info0
 332 000a 04       		.byte	0x4
 333 000b 00       		.byte	0
 334 000c 0000     		.2byte	0
 335 000e 0000     		.2byte	0
 336 0010 00000000 		.4byte	.LFB0
 337 0014 12000000 		.4byte	.LFE0-.LFB0
 338 0018 00000000 		.4byte	0
 339 001c 00000000 		.4byte	0
 340              		.section	.debug_ranges,"",%progbits
 341              	.Ldebug_ranges0:
 342 0000 00000000 		.4byte	.LFB0
 343 0004 12000000 		.4byte	.LFE0
 344 0008 00000000 		.4byte	0
 345 000c 00000000 		.4byte	0
 346              		.section	.debug_line,"",%progbits
 347              	.Ldebug_line0:
 348 0000 60000000 		.section	.debug_str,"MS",%progbits,1
 348      02004600 
 348      00000201 
 348      FB0E0D00 
 348      01010101 
 349              	.LASF15:
ARM GAS  C:\Users\mjphi\AppData\Local\Temp\cci0X4pZ.s 			page 8


 350 0000 76616C75 		.ascii	"value\000"
 350      6500
 351              	.LASF17:
 352 0006 2E5C4765 		.ascii	".\\Generated_Source\\PSoC5\\cyutils.c\000"
 352      6E657261 
 352      7465645F 
 352      536F7572 
 352      63655C50 
 353              	.LASF19:
 354 0029 43795365 		.ascii	"CySetReg24\000"
 354      74526567 
 354      323400
 355              	.LASF18:
 356 0034 433A5C63 		.ascii	"C:\\code\\uci_winter_2016\\Lab2.cydsn\000"
 356      6F64655C 
 356      7563695F 
 356      77696E74 
 356      65725F32 
 357              	.LASF14:
 358 0057 61646472 		.ascii	"addr\000"
 358      00
 359              	.LASF11:
 360 005c 666C6F61 		.ascii	"float\000"
 360      7400
 361              	.LASF9:
 362 0062 75696E74 		.ascii	"uint8\000"
 362      3800
 363              	.LASF1:
 364 0068 756E7369 		.ascii	"unsigned char\000"
 364      676E6564 
 364      20636861 
 364      7200
 365              	.LASF20:
 366 0076 746D7041 		.ascii	"tmpAddr\000"
 366      64647200 
 367              	.LASF5:
 368 007e 6C6F6E67 		.ascii	"long unsigned int\000"
 368      20756E73 
 368      69676E65 
 368      6420696E 
 368      7400
 369              	.LASF3:
 370 0090 73686F72 		.ascii	"short unsigned int\000"
 370      7420756E 
 370      7369676E 
 370      65642069 
 370      6E7400
 371              	.LASF12:
 372 00a3 646F7562 		.ascii	"double\000"
 372      6C6500
 373              	.LASF10:
 374 00aa 75696E74 		.ascii	"uint32\000"
 374      333200
 375              	.LASF8:
 376 00b1 756E7369 		.ascii	"unsigned int\000"
 376      676E6564 
 376      20696E74 
ARM GAS  C:\Users\mjphi\AppData\Local\Temp\cci0X4pZ.s 			page 9


 376      00
 377              	.LASF7:
 378 00be 6C6F6E67 		.ascii	"long long unsigned int\000"
 378      206C6F6E 
 378      6720756E 
 378      7369676E 
 378      65642069 
 379              	.LASF6:
 380 00d5 6C6F6E67 		.ascii	"long long int\000"
 380      206C6F6E 
 380      6720696E 
 380      7400
 381              	.LASF13:
 382 00e3 63686172 		.ascii	"char\000"
 382      00
 383              	.LASF2:
 384 00e8 73686F72 		.ascii	"short int\000"
 384      7420696E 
 384      7400
 385              	.LASF16:
 386 00f2 474E5520 		.ascii	"GNU C 4.9.3 20150303 (release) [ARM/embedded-4_9-br"
 386      4320342E 
 386      392E3320 
 386      32303135 
 386      30333033 
 387 0125 616E6368 		.ascii	"anch revision 221220] -mcpu=cortex-m3 -mthumb -g -O"
 387      20726576 
 387      6973696F 
 387      6E203232 
 387      31323230 
 388 0158 73202D66 		.ascii	"s -ffunction-sections -ffat-lto-objects\000"
 388      66756E63 
 388      74696F6E 
 388      2D736563 
 388      74696F6E 
 389              	.LASF4:
 390 0180 6C6F6E67 		.ascii	"long int\000"
 390      20696E74 
 390      00
 391              	.LASF0:
 392 0189 7369676E 		.ascii	"signed char\000"
 392      65642063 
 392      68617200 
 393              		.ident	"GCC: (GNU Tools for ARM Embedded Processors) 4.9.3 20150303 (release) [ARM/embedded-4_9-br
