ARM GAS  C:\Users\mjphi\AppData\Local\Temp\ccECMGhx.s 			page 1


   1              		.syntax unified
   2              		.cpu cortex-m3
   3              		.fpu softvfp
   4              		.eabi_attribute 20, 1
   5              		.eabi_attribute 21, 1
   6              		.eabi_attribute 23, 3
   7              		.eabi_attribute 24, 1
   8              		.eabi_attribute 25, 1
   9              		.eabi_attribute 26, 1
  10              		.eabi_attribute 30, 4
  11              		.eabi_attribute 34, 1
  12              		.eabi_attribute 18, 4
  13              		.thumb
  14              		.file	"Clock.c"
  15              		.text
  16              	.Ltext0:
  17              		.cfi_sections	.debug_frame
  18              		.section	.text.Clock_Write,"ax",%progbits
  19              		.align	1
  20              		.global	Clock_Write
  21              		.thumb
  22              		.thumb_func
  23              		.type	Clock_Write, %function
  24              	Clock_Write:
  25              	.LFB0:
  26              		.file 1 ".\\Generated_Source\\PSoC5\\Clock.c"
   1:.\Generated_Source\PSoC5/Clock.c **** /*******************************************************************************
   2:.\Generated_Source\PSoC5/Clock.c **** * File Name: Clock.c  
   3:.\Generated_Source\PSoC5/Clock.c **** * Version 2.10
   4:.\Generated_Source\PSoC5/Clock.c **** *
   5:.\Generated_Source\PSoC5/Clock.c **** * Description:
   6:.\Generated_Source\PSoC5/Clock.c **** *  This file contains API to enable firmware control of a Pins component.
   7:.\Generated_Source\PSoC5/Clock.c **** *
   8:.\Generated_Source\PSoC5/Clock.c **** * Note:
   9:.\Generated_Source\PSoC5/Clock.c **** *
  10:.\Generated_Source\PSoC5/Clock.c **** ********************************************************************************
  11:.\Generated_Source\PSoC5/Clock.c **** * Copyright 2008-2014, Cypress Semiconductor Corporation.  All rights reserved.
  12:.\Generated_Source\PSoC5/Clock.c **** * You may use this file only in accordance with the license, terms, conditions, 
  13:.\Generated_Source\PSoC5/Clock.c **** * disclaimers, and limitations in the end user license agreement accompanying 
  14:.\Generated_Source\PSoC5/Clock.c **** * the software package with which this file was provided.
  15:.\Generated_Source\PSoC5/Clock.c **** *******************************************************************************/
  16:.\Generated_Source\PSoC5/Clock.c **** 
  17:.\Generated_Source\PSoC5/Clock.c **** #include "cytypes.h"
  18:.\Generated_Source\PSoC5/Clock.c **** #include "Clock.h"
  19:.\Generated_Source\PSoC5/Clock.c **** 
  20:.\Generated_Source\PSoC5/Clock.c **** /* APIs are not generated for P15[7:6] on PSoC 5 */
  21:.\Generated_Source\PSoC5/Clock.c **** #if !(CY_PSOC5A &&\
  22:.\Generated_Source\PSoC5/Clock.c **** 	 Clock__PORT == 15 && ((Clock__MASK & 0xC0) != 0))
  23:.\Generated_Source\PSoC5/Clock.c **** 
  24:.\Generated_Source\PSoC5/Clock.c **** 
  25:.\Generated_Source\PSoC5/Clock.c **** /*******************************************************************************
  26:.\Generated_Source\PSoC5/Clock.c **** * Function Name: Clock_Write
  27:.\Generated_Source\PSoC5/Clock.c **** ********************************************************************************
  28:.\Generated_Source\PSoC5/Clock.c **** *
  29:.\Generated_Source\PSoC5/Clock.c **** * Summary:
  30:.\Generated_Source\PSoC5/Clock.c **** *  Assign a new value to the digital port's data output register.  
  31:.\Generated_Source\PSoC5/Clock.c **** *
ARM GAS  C:\Users\mjphi\AppData\Local\Temp\ccECMGhx.s 			page 2


  32:.\Generated_Source\PSoC5/Clock.c **** * Parameters:  
  33:.\Generated_Source\PSoC5/Clock.c **** *  prtValue:  The value to be assigned to the Digital Port. 
  34:.\Generated_Source\PSoC5/Clock.c **** *
  35:.\Generated_Source\PSoC5/Clock.c **** * Return: 
  36:.\Generated_Source\PSoC5/Clock.c **** *  None
  37:.\Generated_Source\PSoC5/Clock.c **** *  
  38:.\Generated_Source\PSoC5/Clock.c **** *******************************************************************************/
  39:.\Generated_Source\PSoC5/Clock.c **** void Clock_Write(uint8 value) 
  40:.\Generated_Source\PSoC5/Clock.c **** {
  27              		.loc 1 40 0
  28              		.cfi_startproc
  29              		@ args = 0, pretend = 0, frame = 0
  30              		@ frame_needed = 0, uses_anonymous_args = 0
  31              		@ link register save eliminated.
  32              	.LVL0:
  41:.\Generated_Source\PSoC5/Clock.c ****     uint8 staticBits = (Clock_DR & (uint8)(~Clock_MASK));
  33              		.loc 1 41 0
  34 0000 044A     		ldr	r2, .L2
  35 0002 1378     		ldrb	r3, [r2]	@ zero_extendqisi2
  36              	.LVL1:
  37 0004 03F07F03 		and	r3, r3, #127
  38              	.LVL2:
  42:.\Generated_Source\PSoC5/Clock.c ****     Clock_DR = staticBits | ((uint8)(value << Clock_SHIFT) & Clock_MASK);
  39              		.loc 1 42 0
  40 0008 43EAC010 		orr	r0, r3, r0, lsl #7
  41              	.LVL3:
  42 000c C0B2     		uxtb	r0, r0
  43 000e 1070     		strb	r0, [r2]
  44 0010 7047     		bx	lr
  45              	.L3:
  46 0012 00BF     		.align	2
  47              	.L2:
  48 0014 20510040 		.word	1073762592
  49              		.cfi_endproc
  50              	.LFE0:
  51              		.size	Clock_Write, .-Clock_Write
  52              		.section	.text.Clock_SetDriveMode,"ax",%progbits
  53              		.align	1
  54              		.global	Clock_SetDriveMode
  55              		.thumb
  56              		.thumb_func
  57              		.type	Clock_SetDriveMode, %function
  58              	Clock_SetDriveMode:
  59              	.LFB1:
  43:.\Generated_Source\PSoC5/Clock.c **** }
  44:.\Generated_Source\PSoC5/Clock.c **** 
  45:.\Generated_Source\PSoC5/Clock.c **** 
  46:.\Generated_Source\PSoC5/Clock.c **** /*******************************************************************************
  47:.\Generated_Source\PSoC5/Clock.c **** * Function Name: Clock_SetDriveMode
  48:.\Generated_Source\PSoC5/Clock.c **** ********************************************************************************
  49:.\Generated_Source\PSoC5/Clock.c **** *
  50:.\Generated_Source\PSoC5/Clock.c **** * Summary:
  51:.\Generated_Source\PSoC5/Clock.c **** *  Change the drive mode on the pins of the port.
  52:.\Generated_Source\PSoC5/Clock.c **** * 
  53:.\Generated_Source\PSoC5/Clock.c **** * Parameters:  
  54:.\Generated_Source\PSoC5/Clock.c **** *  mode:  Change the pins to one of the following drive modes.
  55:.\Generated_Source\PSoC5/Clock.c **** *
ARM GAS  C:\Users\mjphi\AppData\Local\Temp\ccECMGhx.s 			page 3


  56:.\Generated_Source\PSoC5/Clock.c **** *  Clock_DM_STRONG     Strong Drive 
  57:.\Generated_Source\PSoC5/Clock.c **** *  Clock_DM_OD_HI      Open Drain, Drives High 
  58:.\Generated_Source\PSoC5/Clock.c **** *  Clock_DM_OD_LO      Open Drain, Drives Low 
  59:.\Generated_Source\PSoC5/Clock.c **** *  Clock_DM_RES_UP     Resistive Pull Up 
  60:.\Generated_Source\PSoC5/Clock.c **** *  Clock_DM_RES_DWN    Resistive Pull Down 
  61:.\Generated_Source\PSoC5/Clock.c **** *  Clock_DM_RES_UPDWN  Resistive Pull Up/Down 
  62:.\Generated_Source\PSoC5/Clock.c **** *  Clock_DM_DIG_HIZ    High Impedance Digital 
  63:.\Generated_Source\PSoC5/Clock.c **** *  Clock_DM_ALG_HIZ    High Impedance Analog 
  64:.\Generated_Source\PSoC5/Clock.c **** *
  65:.\Generated_Source\PSoC5/Clock.c **** * Return: 
  66:.\Generated_Source\PSoC5/Clock.c **** *  None
  67:.\Generated_Source\PSoC5/Clock.c **** *
  68:.\Generated_Source\PSoC5/Clock.c **** *******************************************************************************/
  69:.\Generated_Source\PSoC5/Clock.c **** void Clock_SetDriveMode(uint8 mode) 
  70:.\Generated_Source\PSoC5/Clock.c **** {
  60              		.loc 1 70 0
  61              		.cfi_startproc
  62              		@ args = 0, pretend = 0, frame = 0
  63              		@ frame_needed = 0, uses_anonymous_args = 0
  64              		@ link register save eliminated.
  65              	.LVL4:
  71:.\Generated_Source\PSoC5/Clock.c **** 	CyPins_SetPinDriveMode(Clock_0, mode);
  66              		.loc 1 71 0
  67 0000 044A     		ldr	r2, .L5
  68 0002 00F00E00 		and	r0, r0, #14
  69              	.LVL5:
  70 0006 1378     		ldrb	r3, [r2]	@ zero_extendqisi2
  71 0008 03F0F103 		and	r3, r3, #241
  72 000c 0343     		orrs	r3, r3, r0
  73 000e 1370     		strb	r3, [r2]
  74 0010 7047     		bx	lr
  75              	.L6:
  76 0012 00BF     		.align	2
  77              	.L5:
  78 0014 17500040 		.word	1073762327
  79              		.cfi_endproc
  80              	.LFE1:
  81              		.size	Clock_SetDriveMode, .-Clock_SetDriveMode
  82              		.section	.text.Clock_Read,"ax",%progbits
  83              		.align	1
  84              		.global	Clock_Read
  85              		.thumb
  86              		.thumb_func
  87              		.type	Clock_Read, %function
  88              	Clock_Read:
  89              	.LFB2:
  72:.\Generated_Source\PSoC5/Clock.c **** }
  73:.\Generated_Source\PSoC5/Clock.c **** 
  74:.\Generated_Source\PSoC5/Clock.c **** 
  75:.\Generated_Source\PSoC5/Clock.c **** /*******************************************************************************
  76:.\Generated_Source\PSoC5/Clock.c **** * Function Name: Clock_Read
  77:.\Generated_Source\PSoC5/Clock.c **** ********************************************************************************
  78:.\Generated_Source\PSoC5/Clock.c **** *
  79:.\Generated_Source\PSoC5/Clock.c **** * Summary:
  80:.\Generated_Source\PSoC5/Clock.c **** *  Read the current value on the pins of the Digital Port in right justified 
  81:.\Generated_Source\PSoC5/Clock.c **** *  form.
  82:.\Generated_Source\PSoC5/Clock.c **** *
ARM GAS  C:\Users\mjphi\AppData\Local\Temp\ccECMGhx.s 			page 4


  83:.\Generated_Source\PSoC5/Clock.c **** * Parameters:  
  84:.\Generated_Source\PSoC5/Clock.c **** *  None
  85:.\Generated_Source\PSoC5/Clock.c **** *
  86:.\Generated_Source\PSoC5/Clock.c **** * Return: 
  87:.\Generated_Source\PSoC5/Clock.c **** *  Returns the current value of the Digital Port as a right justified number
  88:.\Generated_Source\PSoC5/Clock.c **** *  
  89:.\Generated_Source\PSoC5/Clock.c **** * Note:
  90:.\Generated_Source\PSoC5/Clock.c **** *  Macro Clock_ReadPS calls this function. 
  91:.\Generated_Source\PSoC5/Clock.c **** *  
  92:.\Generated_Source\PSoC5/Clock.c **** *******************************************************************************/
  93:.\Generated_Source\PSoC5/Clock.c **** uint8 Clock_Read(void) 
  94:.\Generated_Source\PSoC5/Clock.c **** {
  90              		.loc 1 94 0
  91              		.cfi_startproc
  92              		@ args = 0, pretend = 0, frame = 0
  93              		@ frame_needed = 0, uses_anonymous_args = 0
  94              		@ link register save eliminated.
  95:.\Generated_Source\PSoC5/Clock.c ****     return (Clock_PS & Clock_MASK) >> Clock_SHIFT;
  95              		.loc 1 95 0
  96 0000 014B     		ldr	r3, .L8
  97 0002 1878     		ldrb	r0, [r3]	@ zero_extendqisi2
  96:.\Generated_Source\PSoC5/Clock.c **** }
  98              		.loc 1 96 0
  99 0004 C009     		lsrs	r0, r0, #7
 100 0006 7047     		bx	lr
 101              	.L9:
 102              		.align	2
 103              	.L8:
 104 0008 21510040 		.word	1073762593
 105              		.cfi_endproc
 106              	.LFE2:
 107              		.size	Clock_Read, .-Clock_Read
 108              		.section	.text.Clock_ReadDataReg,"ax",%progbits
 109              		.align	1
 110              		.global	Clock_ReadDataReg
 111              		.thumb
 112              		.thumb_func
 113              		.type	Clock_ReadDataReg, %function
 114              	Clock_ReadDataReg:
 115              	.LFB3:
  97:.\Generated_Source\PSoC5/Clock.c **** 
  98:.\Generated_Source\PSoC5/Clock.c **** 
  99:.\Generated_Source\PSoC5/Clock.c **** /*******************************************************************************
 100:.\Generated_Source\PSoC5/Clock.c **** * Function Name: Clock_ReadDataReg
 101:.\Generated_Source\PSoC5/Clock.c **** ********************************************************************************
 102:.\Generated_Source\PSoC5/Clock.c **** *
 103:.\Generated_Source\PSoC5/Clock.c **** * Summary:
 104:.\Generated_Source\PSoC5/Clock.c **** *  Read the current value assigned to a Digital Port's data output register
 105:.\Generated_Source\PSoC5/Clock.c **** *
 106:.\Generated_Source\PSoC5/Clock.c **** * Parameters:  
 107:.\Generated_Source\PSoC5/Clock.c **** *  None 
 108:.\Generated_Source\PSoC5/Clock.c **** *
 109:.\Generated_Source\PSoC5/Clock.c **** * Return: 
 110:.\Generated_Source\PSoC5/Clock.c **** *  Returns the current value assigned to the Digital Port's data output register
 111:.\Generated_Source\PSoC5/Clock.c **** *  
 112:.\Generated_Source\PSoC5/Clock.c **** *******************************************************************************/
 113:.\Generated_Source\PSoC5/Clock.c **** uint8 Clock_ReadDataReg(void) 
ARM GAS  C:\Users\mjphi\AppData\Local\Temp\ccECMGhx.s 			page 5


 114:.\Generated_Source\PSoC5/Clock.c **** {
 116              		.loc 1 114 0
 117              		.cfi_startproc
 118              		@ args = 0, pretend = 0, frame = 0
 119              		@ frame_needed = 0, uses_anonymous_args = 0
 120              		@ link register save eliminated.
 115:.\Generated_Source\PSoC5/Clock.c ****     return (Clock_DR & Clock_MASK) >> Clock_SHIFT;
 121              		.loc 1 115 0
 122 0000 014B     		ldr	r3, .L11
 123 0002 1878     		ldrb	r0, [r3]	@ zero_extendqisi2
 116:.\Generated_Source\PSoC5/Clock.c **** }
 124              		.loc 1 116 0
 125 0004 C009     		lsrs	r0, r0, #7
 126 0006 7047     		bx	lr
 127              	.L12:
 128              		.align	2
 129              	.L11:
 130 0008 20510040 		.word	1073762592
 131              		.cfi_endproc
 132              	.LFE3:
 133              		.size	Clock_ReadDataReg, .-Clock_ReadDataReg
 134              		.text
 135              	.Letext0:
 136              		.file 2 ".\\Generated_Source\\PSoC5\\cytypes.h"
 137              		.section	.debug_info,"",%progbits
 138              	.Ldebug_info0:
 139 0000 1C010000 		.4byte	0x11c
 140 0004 0400     		.2byte	0x4
 141 0006 00000000 		.4byte	.Ldebug_abbrev0
 142 000a 04       		.byte	0x4
 143 000b 01       		.uleb128 0x1
 144 000c 0A010000 		.4byte	.LASF20
 145 0010 01       		.byte	0x1
 146 0011 98010000 		.4byte	.LASF21
 147 0015 C1000000 		.4byte	.LASF22
 148 0019 00000000 		.4byte	.Ldebug_ranges0+0
 149 001d 00000000 		.4byte	0
 150 0021 00000000 		.4byte	.Ldebug_line0
 151 0025 02       		.uleb128 0x2
 152 0026 01       		.byte	0x1
 153 0027 06       		.byte	0x6
 154 0028 C2010000 		.4byte	.LASF0
 155 002c 02       		.uleb128 0x2
 156 002d 01       		.byte	0x1
 157 002e 08       		.byte	0x8
 158 002f 29000000 		.4byte	.LASF1
 159 0033 02       		.uleb128 0x2
 160 0034 02       		.byte	0x2
 161 0035 05       		.byte	0x5
 162 0036 00010000 		.4byte	.LASF2
 163 003a 02       		.uleb128 0x2
 164 003b 02       		.byte	0x2
 165 003c 07       		.byte	0x7
 166 003d 59000000 		.4byte	.LASF3
 167 0041 02       		.uleb128 0x2
 168 0042 04       		.byte	0x4
 169 0043 05       		.byte	0x5
ARM GAS  C:\Users\mjphi\AppData\Local\Temp\ccECMGhx.s 			page 6


 170 0044 B9010000 		.4byte	.LASF4
 171 0048 02       		.uleb128 0x2
 172 0049 04       		.byte	0x4
 173 004a 07       		.byte	0x7
 174 004b 47000000 		.4byte	.LASF5
 175 004f 02       		.uleb128 0x2
 176 0050 08       		.byte	0x8
 177 0051 05       		.byte	0x5
 178 0052 ED000000 		.4byte	.LASF6
 179 0056 02       		.uleb128 0x2
 180 0057 08       		.byte	0x8
 181 0058 07       		.byte	0x7
 182 0059 A5000000 		.4byte	.LASF7
 183 005d 03       		.uleb128 0x3
 184 005e 04       		.byte	0x4
 185 005f 05       		.byte	0x5
 186 0060 696E7400 		.ascii	"int\000"
 187 0064 02       		.uleb128 0x2
 188 0065 04       		.byte	0x4
 189 0066 07       		.byte	0x7
 190 0067 86000000 		.4byte	.LASF8
 191 006b 04       		.uleb128 0x4
 192 006c 23000000 		.4byte	.LASF12
 193 0070 02       		.byte	0x2
 194 0071 C2       		.byte	0xc2
 195 0072 2C000000 		.4byte	0x2c
 196 0076 02       		.uleb128 0x2
 197 0077 04       		.byte	0x4
 198 0078 04       		.byte	0x4
 199 0079 1D000000 		.4byte	.LASF9
 200 007d 02       		.uleb128 0x2
 201 007e 08       		.byte	0x8
 202 007f 04       		.byte	0x4
 203 0080 7F000000 		.4byte	.LASF10
 204 0084 02       		.uleb128 0x2
 205 0085 01       		.byte	0x1
 206 0086 08       		.byte	0x8
 207 0087 FB000000 		.4byte	.LASF11
 208 008b 05       		.uleb128 0x5
 209 008c 42000000 		.4byte	.LASF13
 210 0090 02       		.byte	0x2
 211 0091 6C01     		.2byte	0x16c
 212 0093 97000000 		.4byte	0x97
 213 0097 06       		.uleb128 0x6
 214 0098 6B000000 		.4byte	0x6b
 215 009c 07       		.uleb128 0x7
 216 009d 06000000 		.4byte	.LASF14
 217 00a1 01       		.byte	0x1
 218 00a2 27       		.byte	0x27
 219 00a3 00000000 		.4byte	.LFB0
 220 00a7 18000000 		.4byte	.LFE0-.LFB0
 221 00ab 01       		.uleb128 0x1
 222 00ac 9C       		.byte	0x9c
 223 00ad D0000000 		.4byte	0xd0
 224 00b1 08       		.uleb128 0x8
 225 00b2 00000000 		.4byte	.LASF16
 226 00b6 01       		.byte	0x1
ARM GAS  C:\Users\mjphi\AppData\Local\Temp\ccECMGhx.s 			page 7


 227 00b7 27       		.byte	0x27
 228 00b8 6B000000 		.4byte	0x6b
 229 00bc 00000000 		.4byte	.LLST0
 230 00c0 09       		.uleb128 0x9
 231 00c1 37000000 		.4byte	.LASF23
 232 00c5 01       		.byte	0x1
 233 00c6 29       		.byte	0x29
 234 00c7 6B000000 		.4byte	0x6b
 235 00cb 21000000 		.4byte	.LLST1
 236 00cf 00       		.byte	0
 237 00d0 07       		.uleb128 0x7
 238 00d1 6C000000 		.4byte	.LASF15
 239 00d5 01       		.byte	0x1
 240 00d6 45       		.byte	0x45
 241 00d7 00000000 		.4byte	.LFB1
 242 00db 18000000 		.4byte	.LFE1-.LFB1
 243 00df 01       		.uleb128 0x1
 244 00e0 9C       		.byte	0x9c
 245 00e1 F5000000 		.4byte	0xf5
 246 00e5 08       		.uleb128 0x8
 247 00e6 BC000000 		.4byte	.LASF17
 248 00ea 01       		.byte	0x1
 249 00eb 45       		.byte	0x45
 250 00ec 6B000000 		.4byte	0x6b
 251 00f0 39000000 		.4byte	.LLST2
 252 00f4 00       		.byte	0
 253 00f5 0A       		.uleb128 0xa
 254 00f6 12000000 		.4byte	.LASF18
 255 00fa 01       		.byte	0x1
 256 00fb 5D       		.byte	0x5d
 257 00fc 6B000000 		.4byte	0x6b
 258 0100 00000000 		.4byte	.LFB2
 259 0104 0C000000 		.4byte	.LFE2-.LFB2
 260 0108 01       		.uleb128 0x1
 261 0109 9C       		.byte	0x9c
 262 010a 0A       		.uleb128 0xa
 263 010b 93000000 		.4byte	.LASF19
 264 010f 01       		.byte	0x1
 265 0110 71       		.byte	0x71
 266 0111 6B000000 		.4byte	0x6b
 267 0115 00000000 		.4byte	.LFB3
 268 0119 0C000000 		.4byte	.LFE3-.LFB3
 269 011d 01       		.uleb128 0x1
 270 011e 9C       		.byte	0x9c
 271 011f 00       		.byte	0
 272              		.section	.debug_abbrev,"",%progbits
 273              	.Ldebug_abbrev0:
 274 0000 01       		.uleb128 0x1
 275 0001 11       		.uleb128 0x11
 276 0002 01       		.byte	0x1
 277 0003 25       		.uleb128 0x25
 278 0004 0E       		.uleb128 0xe
 279 0005 13       		.uleb128 0x13
 280 0006 0B       		.uleb128 0xb
 281 0007 03       		.uleb128 0x3
 282 0008 0E       		.uleb128 0xe
 283 0009 1B       		.uleb128 0x1b
ARM GAS  C:\Users\mjphi\AppData\Local\Temp\ccECMGhx.s 			page 8


 284 000a 0E       		.uleb128 0xe
 285 000b 55       		.uleb128 0x55
 286 000c 17       		.uleb128 0x17
 287 000d 11       		.uleb128 0x11
 288 000e 01       		.uleb128 0x1
 289 000f 10       		.uleb128 0x10
 290 0010 17       		.uleb128 0x17
 291 0011 00       		.byte	0
 292 0012 00       		.byte	0
 293 0013 02       		.uleb128 0x2
 294 0014 24       		.uleb128 0x24
 295 0015 00       		.byte	0
 296 0016 0B       		.uleb128 0xb
 297 0017 0B       		.uleb128 0xb
 298 0018 3E       		.uleb128 0x3e
 299 0019 0B       		.uleb128 0xb
 300 001a 03       		.uleb128 0x3
 301 001b 0E       		.uleb128 0xe
 302 001c 00       		.byte	0
 303 001d 00       		.byte	0
 304 001e 03       		.uleb128 0x3
 305 001f 24       		.uleb128 0x24
 306 0020 00       		.byte	0
 307 0021 0B       		.uleb128 0xb
 308 0022 0B       		.uleb128 0xb
 309 0023 3E       		.uleb128 0x3e
 310 0024 0B       		.uleb128 0xb
 311 0025 03       		.uleb128 0x3
 312 0026 08       		.uleb128 0x8
 313 0027 00       		.byte	0
 314 0028 00       		.byte	0
 315 0029 04       		.uleb128 0x4
 316 002a 16       		.uleb128 0x16
 317 002b 00       		.byte	0
 318 002c 03       		.uleb128 0x3
 319 002d 0E       		.uleb128 0xe
 320 002e 3A       		.uleb128 0x3a
 321 002f 0B       		.uleb128 0xb
 322 0030 3B       		.uleb128 0x3b
 323 0031 0B       		.uleb128 0xb
 324 0032 49       		.uleb128 0x49
 325 0033 13       		.uleb128 0x13
 326 0034 00       		.byte	0
 327 0035 00       		.byte	0
 328 0036 05       		.uleb128 0x5
 329 0037 16       		.uleb128 0x16
 330 0038 00       		.byte	0
 331 0039 03       		.uleb128 0x3
 332 003a 0E       		.uleb128 0xe
 333 003b 3A       		.uleb128 0x3a
 334 003c 0B       		.uleb128 0xb
 335 003d 3B       		.uleb128 0x3b
 336 003e 05       		.uleb128 0x5
 337 003f 49       		.uleb128 0x49
 338 0040 13       		.uleb128 0x13
 339 0041 00       		.byte	0
 340 0042 00       		.byte	0
ARM GAS  C:\Users\mjphi\AppData\Local\Temp\ccECMGhx.s 			page 9


 341 0043 06       		.uleb128 0x6
 342 0044 35       		.uleb128 0x35
 343 0045 00       		.byte	0
 344 0046 49       		.uleb128 0x49
 345 0047 13       		.uleb128 0x13
 346 0048 00       		.byte	0
 347 0049 00       		.byte	0
 348 004a 07       		.uleb128 0x7
 349 004b 2E       		.uleb128 0x2e
 350 004c 01       		.byte	0x1
 351 004d 3F       		.uleb128 0x3f
 352 004e 19       		.uleb128 0x19
 353 004f 03       		.uleb128 0x3
 354 0050 0E       		.uleb128 0xe
 355 0051 3A       		.uleb128 0x3a
 356 0052 0B       		.uleb128 0xb
 357 0053 3B       		.uleb128 0x3b
 358 0054 0B       		.uleb128 0xb
 359 0055 27       		.uleb128 0x27
 360 0056 19       		.uleb128 0x19
 361 0057 11       		.uleb128 0x11
 362 0058 01       		.uleb128 0x1
 363 0059 12       		.uleb128 0x12
 364 005a 06       		.uleb128 0x6
 365 005b 40       		.uleb128 0x40
 366 005c 18       		.uleb128 0x18
 367 005d 9742     		.uleb128 0x2117
 368 005f 19       		.uleb128 0x19
 369 0060 01       		.uleb128 0x1
 370 0061 13       		.uleb128 0x13
 371 0062 00       		.byte	0
 372 0063 00       		.byte	0
 373 0064 08       		.uleb128 0x8
 374 0065 05       		.uleb128 0x5
 375 0066 00       		.byte	0
 376 0067 03       		.uleb128 0x3
 377 0068 0E       		.uleb128 0xe
 378 0069 3A       		.uleb128 0x3a
 379 006a 0B       		.uleb128 0xb
 380 006b 3B       		.uleb128 0x3b
 381 006c 0B       		.uleb128 0xb
 382 006d 49       		.uleb128 0x49
 383 006e 13       		.uleb128 0x13
 384 006f 02       		.uleb128 0x2
 385 0070 17       		.uleb128 0x17
 386 0071 00       		.byte	0
 387 0072 00       		.byte	0
 388 0073 09       		.uleb128 0x9
 389 0074 34       		.uleb128 0x34
 390 0075 00       		.byte	0
 391 0076 03       		.uleb128 0x3
 392 0077 0E       		.uleb128 0xe
 393 0078 3A       		.uleb128 0x3a
 394 0079 0B       		.uleb128 0xb
 395 007a 3B       		.uleb128 0x3b
 396 007b 0B       		.uleb128 0xb
 397 007c 49       		.uleb128 0x49
ARM GAS  C:\Users\mjphi\AppData\Local\Temp\ccECMGhx.s 			page 10


 398 007d 13       		.uleb128 0x13
 399 007e 02       		.uleb128 0x2
 400 007f 17       		.uleb128 0x17
 401 0080 00       		.byte	0
 402 0081 00       		.byte	0
 403 0082 0A       		.uleb128 0xa
 404 0083 2E       		.uleb128 0x2e
 405 0084 00       		.byte	0
 406 0085 3F       		.uleb128 0x3f
 407 0086 19       		.uleb128 0x19
 408 0087 03       		.uleb128 0x3
 409 0088 0E       		.uleb128 0xe
 410 0089 3A       		.uleb128 0x3a
 411 008a 0B       		.uleb128 0xb
 412 008b 3B       		.uleb128 0x3b
 413 008c 0B       		.uleb128 0xb
 414 008d 27       		.uleb128 0x27
 415 008e 19       		.uleb128 0x19
 416 008f 49       		.uleb128 0x49
 417 0090 13       		.uleb128 0x13
 418 0091 11       		.uleb128 0x11
 419 0092 01       		.uleb128 0x1
 420 0093 12       		.uleb128 0x12
 421 0094 06       		.uleb128 0x6
 422 0095 40       		.uleb128 0x40
 423 0096 18       		.uleb128 0x18
 424 0097 9742     		.uleb128 0x2117
 425 0099 19       		.uleb128 0x19
 426 009a 00       		.byte	0
 427 009b 00       		.byte	0
 428 009c 00       		.byte	0
 429              		.section	.debug_loc,"",%progbits
 430              	.Ldebug_loc0:
 431              	.LLST0:
 432 0000 00000000 		.4byte	.LVL0
 433 0004 0C000000 		.4byte	.LVL3
 434 0008 0100     		.2byte	0x1
 435 000a 50       		.byte	0x50
 436 000b 0C000000 		.4byte	.LVL3
 437 000f 18000000 		.4byte	.LFE0
 438 0013 0400     		.2byte	0x4
 439 0015 F3       		.byte	0xf3
 440 0016 01       		.uleb128 0x1
 441 0017 50       		.byte	0x50
 442 0018 9F       		.byte	0x9f
 443 0019 00000000 		.4byte	0
 444 001d 00000000 		.4byte	0
 445              	.LLST1:
 446 0021 04000000 		.4byte	.LVL1
 447 0025 08000000 		.4byte	.LVL2
 448 0029 0600     		.2byte	0x6
 449 002b 73       		.byte	0x73
 450 002c 00       		.sleb128 0
 451 002d 08       		.byte	0x8
 452 002e 7F       		.byte	0x7f
 453 002f 1A       		.byte	0x1a
 454 0030 9F       		.byte	0x9f
ARM GAS  C:\Users\mjphi\AppData\Local\Temp\ccECMGhx.s 			page 11


 455 0031 00000000 		.4byte	0
 456 0035 00000000 		.4byte	0
 457              	.LLST2:
 458 0039 00000000 		.4byte	.LVL4
 459 003d 06000000 		.4byte	.LVL5
 460 0041 0100     		.2byte	0x1
 461 0043 50       		.byte	0x50
 462 0044 06000000 		.4byte	.LVL5
 463 0048 18000000 		.4byte	.LFE1
 464 004c 0400     		.2byte	0x4
 465 004e F3       		.byte	0xf3
 466 004f 01       		.uleb128 0x1
 467 0050 50       		.byte	0x50
 468 0051 9F       		.byte	0x9f
 469 0052 00000000 		.4byte	0
 470 0056 00000000 		.4byte	0
 471              		.section	.debug_aranges,"",%progbits
 472 0000 34000000 		.4byte	0x34
 473 0004 0200     		.2byte	0x2
 474 0006 00000000 		.4byte	.Ldebug_info0
 475 000a 04       		.byte	0x4
 476 000b 00       		.byte	0
 477 000c 0000     		.2byte	0
 478 000e 0000     		.2byte	0
 479 0010 00000000 		.4byte	.LFB0
 480 0014 18000000 		.4byte	.LFE0-.LFB0
 481 0018 00000000 		.4byte	.LFB1
 482 001c 18000000 		.4byte	.LFE1-.LFB1
 483 0020 00000000 		.4byte	.LFB2
 484 0024 0C000000 		.4byte	.LFE2-.LFB2
 485 0028 00000000 		.4byte	.LFB3
 486 002c 0C000000 		.4byte	.LFE3-.LFB3
 487 0030 00000000 		.4byte	0
 488 0034 00000000 		.4byte	0
 489              		.section	.debug_ranges,"",%progbits
 490              	.Ldebug_ranges0:
 491 0000 00000000 		.4byte	.LFB0
 492 0004 18000000 		.4byte	.LFE0
 493 0008 00000000 		.4byte	.LFB1
 494 000c 18000000 		.4byte	.LFE1
 495 0010 00000000 		.4byte	.LFB2
 496 0014 0C000000 		.4byte	.LFE2
 497 0018 00000000 		.4byte	.LFB3
 498 001c 0C000000 		.4byte	.LFE3
 499 0020 00000000 		.4byte	0
 500 0024 00000000 		.4byte	0
 501              		.section	.debug_line,"",%progbits
 502              	.Ldebug_line0:
 503 0000 90000000 		.section	.debug_str,"MS",%progbits,1
 503      02004400 
 503      00000201 
 503      FB0E0D00 
 503      01010101 
 504              	.LASF16:
 505 0000 76616C75 		.ascii	"value\000"
 505      6500
 506              	.LASF14:
ARM GAS  C:\Users\mjphi\AppData\Local\Temp\ccECMGhx.s 			page 12


 507 0006 436C6F63 		.ascii	"Clock_Write\000"
 507      6B5F5772 
 507      69746500 
 508              	.LASF18:
 509 0012 436C6F63 		.ascii	"Clock_Read\000"
 509      6B5F5265 
 509      616400
 510              	.LASF9:
 511 001d 666C6F61 		.ascii	"float\000"
 511      7400
 512              	.LASF12:
 513 0023 75696E74 		.ascii	"uint8\000"
 513      3800
 514              	.LASF1:
 515 0029 756E7369 		.ascii	"unsigned char\000"
 515      676E6564 
 515      20636861 
 515      7200
 516              	.LASF23:
 517 0037 73746174 		.ascii	"staticBits\000"
 517      69634269 
 517      747300
 518              	.LASF13:
 519 0042 72656738 		.ascii	"reg8\000"
 519      00
 520              	.LASF5:
 521 0047 6C6F6E67 		.ascii	"long unsigned int\000"
 521      20756E73 
 521      69676E65 
 521      6420696E 
 521      7400
 522              	.LASF3:
 523 0059 73686F72 		.ascii	"short unsigned int\000"
 523      7420756E 
 523      7369676E 
 523      65642069 
 523      6E7400
 524              	.LASF15:
 525 006c 436C6F63 		.ascii	"Clock_SetDriveMode\000"
 525      6B5F5365 
 525      74447269 
 525      76654D6F 
 525      646500
 526              	.LASF10:
 527 007f 646F7562 		.ascii	"double\000"
 527      6C6500
 528              	.LASF8:
 529 0086 756E7369 		.ascii	"unsigned int\000"
 529      676E6564 
 529      20696E74 
 529      00
 530              	.LASF19:
 531 0093 436C6F63 		.ascii	"Clock_ReadDataReg\000"
 531      6B5F5265 
 531      61644461 
 531      74615265 
 531      6700
ARM GAS  C:\Users\mjphi\AppData\Local\Temp\ccECMGhx.s 			page 13


 532              	.LASF7:
 533 00a5 6C6F6E67 		.ascii	"long long unsigned int\000"
 533      206C6F6E 
 533      6720756E 
 533      7369676E 
 533      65642069 
 534              	.LASF17:
 535 00bc 6D6F6465 		.ascii	"mode\000"
 535      00
 536              	.LASF22:
 537 00c1 433A5C63 		.ascii	"C:\\code\\uci_winter_2016\\Final_Project.cydsn\000"
 537      6F64655C 
 537      7563695F 
 537      77696E74 
 537      65725F32 
 538              	.LASF6:
 539 00ed 6C6F6E67 		.ascii	"long long int\000"
 539      206C6F6E 
 539      6720696E 
 539      7400
 540              	.LASF11:
 541 00fb 63686172 		.ascii	"char\000"
 541      00
 542              	.LASF2:
 543 0100 73686F72 		.ascii	"short int\000"
 543      7420696E 
 543      7400
 544              	.LASF20:
 545 010a 474E5520 		.ascii	"GNU C 4.9.3 20150303 (release) [ARM/embedded-4_9-br"
 545      4320342E 
 545      392E3320 
 545      32303135 
 545      30333033 
 546 013d 616E6368 		.ascii	"anch revision 221220] -mcpu=cortex-m3 -mthumb -g -O"
 546      20726576 
 546      6973696F 
 546      6E203232 
 546      31323230 
 547 0170 73202D66 		.ascii	"s -ffunction-sections -ffat-lto-objects\000"
 547      66756E63 
 547      74696F6E 
 547      2D736563 
 547      74696F6E 
 548              	.LASF21:
 549 0198 2E5C4765 		.ascii	".\\Generated_Source\\PSoC5\\Clock.c\000"
 549      6E657261 
 549      7465645F 
 549      536F7572 
 549      63655C50 
 550              	.LASF4:
 551 01b9 6C6F6E67 		.ascii	"long int\000"
 551      20696E74 
 551      00
 552              	.LASF0:
 553 01c2 7369676E 		.ascii	"signed char\000"
 553      65642063 
 553      68617200 
ARM GAS  C:\Users\mjphi\AppData\Local\Temp\ccECMGhx.s 			page 14


 554              		.ident	"GCC: (GNU Tools for ARM Embedded Processors) 4.9.3 20150303 (release) [ARM/embedded-4_9-br
