ARM GAS  C:\Users\mjphi\AppData\Local\Temp\ccrggDIR.s 			page 1


   1              		.syntax unified
   2              		.cpu cortex-m3
   3              		.fpu softvfp
   4              		.eabi_attribute 20, 1
   5              		.eabi_attribute 21, 1
   6              		.eabi_attribute 23, 3
   7              		.eabi_attribute 24, 1
   8              		.eabi_attribute 25, 1
   9              		.eabi_attribute 26, 1
  10              		.eabi_attribute 30, 6
  11              		.eabi_attribute 34, 1
  12              		.eabi_attribute 18, 4
  13              		.thumb
  14              		.file	"cymetadata.c"
  15              		.text
  16              	.Ltext0:
  17              		.cfi_sections	.debug_frame
  18              		.global	cy_meta_configecc
  19              		.section	.cyconfigecc,"a",%progbits
  20              		.align	2
  21              		.type	cy_meta_configecc, %object
  22              		.size	cy_meta_configecc, 8
  23              	cy_meta_configecc:
  24 0000 00       		.byte	0
  25 0001 80       		.byte	-128
  26 0002 80       		.byte	-128
  27 0003 00       		.byte	0
  28 0004 00       		.byte	0
  29 0005 00       		.byte	0
  30 0006 00       		.byte	0
  31 0007 00       		.byte	0
  32              		.global	cy_meta_custnvl
  33              		.section	.cycustnvl,"a",%progbits
  34              		.align	2
  35              		.type	cy_meta_custnvl, %object
  36              		.size	cy_meta_custnvl, 4
  37              	cy_meta_custnvl:
  38 0000 00       		.byte	0
  39 0001 00       		.byte	0
  40 0002 40       		.byte	64
  41 0003 05       		.byte	5
  42              		.global	cy_meta_wonvl
  43              		.section	.cywolatch,"a",%progbits
  44              		.align	2
  45              		.type	cy_meta_wonvl, %object
  46              		.size	cy_meta_wonvl, 4
  47              	cy_meta_wonvl:
  48 0000 BC       		.byte	-68
  49 0001 90       		.byte	-112
  50 0002 AC       		.byte	-84
  51 0003 AF       		.byte	-81
  52              		.global	cy_meta_flashprotect
  53              		.section	.cyflashprotect,"a",%progbits
  54              		.align	2
  55              		.type	cy_meta_flashprotect, %object
  56              		.size	cy_meta_flashprotect, 256
  57              	cy_meta_flashprotect:
ARM GAS  C:\Users\mjphi\AppData\Local\Temp\ccrggDIR.s 			page 2


  58 0000 00000000 		.space	256
  58      00000000 
  58      00000000 
  58      00000000 
  58      00000000 
  59              		.global	cy_metadata
  60              		.section	.cymeta,"a",%progbits
  61              		.align	2
  62              		.type	cy_metadata, %object
  63              		.size	cy_metadata, 12
  64              	cy_metadata:
  65 0000 00       		.byte	0
  66 0001 01       		.byte	1
  67 0002 2E       		.byte	46
  68 0003 16       		.byte	22
  69 0004 00       		.byte	0
  70 0005 69       		.byte	105
  71 0006 00       		.byte	0
  72 0007 01       		.byte	1
  73 0008 00       		.byte	0
  74 0009 00       		.byte	0
  75 000a 00       		.byte	0
  76 000b 00       		.byte	0
  77              		.text
  78              	.Letext0:
  79              		.file 1 ".\\Generated_Source\\PSoC5\\cymetadata.c"
  80              		.file 2 ".\\Generated_Source\\PSoC5\\cytypes.h"
  81              		.section	.debug_info,"",%progbits
  82              	.Ldebug_info0:
  83 0000 35010000 		.4byte	0x135
  84 0004 0400     		.2byte	0x4
  85 0006 00000000 		.4byte	.Ldebug_abbrev0
  86 000a 04       		.byte	0x4
  87 000b 01       		.uleb128 0x1
  88 000c 00000000 		.4byte	.LASF18
  89 0010 01       		.byte	0x1
  90 0011 8E000000 		.4byte	.LASF19
  91 0015 AA010000 		.4byte	.LASF20
  92 0019 00000000 		.4byte	.Ldebug_line0
  93 001d 02       		.uleb128 0x2
  94 001e 01       		.byte	0x1
  95 001f 06       		.byte	0x6
  96 0020 9E010000 		.4byte	.LASF0
  97 0024 02       		.uleb128 0x2
  98 0025 01       		.byte	0x1
  99 0026 08       		.byte	0x8
 100 0027 C6000000 		.4byte	.LASF1
 101 002b 02       		.uleb128 0x2
 102 002c 02       		.byte	0x2
 103 002d 05       		.byte	0x5
 104 002e 85010000 		.4byte	.LASF2
 105 0032 02       		.uleb128 0x2
 106 0033 02       		.byte	0x2
 107 0034 07       		.byte	0x7
 108 0035 E6000000 		.4byte	.LASF3
 109 0039 02       		.uleb128 0x2
 110 003a 04       		.byte	0x4
ARM GAS  C:\Users\mjphi\AppData\Local\Temp\ccrggDIR.s 			page 3


 111 003b 05       		.byte	0x5
 112 003c 95010000 		.4byte	.LASF4
 113 0040 02       		.uleb128 0x2
 114 0041 04       		.byte	0x4
 115 0042 07       		.byte	0x7
 116 0043 D4000000 		.4byte	.LASF5
 117 0047 02       		.uleb128 0x2
 118 0048 08       		.byte	0x8
 119 0049 05       		.byte	0x5
 120 004a 72010000 		.4byte	.LASF6
 121 004e 02       		.uleb128 0x2
 122 004f 08       		.byte	0x8
 123 0050 07       		.byte	0x7
 124 0051 2F010000 		.4byte	.LASF7
 125 0055 03       		.uleb128 0x3
 126 0056 04       		.byte	0x4
 127 0057 05       		.byte	0x5
 128 0058 696E7400 		.ascii	"int\000"
 129 005c 02       		.uleb128 0x2
 130 005d 04       		.byte	0x4
 131 005e 07       		.byte	0x7
 132 005f 22010000 		.4byte	.LASF8
 133 0063 04       		.uleb128 0x4
 134 0064 8F010000 		.4byte	.LASF21
 135 0068 02       		.byte	0x2
 136 0069 B3       		.byte	0xb3
 137 006a 24000000 		.4byte	0x24
 138 006e 02       		.uleb128 0x2
 139 006f 04       		.byte	0x4
 140 0070 04       		.byte	0x4
 141 0071 C0000000 		.4byte	.LASF9
 142 0075 02       		.uleb128 0x2
 143 0076 08       		.byte	0x8
 144 0077 04       		.byte	0x4
 145 0078 F9000000 		.4byte	.LASF10
 146 007c 02       		.uleb128 0x2
 147 007d 01       		.byte	0x1
 148 007e 08       		.byte	0x8
 149 007f 80010000 		.4byte	.LASF11
 150 0083 05       		.uleb128 0x5
 151 0084 63000000 		.4byte	0x63
 152 0088 93000000 		.4byte	0x93
 153 008c 06       		.uleb128 0x6
 154 008d 93000000 		.4byte	0x93
 155 0091 07       		.byte	0x7
 156 0092 00       		.byte	0
 157 0093 02       		.uleb128 0x2
 158 0094 04       		.byte	0x4
 159 0095 07       		.byte	0x7
 160 0096 69010000 		.4byte	.LASF12
 161 009a 07       		.uleb128 0x7
 162 009b 10010000 		.4byte	.LASF13
 163 009f 01       		.byte	0x1
 164 00a0 1C       		.byte	0x1c
 165 00a1 AB000000 		.4byte	0xab
 166 00a5 05       		.uleb128 0x5
 167 00a6 03       		.byte	0x3
ARM GAS  C:\Users\mjphi\AppData\Local\Temp\ccrggDIR.s 			page 4


 168 00a7 00000000 		.4byte	cy_meta_configecc
 169 00ab 08       		.uleb128 0x8
 170 00ac 83000000 		.4byte	0x83
 171 00b0 05       		.uleb128 0x5
 172 00b1 63000000 		.4byte	0x63
 173 00b5 C0000000 		.4byte	0xc0
 174 00b9 06       		.uleb128 0x6
 175 00ba 93000000 		.4byte	0x93
 176 00be 03       		.byte	0x3
 177 00bf 00       		.byte	0
 178 00c0 07       		.uleb128 0x7
 179 00c1 00010000 		.4byte	.LASF14
 180 00c5 01       		.byte	0x1
 181 00c6 27       		.byte	0x27
 182 00c7 D1000000 		.4byte	0xd1
 183 00cb 05       		.uleb128 0x5
 184 00cc 03       		.byte	0x3
 185 00cd 00000000 		.4byte	cy_meta_custnvl
 186 00d1 08       		.uleb128 0x8
 187 00d2 B0000000 		.4byte	0xb0
 188 00d6 07       		.uleb128 0x7
 189 00d7 5B010000 		.4byte	.LASF15
 190 00db 01       		.byte	0x1
 191 00dc 32       		.byte	0x32
 192 00dd E7000000 		.4byte	0xe7
 193 00e1 05       		.uleb128 0x5
 194 00e2 03       		.byte	0x3
 195 00e3 00000000 		.4byte	cy_meta_wonvl
 196 00e7 08       		.uleb128 0x8
 197 00e8 B0000000 		.4byte	0xb0
 198 00ec 05       		.uleb128 0x5
 199 00ed 63000000 		.4byte	0x63
 200 00f1 FC000000 		.4byte	0xfc
 201 00f5 06       		.uleb128 0x6
 202 00f6 93000000 		.4byte	0x93
 203 00fa FF       		.byte	0xff
 204 00fb 00       		.byte	0
 205 00fc 07       		.uleb128 0x7
 206 00fd 46010000 		.4byte	.LASF16
 207 0101 01       		.byte	0x1
 208 0102 3D       		.byte	0x3d
 209 0103 0D010000 		.4byte	0x10d
 210 0107 05       		.uleb128 0x5
 211 0108 03       		.byte	0x3
 212 0109 00000000 		.4byte	cy_meta_flashprotect
 213 010d 08       		.uleb128 0x8
 214 010e EC000000 		.4byte	0xec
 215 0112 05       		.uleb128 0x5
 216 0113 63000000 		.4byte	0x63
 217 0117 22010000 		.4byte	0x122
 218 011b 06       		.uleb128 0x6
 219 011c 93000000 		.4byte	0x93
 220 0120 0B       		.byte	0xb
 221 0121 00       		.byte	0
 222 0122 07       		.uleb128 0x7
 223 0123 B4000000 		.4byte	.LASF17
 224 0127 01       		.byte	0x1
ARM GAS  C:\Users\mjphi\AppData\Local\Temp\ccrggDIR.s 			page 5


 225 0128 67       		.byte	0x67
 226 0129 33010000 		.4byte	0x133
 227 012d 05       		.uleb128 0x5
 228 012e 03       		.byte	0x3
 229 012f 00000000 		.4byte	cy_metadata
 230 0133 08       		.uleb128 0x8
 231 0134 12010000 		.4byte	0x112
 232 0138 00       		.byte	0
 233              		.section	.debug_abbrev,"",%progbits
 234              	.Ldebug_abbrev0:
 235 0000 01       		.uleb128 0x1
 236 0001 11       		.uleb128 0x11
 237 0002 01       		.byte	0x1
 238 0003 25       		.uleb128 0x25
 239 0004 0E       		.uleb128 0xe
 240 0005 13       		.uleb128 0x13
 241 0006 0B       		.uleb128 0xb
 242 0007 03       		.uleb128 0x3
 243 0008 0E       		.uleb128 0xe
 244 0009 1B       		.uleb128 0x1b
 245 000a 0E       		.uleb128 0xe
 246 000b 10       		.uleb128 0x10
 247 000c 17       		.uleb128 0x17
 248 000d 00       		.byte	0
 249 000e 00       		.byte	0
 250 000f 02       		.uleb128 0x2
 251 0010 24       		.uleb128 0x24
 252 0011 00       		.byte	0
 253 0012 0B       		.uleb128 0xb
 254 0013 0B       		.uleb128 0xb
 255 0014 3E       		.uleb128 0x3e
 256 0015 0B       		.uleb128 0xb
 257 0016 03       		.uleb128 0x3
 258 0017 0E       		.uleb128 0xe
 259 0018 00       		.byte	0
 260 0019 00       		.byte	0
 261 001a 03       		.uleb128 0x3
 262 001b 24       		.uleb128 0x24
 263 001c 00       		.byte	0
 264 001d 0B       		.uleb128 0xb
 265 001e 0B       		.uleb128 0xb
 266 001f 3E       		.uleb128 0x3e
 267 0020 0B       		.uleb128 0xb
 268 0021 03       		.uleb128 0x3
 269 0022 08       		.uleb128 0x8
 270 0023 00       		.byte	0
 271 0024 00       		.byte	0
 272 0025 04       		.uleb128 0x4
 273 0026 16       		.uleb128 0x16
 274 0027 00       		.byte	0
 275 0028 03       		.uleb128 0x3
 276 0029 0E       		.uleb128 0xe
 277 002a 3A       		.uleb128 0x3a
 278 002b 0B       		.uleb128 0xb
 279 002c 3B       		.uleb128 0x3b
 280 002d 0B       		.uleb128 0xb
 281 002e 49       		.uleb128 0x49
ARM GAS  C:\Users\mjphi\AppData\Local\Temp\ccrggDIR.s 			page 6


 282 002f 13       		.uleb128 0x13
 283 0030 00       		.byte	0
 284 0031 00       		.byte	0
 285 0032 05       		.uleb128 0x5
 286 0033 01       		.uleb128 0x1
 287 0034 01       		.byte	0x1
 288 0035 49       		.uleb128 0x49
 289 0036 13       		.uleb128 0x13
 290 0037 01       		.uleb128 0x1
 291 0038 13       		.uleb128 0x13
 292 0039 00       		.byte	0
 293 003a 00       		.byte	0
 294 003b 06       		.uleb128 0x6
 295 003c 21       		.uleb128 0x21
 296 003d 00       		.byte	0
 297 003e 49       		.uleb128 0x49
 298 003f 13       		.uleb128 0x13
 299 0040 2F       		.uleb128 0x2f
 300 0041 0B       		.uleb128 0xb
 301 0042 00       		.byte	0
 302 0043 00       		.byte	0
 303 0044 07       		.uleb128 0x7
 304 0045 34       		.uleb128 0x34
 305 0046 00       		.byte	0
 306 0047 03       		.uleb128 0x3
 307 0048 0E       		.uleb128 0xe
 308 0049 3A       		.uleb128 0x3a
 309 004a 0B       		.uleb128 0xb
 310 004b 3B       		.uleb128 0x3b
 311 004c 0B       		.uleb128 0xb
 312 004d 49       		.uleb128 0x49
 313 004e 13       		.uleb128 0x13
 314 004f 3F       		.uleb128 0x3f
 315 0050 19       		.uleb128 0x19
 316 0051 02       		.uleb128 0x2
 317 0052 18       		.uleb128 0x18
 318 0053 00       		.byte	0
 319 0054 00       		.byte	0
 320 0055 08       		.uleb128 0x8
 321 0056 26       		.uleb128 0x26
 322 0057 00       		.byte	0
 323 0058 49       		.uleb128 0x49
 324 0059 13       		.uleb128 0x13
 325 005a 00       		.byte	0
 326 005b 00       		.byte	0
 327 005c 00       		.byte	0
 328              		.section	.debug_aranges,"",%progbits
 329 0000 14000000 		.4byte	0x14
 330 0004 0200     		.2byte	0x2
 331 0006 00000000 		.4byte	.Ldebug_info0
 332 000a 04       		.byte	0x4
 333 000b 00       		.byte	0
 334 000c 0000     		.2byte	0
 335 000e 0000     		.2byte	0
 336 0010 00000000 		.4byte	0
 337 0014 00000000 		.4byte	0
 338              		.section	.debug_line,"",%progbits
ARM GAS  C:\Users\mjphi\AppData\Local\Temp\ccrggDIR.s 			page 7


 339              	.Ldebug_line0:
 340 0000 4F000000 		.section	.debug_str,"MS",%progbits,1
 340      02004900 
 340      00000201 
 340      FB0E0D00 
 340      01010101 
 341              	.LASF18:
 342 0000 474E5520 		.ascii	"GNU C 4.9.3 20150303 (release) [ARM/embedded-4_9-br"
 342      4320342E 
 342      392E3320 
 342      32303135 
 342      30333033 
 343 0033 616E6368 		.ascii	"anch revision 221220] -mcpu=cortex-m3 -mthumb -g -O"
 343      20726576 
 343      6973696F 
 343      6E203232 
 343      31323230 
 344 0066 30202D66 		.ascii	"0 -ffunction-sections -ffat-lto-objects\000"
 344      66756E63 
 344      74696F6E 
 344      2D736563 
 344      74696F6E 
 345              	.LASF19:
 346 008e 2E5C4765 		.ascii	".\\Generated_Source\\PSoC5\\cymetadata.c\000"
 346      6E657261 
 346      7465645F 
 346      536F7572 
 346      63655C50 
 347              	.LASF17:
 348 00b4 63795F6D 		.ascii	"cy_metadata\000"
 348      65746164 
 348      61746100 
 349              	.LASF9:
 350 00c0 666C6F61 		.ascii	"float\000"
 350      7400
 351              	.LASF1:
 352 00c6 756E7369 		.ascii	"unsigned char\000"
 352      676E6564 
 352      20636861 
 352      7200
 353              	.LASF5:
 354 00d4 6C6F6E67 		.ascii	"long unsigned int\000"
 354      20756E73 
 354      69676E65 
 354      6420696E 
 354      7400
 355              	.LASF3:
 356 00e6 73686F72 		.ascii	"short unsigned int\000"
 356      7420756E 
 356      7369676E 
 356      65642069 
 356      6E7400
 357              	.LASF10:
 358 00f9 646F7562 		.ascii	"double\000"
 358      6C6500
 359              	.LASF14:
 360 0100 63795F6D 		.ascii	"cy_meta_custnvl\000"
ARM GAS  C:\Users\mjphi\AppData\Local\Temp\ccrggDIR.s 			page 8


 360      6574615F 
 360      63757374 
 360      6E766C00 
 361              	.LASF13:
 362 0110 63795F6D 		.ascii	"cy_meta_configecc\000"
 362      6574615F 
 362      636F6E66 
 362      69676563 
 362      6300
 363              	.LASF8:
 364 0122 756E7369 		.ascii	"unsigned int\000"
 364      676E6564 
 364      20696E74 
 364      00
 365              	.LASF7:
 366 012f 6C6F6E67 		.ascii	"long long unsigned int\000"
 366      206C6F6E 
 366      6720756E 
 366      7369676E 
 366      65642069 
 367              	.LASF16:
 368 0146 63795F6D 		.ascii	"cy_meta_flashprotect\000"
 368      6574615F 
 368      666C6173 
 368      6870726F 
 368      74656374 
 369              	.LASF15:
 370 015b 63795F6D 		.ascii	"cy_meta_wonvl\000"
 370      6574615F 
 370      776F6E76 
 370      6C00
 371              	.LASF12:
 372 0169 73697A65 		.ascii	"sizetype\000"
 372      74797065 
 372      00
 373              	.LASF6:
 374 0172 6C6F6E67 		.ascii	"long long int\000"
 374      206C6F6E 
 374      6720696E 
 374      7400
 375              	.LASF11:
 376 0180 63686172 		.ascii	"char\000"
 376      00
 377              	.LASF2:
 378 0185 73686F72 		.ascii	"short int\000"
 378      7420696E 
 378      7400
 379              	.LASF21:
 380 018f 75696E74 		.ascii	"uint8\000"
 380      3800
 381              	.LASF4:
 382 0195 6C6F6E67 		.ascii	"long int\000"
 382      20696E74 
 382      00
 383              	.LASF0:
 384 019e 7369676E 		.ascii	"signed char\000"
 384      65642063 
ARM GAS  C:\Users\mjphi\AppData\Local\Temp\ccrggDIR.s 			page 9


 384      68617200 
 385              	.LASF20:
 386 01aa 433A5C46 		.ascii	"C:\\FreeRTOSV8.2.3\\FreeRTOS\\Demo\\CORTEX_CY8C5588"
 386      72656552 
 386      544F5356 
 386      382E322E 
 386      335C4672 
 387 01d9 5F50536F 		.ascii	"_PSoC_Creator_GCC\\Lab2.cydsn\000"
 387      435F4372 
 387      6561746F 
 387      725F4743 
 387      435C4C61 
 388              		.ident	"GCC: (GNU Tools for ARM Embedded Processors) 4.9.3 20150303 (release) [ARM/embedded-4_9-br
