ARM GAS  C:\Users\mjphi\AppData\Local\Temp\ccZTI20j.s 			page 1


   1              		.syntax unified
   2              		.cpu cortex-m3
   3              		.fpu softvfp
   4              		.eabi_attribute 20, 1
   5              		.eabi_attribute 21, 1
   6              		.eabi_attribute 23, 3
   7              		.eabi_attribute 24, 1
   8              		.eabi_attribute 25, 1
   9              		.eabi_attribute 26, 1
  10              		.eabi_attribute 30, 4
  11              		.eabi_attribute 34, 1
  12              		.eabi_attribute 18, 4
  13              		.thumb
  14              		.file	"cymetadata.c"
  15              		.text
  16              	.Ltext0:
  17              		.cfi_sections	.debug_frame
  18              		.global	cy_metadata
  19              		.global	cy_meta_flashprotect
  20              		.global	cy_meta_wonvl
  21              		.global	cy_meta_custnvl
  22              		.global	cy_meta_configecc
  23              		.section	.cyconfigecc,"a",%progbits
  24              		.type	cy_meta_configecc, %object
  25              		.size	cy_meta_configecc, 8
  26              	cy_meta_configecc:
  27 0000 00       		.byte	0
  28 0001 3C       		.byte	60
  29 0002 3C       		.byte	60
  30 0003 00       		.byte	0
  31 0004 00       		.byte	0
  32 0005 00       		.byte	0
  33 0006 00       		.byte	0
  34 0007 00       		.byte	0
  35              		.section	.cywolatch,"a",%progbits
  36              		.type	cy_meta_wonvl, %object
  37              		.size	cy_meta_wonvl, 4
  38              	cy_meta_wonvl:
  39 0000 BC       		.byte	-68
  40 0001 90       		.byte	-112
  41 0002 AC       		.byte	-84
  42 0003 AF       		.byte	-81
  43              		.section	.cycustnvl,"a",%progbits
  44              		.type	cy_meta_custnvl, %object
  45              		.size	cy_meta_custnvl, 4
  46              	cy_meta_custnvl:
  47 0000 00       		.byte	0
  48 0001 00       		.byte	0
  49 0002 40       		.byte	64
  50 0003 05       		.byte	5
  51              		.section	.cymeta,"a",%progbits
  52              		.type	cy_metadata, %object
  53              		.size	cy_metadata, 12
  54              	cy_metadata:
  55 0000 00       		.byte	0
  56 0001 01       		.byte	1
  57 0002 2E       		.byte	46
ARM GAS  C:\Users\mjphi\AppData\Local\Temp\ccZTI20j.s 			page 2


  58 0003 16       		.byte	22
  59 0004 00       		.byte	0
  60 0005 69       		.byte	105
  61 0006 00       		.byte	0
  62 0007 01       		.byte	1
  63 0008 00       		.byte	0
  64 0009 00       		.byte	0
  65 000a 00       		.byte	0
  66 000b 00       		.byte	0
  67              		.section	.cyflashprotect,"a",%progbits
  68              		.type	cy_meta_flashprotect, %object
  69              		.size	cy_meta_flashprotect, 256
  70              	cy_meta_flashprotect:
  71 0000 00000000 		.space	256
  71      00000000 
  71      00000000 
  71      00000000 
  71      00000000 
  72              		.text
  73              	.Letext0:
  74              		.file 1 ".\\Generated_Source\\PSoC5\\cymetadata.c"
  75              		.file 2 ".\\Generated_Source\\PSoC5\\cytypes.h"
  76              		.section	.debug_info,"",%progbits
  77              	.Ldebug_info0:
  78 0000 35010000 		.4byte	0x135
  79 0004 0400     		.2byte	0x4
  80 0006 00000000 		.4byte	.Ldebug_abbrev0
  81 000a 04       		.byte	0x4
  82 000b 01       		.uleb128 0x1
  83 000c 2A010000 		.4byte	.LASF18
  84 0010 01       		.byte	0x1
  85 0011 00000000 		.4byte	.LASF19
  86 0015 3E000000 		.4byte	.LASF20
  87 0019 00000000 		.4byte	.Ldebug_line0
  88 001d 02       		.uleb128 0x2
  89 001e 01       		.byte	0x1
  90 001f 06       		.byte	0x6
  91 0020 C1010000 		.4byte	.LASF0
  92 0024 02       		.uleb128 0x2
  93 0025 01       		.byte	0x1
  94 0026 08       		.byte	0x8
  95 0027 86000000 		.4byte	.LASF1
  96 002b 02       		.uleb128 0x2
  97 002c 02       		.byte	0x2
  98 002d 05       		.byte	0x5
  99 002e 20010000 		.4byte	.LASF2
 100 0032 02       		.uleb128 0x2
 101 0033 02       		.byte	0x2
 102 0034 07       		.byte	0x7
 103 0035 73000000 		.4byte	.LASF3
 104 0039 02       		.uleb128 0x2
 105 003a 04       		.byte	0x4
 106 003b 05       		.byte	0x5
 107 003c B8010000 		.4byte	.LASF4
 108 0040 02       		.uleb128 0x2
 109 0041 04       		.byte	0x4
 110 0042 07       		.byte	0x7
ARM GAS  C:\Users\mjphi\AppData\Local\Temp\ccZTI20j.s 			page 3


 111 0043 61000000 		.4byte	.LASF5
 112 0047 02       		.uleb128 0x2
 113 0048 08       		.byte	0x8
 114 0049 05       		.byte	0x5
 115 004a 0D010000 		.4byte	.LASF6
 116 004e 02       		.uleb128 0x2
 117 004f 08       		.byte	0x8
 118 0050 07       		.byte	0x7
 119 0051 CA000000 		.4byte	.LASF7
 120 0055 03       		.uleb128 0x3
 121 0056 04       		.byte	0x4
 122 0057 05       		.byte	0x5
 123 0058 696E7400 		.ascii	"int\000"
 124 005c 02       		.uleb128 0x2
 125 005d 04       		.byte	0x4
 126 005e 07       		.byte	0x7
 127 005f BD000000 		.4byte	.LASF8
 128 0063 04       		.uleb128 0x4
 129 0064 38000000 		.4byte	.LASF21
 130 0068 02       		.byte	0x2
 131 0069 B3       		.byte	0xb3
 132 006a 24000000 		.4byte	0x24
 133 006e 02       		.uleb128 0x2
 134 006f 04       		.byte	0x4
 135 0070 04       		.byte	0x4
 136 0071 32000000 		.4byte	.LASF9
 137 0075 02       		.uleb128 0x2
 138 0076 08       		.byte	0x8
 139 0077 04       		.byte	0x4
 140 0078 94000000 		.4byte	.LASF10
 141 007c 02       		.uleb128 0x2
 142 007d 01       		.byte	0x1
 143 007e 08       		.byte	0x8
 144 007f 1B010000 		.4byte	.LASF11
 145 0083 05       		.uleb128 0x5
 146 0084 63000000 		.4byte	0x63
 147 0088 93000000 		.4byte	0x93
 148 008c 06       		.uleb128 0x6
 149 008d 93000000 		.4byte	0x93
 150 0091 07       		.byte	0x7
 151 0092 00       		.byte	0
 152 0093 02       		.uleb128 0x2
 153 0094 04       		.byte	0x4
 154 0095 07       		.byte	0x7
 155 0096 04010000 		.4byte	.LASF12
 156 009a 07       		.uleb128 0x7
 157 009b AB000000 		.4byte	.LASF13
 158 009f 01       		.byte	0x1
 159 00a0 1C       		.byte	0x1c
 160 00a1 AB000000 		.4byte	0xab
 161 00a5 05       		.uleb128 0x5
 162 00a6 03       		.byte	0x3
 163 00a7 00000000 		.4byte	cy_meta_configecc
 164 00ab 08       		.uleb128 0x8
 165 00ac 83000000 		.4byte	0x83
 166 00b0 05       		.uleb128 0x5
 167 00b1 63000000 		.4byte	0x63
ARM GAS  C:\Users\mjphi\AppData\Local\Temp\ccZTI20j.s 			page 4


 168 00b5 C0000000 		.4byte	0xc0
 169 00b9 06       		.uleb128 0x6
 170 00ba 93000000 		.4byte	0x93
 171 00be 03       		.byte	0x3
 172 00bf 00       		.byte	0
 173 00c0 07       		.uleb128 0x7
 174 00c1 9B000000 		.4byte	.LASF14
 175 00c5 01       		.byte	0x1
 176 00c6 27       		.byte	0x27
 177 00c7 D1000000 		.4byte	0xd1
 178 00cb 05       		.uleb128 0x5
 179 00cc 03       		.byte	0x3
 180 00cd 00000000 		.4byte	cy_meta_custnvl
 181 00d1 08       		.uleb128 0x8
 182 00d2 B0000000 		.4byte	0xb0
 183 00d6 07       		.uleb128 0x7
 184 00d7 F6000000 		.4byte	.LASF15
 185 00db 01       		.byte	0x1
 186 00dc 32       		.byte	0x32
 187 00dd E7000000 		.4byte	0xe7
 188 00e1 05       		.uleb128 0x5
 189 00e2 03       		.byte	0x3
 190 00e3 00000000 		.4byte	cy_meta_wonvl
 191 00e7 08       		.uleb128 0x8
 192 00e8 B0000000 		.4byte	0xb0
 193 00ec 05       		.uleb128 0x5
 194 00ed 63000000 		.4byte	0x63
 195 00f1 FC000000 		.4byte	0xfc
 196 00f5 06       		.uleb128 0x6
 197 00f6 93000000 		.4byte	0x93
 198 00fa FF       		.byte	0xff
 199 00fb 00       		.byte	0
 200 00fc 07       		.uleb128 0x7
 201 00fd E1000000 		.4byte	.LASF16
 202 0101 01       		.byte	0x1
 203 0102 3D       		.byte	0x3d
 204 0103 0D010000 		.4byte	0x10d
 205 0107 05       		.uleb128 0x5
 206 0108 03       		.byte	0x3
 207 0109 00000000 		.4byte	cy_meta_flashprotect
 208 010d 08       		.uleb128 0x8
 209 010e EC000000 		.4byte	0xec
 210 0112 05       		.uleb128 0x5
 211 0113 63000000 		.4byte	0x63
 212 0117 22010000 		.4byte	0x122
 213 011b 06       		.uleb128 0x6
 214 011c 93000000 		.4byte	0x93
 215 0120 0B       		.byte	0xb
 216 0121 00       		.byte	0
 217 0122 07       		.uleb128 0x7
 218 0123 26000000 		.4byte	.LASF17
 219 0127 01       		.byte	0x1
 220 0128 67       		.byte	0x67
 221 0129 33010000 		.4byte	0x133
 222 012d 05       		.uleb128 0x5
 223 012e 03       		.byte	0x3
 224 012f 00000000 		.4byte	cy_metadata
ARM GAS  C:\Users\mjphi\AppData\Local\Temp\ccZTI20j.s 			page 5


 225 0133 08       		.uleb128 0x8
 226 0134 12010000 		.4byte	0x112
 227 0138 00       		.byte	0
 228              		.section	.debug_abbrev,"",%progbits
 229              	.Ldebug_abbrev0:
 230 0000 01       		.uleb128 0x1
 231 0001 11       		.uleb128 0x11
 232 0002 01       		.byte	0x1
 233 0003 25       		.uleb128 0x25
 234 0004 0E       		.uleb128 0xe
 235 0005 13       		.uleb128 0x13
 236 0006 0B       		.uleb128 0xb
 237 0007 03       		.uleb128 0x3
 238 0008 0E       		.uleb128 0xe
 239 0009 1B       		.uleb128 0x1b
 240 000a 0E       		.uleb128 0xe
 241 000b 10       		.uleb128 0x10
 242 000c 17       		.uleb128 0x17
 243 000d 00       		.byte	0
 244 000e 00       		.byte	0
 245 000f 02       		.uleb128 0x2
 246 0010 24       		.uleb128 0x24
 247 0011 00       		.byte	0
 248 0012 0B       		.uleb128 0xb
 249 0013 0B       		.uleb128 0xb
 250 0014 3E       		.uleb128 0x3e
 251 0015 0B       		.uleb128 0xb
 252 0016 03       		.uleb128 0x3
 253 0017 0E       		.uleb128 0xe
 254 0018 00       		.byte	0
 255 0019 00       		.byte	0
 256 001a 03       		.uleb128 0x3
 257 001b 24       		.uleb128 0x24
 258 001c 00       		.byte	0
 259 001d 0B       		.uleb128 0xb
 260 001e 0B       		.uleb128 0xb
 261 001f 3E       		.uleb128 0x3e
 262 0020 0B       		.uleb128 0xb
 263 0021 03       		.uleb128 0x3
 264 0022 08       		.uleb128 0x8
 265 0023 00       		.byte	0
 266 0024 00       		.byte	0
 267 0025 04       		.uleb128 0x4
 268 0026 16       		.uleb128 0x16
 269 0027 00       		.byte	0
 270 0028 03       		.uleb128 0x3
 271 0029 0E       		.uleb128 0xe
 272 002a 3A       		.uleb128 0x3a
 273 002b 0B       		.uleb128 0xb
 274 002c 3B       		.uleb128 0x3b
 275 002d 0B       		.uleb128 0xb
 276 002e 49       		.uleb128 0x49
 277 002f 13       		.uleb128 0x13
 278 0030 00       		.byte	0
 279 0031 00       		.byte	0
 280 0032 05       		.uleb128 0x5
 281 0033 01       		.uleb128 0x1
ARM GAS  C:\Users\mjphi\AppData\Local\Temp\ccZTI20j.s 			page 6


 282 0034 01       		.byte	0x1
 283 0035 49       		.uleb128 0x49
 284 0036 13       		.uleb128 0x13
 285 0037 01       		.uleb128 0x1
 286 0038 13       		.uleb128 0x13
 287 0039 00       		.byte	0
 288 003a 00       		.byte	0
 289 003b 06       		.uleb128 0x6
 290 003c 21       		.uleb128 0x21
 291 003d 00       		.byte	0
 292 003e 49       		.uleb128 0x49
 293 003f 13       		.uleb128 0x13
 294 0040 2F       		.uleb128 0x2f
 295 0041 0B       		.uleb128 0xb
 296 0042 00       		.byte	0
 297 0043 00       		.byte	0
 298 0044 07       		.uleb128 0x7
 299 0045 34       		.uleb128 0x34
 300 0046 00       		.byte	0
 301 0047 03       		.uleb128 0x3
 302 0048 0E       		.uleb128 0xe
 303 0049 3A       		.uleb128 0x3a
 304 004a 0B       		.uleb128 0xb
 305 004b 3B       		.uleb128 0x3b
 306 004c 0B       		.uleb128 0xb
 307 004d 49       		.uleb128 0x49
 308 004e 13       		.uleb128 0x13
 309 004f 3F       		.uleb128 0x3f
 310 0050 19       		.uleb128 0x19
 311 0051 02       		.uleb128 0x2
 312 0052 18       		.uleb128 0x18
 313 0053 00       		.byte	0
 314 0054 00       		.byte	0
 315 0055 08       		.uleb128 0x8
 316 0056 26       		.uleb128 0x26
 317 0057 00       		.byte	0
 318 0058 49       		.uleb128 0x49
 319 0059 13       		.uleb128 0x13
 320 005a 00       		.byte	0
 321 005b 00       		.byte	0
 322 005c 00       		.byte	0
 323              		.section	.debug_aranges,"",%progbits
 324 0000 14000000 		.4byte	0x14
 325 0004 0200     		.2byte	0x2
 326 0006 00000000 		.4byte	.Ldebug_info0
 327 000a 04       		.byte	0x4
 328 000b 00       		.byte	0
 329 000c 0000     		.2byte	0
 330 000e 0000     		.2byte	0
 331 0010 00000000 		.4byte	0
 332 0014 00000000 		.4byte	0
 333              		.section	.debug_line,"",%progbits
 334              	.Ldebug_line0:
 335 0000 4F000000 		.section	.debug_str,"MS",%progbits,1
 335      02004900 
 335      00000201 
 335      FB0E0D00 
ARM GAS  C:\Users\mjphi\AppData\Local\Temp\ccZTI20j.s 			page 7


 335      01010101 
 336              	.LASF19:
 337 0000 2E5C4765 		.ascii	".\\Generated_Source\\PSoC5\\cymetadata.c\000"
 337      6E657261 
 337      7465645F 
 337      536F7572 
 337      63655C50 
 338              	.LASF17:
 339 0026 63795F6D 		.ascii	"cy_metadata\000"
 339      65746164 
 339      61746100 
 340              	.LASF9:
 341 0032 666C6F61 		.ascii	"float\000"
 341      7400
 342              	.LASF21:
 343 0038 75696E74 		.ascii	"uint8\000"
 343      3800
 344              	.LASF20:
 345 003e 433A5C63 		.ascii	"C:\\code\\uci_winter_2016\\Lab3.cydsn\000"
 345      6F64655C 
 345      7563695F 
 345      77696E74 
 345      65725F32 
 346              	.LASF5:
 347 0061 6C6F6E67 		.ascii	"long unsigned int\000"
 347      20756E73 
 347      69676E65 
 347      6420696E 
 347      7400
 348              	.LASF3:
 349 0073 73686F72 		.ascii	"short unsigned int\000"
 349      7420756E 
 349      7369676E 
 349      65642069 
 349      6E7400
 350              	.LASF1:
 351 0086 756E7369 		.ascii	"unsigned char\000"
 351      676E6564 
 351      20636861 
 351      7200
 352              	.LASF10:
 353 0094 646F7562 		.ascii	"double\000"
 353      6C6500
 354              	.LASF14:
 355 009b 63795F6D 		.ascii	"cy_meta_custnvl\000"
 355      6574615F 
 355      63757374 
 355      6E766C00 
 356              	.LASF13:
 357 00ab 63795F6D 		.ascii	"cy_meta_configecc\000"
 357      6574615F 
 357      636F6E66 
 357      69676563 
 357      6300
 358              	.LASF8:
 359 00bd 756E7369 		.ascii	"unsigned int\000"
 359      676E6564 
ARM GAS  C:\Users\mjphi\AppData\Local\Temp\ccZTI20j.s 			page 8


 359      20696E74 
 359      00
 360              	.LASF7:
 361 00ca 6C6F6E67 		.ascii	"long long unsigned int\000"
 361      206C6F6E 
 361      6720756E 
 361      7369676E 
 361      65642069 
 362              	.LASF16:
 363 00e1 63795F6D 		.ascii	"cy_meta_flashprotect\000"
 363      6574615F 
 363      666C6173 
 363      6870726F 
 363      74656374 
 364              	.LASF15:
 365 00f6 63795F6D 		.ascii	"cy_meta_wonvl\000"
 365      6574615F 
 365      776F6E76 
 365      6C00
 366              	.LASF12:
 367 0104 73697A65 		.ascii	"sizetype\000"
 367      74797065 
 367      00
 368              	.LASF6:
 369 010d 6C6F6E67 		.ascii	"long long int\000"
 369      206C6F6E 
 369      6720696E 
 369      7400
 370              	.LASF11:
 371 011b 63686172 		.ascii	"char\000"
 371      00
 372              	.LASF2:
 373 0120 73686F72 		.ascii	"short int\000"
 373      7420696E 
 373      7400
 374              	.LASF18:
 375 012a 474E5520 		.ascii	"GNU C 4.9.3 20150303 (release) [ARM/embedded-4_9-br"
 375      4320342E 
 375      392E3320 
 375      32303135 
 375      30333033 
 376 015d 616E6368 		.ascii	"anch revision 221220] -mcpu=cortex-m3 -mthumb -g -O"
 376      20726576 
 376      6973696F 
 376      6E203232 
 376      31323230 
 377 0190 73202D66 		.ascii	"s -ffunction-sections -ffat-lto-objects\000"
 377      66756E63 
 377      74696F6E 
 377      2D736563 
 377      74696F6E 
 378              	.LASF4:
 379 01b8 6C6F6E67 		.ascii	"long int\000"
 379      20696E74 
 379      00
 380              	.LASF0:
 381 01c1 7369676E 		.ascii	"signed char\000"
ARM GAS  C:\Users\mjphi\AppData\Local\Temp\ccZTI20j.s 			page 9


 381      65642063 
 381      68617200 
 382              		.ident	"GCC: (GNU Tools for ARM Embedded Processors) 4.9.3 20150303 (release) [ARM/embedded-4_9-br
