===========Generating Bitstream===========
# IDMUX (count=6)
00000000: 00 00 00 00 00 00
# IOPORT_0 (count=7)
00000006: 00 00 00 00 00 00 00
# IOPINS0_0 (count=16)
0000000d: 00 00 00 00 00 00 00 00 00 00 00 00 00 00 00 00

# IOPORT_1 (count=7)
0000001d: 00 00 00 00 00 00 00
# IOPINS0_1 (count=16)
00000024: 00 00 00 00 00 00 00 00 00 00 00 00 00 00 00 00

# IOPORT_2 (count=7)
00000034: 00 00 00 00 00 00 00
# IOPINS0_2 (count=8)
0000003b: 00 3c 3c 00 00 00 00 00
# IOPINS1_2 + 0x00000009 (count=5)
00000043: 00 00 00 00 00
# PICU_2 (count=8)
00000048: 00 00 00 00 00 00 00 00
# IOPORT_3 (count=7)
00000050: 00 00 00 00 00 00 00
# IOPINS0_3 (count=16)
00000057: 00 00 00 00 00 00 00 00 00 00 00 00 00 00 00 00

# IOPORT_4 (count=7)
00000067: 00 00 00 00 00 00 00
# IOPINS0_4 (count=16)
0000006e: 00 00 00 00 00 00 00 00 00 00 00 00 00 00 00 00

# IOPORT_5 (count=7)
0000007e: 00 00 00 00 00 00 00
# IOPINS0_5 (count=16)
00000085: 00 00 00 00 00 00 00 00 00 00 00 00 00 00 00 00

# IOPORT_6 (count=7)
00000095: 00 00 00 00 00 00 00
# IOPINS0_6 (count=16)
0000009c: 00 00 00 00 00 00 00 00 00 00 00 00 00 00 00 00

# IOPORT_7 (count=6)
000000ac: 00 00 00 00 00 00
# IOPINS0_7 (count=16)
000000b2: 00 00 00 00 00 00 00 00 00 00 00 00 00 00 00 00

# IOPORT_8 (count=7)
000000c2: 00 00 00 00 00 00 00
# IOPINS0_8 (count=16)
000000c9: 00 00 00 00 00 00 00 00 00 00 00 00 00 00 00 00

# IDMUX_IRQ (count=8)
000000d9: 00 00 00 00 00 00 00 00
# CYDEV_SLOWCLK_ILO_CR0 (count=1)
000000e1: 02
# CYDEV_CLKDIST_CR (count=1)
000000e2: 08
# CYDEV_FASTCLK_IMO_CR (count=1)
000000e3: 03
# CYDEV_FASTCLK_PLL_P (count=2)
000000e4: 08 00
# CYDEV_FASTCLK_PLL_CFG0 (count=2)
000000e6: 51 12
# CYDEV_CLKDIST_MSTR0 (count=2)
000000e8: 00 01
# CYDEV_CLKDIST_MSTR0 (count=1)
000000ea: 07
# CYDEV_CLKDIST_BCFG0 (count=1)
000000eb: 00
# CYDEV_CLKDIST_BCFG2 (count=1)
000000ec: 48
# CYDEV_CLKDIST_MSTR0 (count=1)
000000ed: 00
# CYDEV_CLKDIST_LD (count=1)
000000ee: 02
# UDB_1_5_0_CONFIG (count=128)
000000ef: 00 00 00 00 00 00 00 00 00 00 00 00 00 00 00 00
000000ff: 00 00 00 00 00 00 00 00 00 00 00 00 00 00 00 00
0000010f: 00 00 00 00 00 00 00 00 00 00 00 00 00 00 00 00
0000011f: 00 00 00 00 00 00 00 00 00 00 00 00 00 00 00 00
0000012f: 00 00 00 00 00 00 00 00 00 00 00 00 00 00 00 00
0000013f: 00 00 00 00 00 00 00 00 00 00 00 00 00 00 00 00
0000014f: 00 00 00 00 00 00 00 00 00 00 00 00 00 00 00 00
0000015f: 00 00 00 00 00 00 00 00 00 00 00 00 00 00 00 00

# UDB_1_5_1_CONFIG (count=128)
0000016f: 00 00 00 00 00 00 00 00 00 00 00 00 00 00 00 00
0000017f: 00 00 00 00 00 00 00 00 00 00 00 00 00 00 00 00
0000018f: 00 00 00 00 00 00 00 00 00 00 00 00 00 00 00 00
0000019f: 00 00 00 00 00 00 00 00 00 00 00 00 00 00 00 00
000001af: 00 00 00 00 00 00 00 00 00 00 00 00 00 00 00 00
000001bf: 00 00 00 00 00 00 00 00 00 00 00 00 00 00 00 00
000001cf: 00 00 00 00 00 00 00 00 00 00 00 00 00 00 00 00
000001df: 00 00 00 00 00 00 00 00 00 00 00 00 00 00 00 00

# UDB_1_4_1_CONFIG (count=128)
000001ef: 00 00 00 00 00 00 00 00 00 00 00 00 00 00 00 00
000001ff: 00 00 00 00 00 00 00 00 00 00 00 00 00 00 00 00
0000020f: 00 00 00 00 00 00 00 00 00 00 00 00 00 00 00 00
0000021f: 00 00 00 00 00 00 00 00 00 00 00 00 00 00 00 00
0000022f: 00 00 00 00 00 00 00 00 00 00 00 00 00 00 00 00
0000023f: 00 00 00 00 00 00 00 00 00 00 00 00 00 00 00 00
0000024f: 00 00 00 00 00 00 00 00 00 00 00 00 00 00 00 00
0000025f: 00 00 00 00 00 00 00 00 00 00 00 00 00 00 00 00

# UDB_1_4_0_CONFIG (count=128)
0000026f: 00 00 00 00 00 00 00 00 00 00 00 00 00 00 00 00
0000027f: 00 00 00 00 00 00 00 00 00 00 00 00 00 00 00 00
0000028f: 00 00 00 00 00 00 00 00 00 00 00 00 00 00 00 00
0000029f: 00 00 00 00 00 00 00 00 00 00 00 00 00 00 00 00
000002af: 00 00 00 00 00 00 00 00 00 00 00 00 00 00 00 00
000002bf: 00 00 00 00 00 00 00 00 00 00 00 00 00 00 00 00
000002cf: 00 00 00 00 00 00 00 00 00 00 00 00 00 00 00 00
000002df: 00 00 00 00 00 00 00 00 00 00 00 00 00 00 00 00

# UDB_1_3_0_CONFIG (count=128)
000002ef: 00 00 00 00 00 00 00 00 00 00 00 00 00 00 00 00
000002ff: 00 00 00 00 00 00 00 00 00 00 00 00 00 00 00 00
0000030f: 00 00 00 00 00 00 00 00 00 00 00 00 00 00 00 00
0000031f: 00 00 00 00 00 00 00 00 00 00 00 00 00 00 00 00
0000032f: 00 00 00 00 00 00 00 00 00 00 00 00 00 00 00 00
0000033f: 00 00 00 00 00 00 00 00 00 00 00 00 00 00 00 00
0000034f: 00 00 00 00 00 00 00 00 00 00 00 00 00 00 00 00
0000035f: 00 00 00 00 00 00 00 00 00 00 00 00 00 00 00 00

# UDB_1_3_1_CONFIG (count=128)
0000036f: 00 00 00 00 00 00 00 00 00 00 00 00 00 00 00 00
0000037f: 00 00 00 00 00 00 00 00 00 00 00 00 00 00 00 00
0000038f: 00 00 00 00 00 00 00 00 00 00 00 00 00 00 00 00
0000039f: 00 00 00 00 00 00 00 00 00 00 00 00 00 00 00 00
000003af: 00 00 00 00 00 00 00 00 00 00 00 00 00 00 00 00
000003bf: 00 00 00 00 00 00 00 00 00 00 00 00 00 00 00 00
000003cf: 00 00 00 00 00 00 00 00 00 00 00 00 00 00 00 00
000003df: 00 00 00 00 00 00 00 00 00 00 00 00 00 00 00 00

# UDB_1_2_1_CONFIG (count=128)
000003ef: 00 00 00 00 00 00 00 00 00 00 00 00 00 00 00 00
000003ff: 00 00 00 00 00 00 00 00 00 00 00 00 00 00 00 00
0000040f: 00 00 00 00 00 00 00 00 00 00 00 00 00 00 00 00
0000041f: 00 00 00 00 00 00 00 00 00 00 00 00 00 00 00 00
0000042f: 00 00 00 00 00 00 00 00 00 00 00 00 00 00 00 00
0000043f: 00 00 00 00 00 00 00 00 00 00 00 00 00 00 00 00
0000044f: 00 00 00 00 00 00 00 00 00 00 00 00 00 00 00 00
0000045f: 00 00 00 00 00 00 00 00 00 00 00 00 00 00 00 00

# UDB_1_2_0_CONFIG (count=128)
0000046f: 00 00 00 00 00 00 00 00 00 00 00 00 00 00 00 00
0000047f: 00 00 00 00 00 00 00 00 00 00 00 00 00 00 00 00
0000048f: 00 00 00 00 00 00 00 00 00 00 00 00 00 00 00 00
0000049f: 00 00 00 00 00 00 00 00 00 00 00 00 00 00 00 00
000004af: 00 00 00 00 00 00 00 00 00 00 00 00 00 00 00 00
000004bf: 00 00 00 00 00 00 00 00 00 00 00 00 00 00 00 00
000004cf: 00 00 00 00 00 00 00 00 00 00 00 00 00 00 00 00
000004df: 00 00 00 00 00 00 00 00 00 00 00 00 00 00 00 00

# UDB_0_2_1_CONFIG (count=128)
000004ef: 00 00 00 00 00 00 00 00 00 00 00 00 00 00 00 00
000004ff: 00 00 00 00 00 00 00 00 00 00 00 00 00 00 00 00
0000050f: 00 00 00 00 00 00 00 00 00 00 00 00 00 00 00 00
0000051f: 00 00 00 00 00 00 00 00 00 00 00 00 00 00 00 00
0000052f: 00 00 00 00 00 00 00 00 00 00 00 00 00 00 00 00
0000053f: 00 00 00 00 00 00 00 00 00 00 00 00 00 00 00 00
0000054f: 00 00 00 00 00 00 00 00 00 00 00 00 00 00 00 00
0000055f: 00 00 00 00 00 00 00 00 00 00 00 00 00 00 00 00

# UDB_0_2_0_CONFIG (count=128)
0000056f: 00 00 00 00 00 00 00 00 00 00 00 00 00 00 00 00
0000057f: 00 00 00 00 00 00 00 00 00 00 00 00 00 00 00 00
0000058f: 00 00 00 00 00 00 00 00 00 00 00 00 00 00 00 00
0000059f: 00 00 00 00 00 00 00 00 00 00 00 00 00 00 00 00
000005af: 00 00 00 00 00 00 00 00 00 00 00 00 00 00 00 00
000005bf: 00 00 00 00 00 00 00 00 00 00 00 00 00 00 00 00
000005cf: 00 00 00 00 00 00 00 00 00 00 00 00 00 00 00 00
000005df: 00 00 00 00 00 00 00 00 00 00 00 00 00 00 00 00

# UDB_0_3_0_CONFIG (count=128)
000005ef: 00 00 00 00 00 00 00 00 00 00 00 00 00 00 00 00
000005ff: 00 00 00 00 00 00 00 00 00 00 00 00 00 00 00 00
0000060f: 00 00 00 00 00 00 00 00 00 00 00 00 00 00 00 00
0000061f: 00 00 00 00 00 00 00 00 00 00 00 00 00 00 00 00
0000062f: 00 00 00 00 00 00 00 00 00 00 00 00 00 00 00 00
0000063f: 00 00 00 00 00 00 00 00 00 00 00 00 00 00 00 00
0000064f: 00 00 00 00 00 00 00 00 00 00 00 00 00 00 00 00
0000065f: 00 00 00 00 00 00 00 00 00 00 00 00 00 00 00 00

# UDB_0_3_1_CONFIG (count=128)
0000066f: 00 00 00 00 00 00 00 00 00 00 00 00 00 00 00 00
0000067f: 00 00 00 00 00 00 00 00 00 00 00 00 00 00 00 00
0000068f: 00 00 00 00 00 00 00 00 00 00 00 00 00 00 00 00
0000069f: 00 00 00 00 00 00 00 00 00 00 00 00 00 00 00 00
000006af: 00 00 00 00 00 00 00 00 00 00 00 00 00 00 00 00
000006bf: 00 00 00 00 00 00 00 00 00 00 00 00 00 00 00 00
000006cf: 00 00 00 00 00 00 00 00 00 00 00 00 00 00 00 00
000006df: 00 00 00 00 00 00 00 00 00 00 00 00 00 00 00 00

# UDB_0_4_1_CONFIG (count=128)
000006ef: 00 00 00 00 00 00 00 00 00 00 00 00 00 00 00 00
000006ff: 00 00 00 00 00 00 00 00 00 00 00 00 00 00 00 00
0000070f: 00 00 00 00 00 00 00 00 00 00 00 00 00 00 00 00
0000071f: 00 00 00 00 00 00 00 00 00 00 00 00 00 00 00 00
0000072f: 00 00 00 00 00 00 00 00 00 00 00 00 00 00 00 00
0000073f: 00 00 00 00 00 00 00 00 00 00 00 00 00 00 00 00
0000074f: 00 00 00 00 00 00 00 00 00 00 00 00 00 00 00 00
0000075f: 00 00 00 00 00 00 00 00 00 00 00 00 00 00 00 00

# UDB_0_4_0_CONFIG (count=128)
0000076f: 00 00 00 00 00 00 00 00 00 00 00 00 00 00 00 00
0000077f: 00 00 00 00 00 00 00 00 00 00 00 00 00 00 00 00
0000078f: 00 00 00 00 00 00 00 00 00 00 00 00 00 00 00 00
0000079f: 00 00 00 00 00 00 00 00 00 00 00 00 00 00 00 00
000007af: 00 00 00 00 00 00 00 00 00 00 00 00 00 00 00 00
000007bf: 00 00 00 00 00 00 00 00 00 00 00 00 00 00 00 00
000007cf: 00 00 00 00 00 00 00 00 00 00 00 00 00 00 00 00
000007df: 00 00 00 00 00 00 00 00 00 00 00 00 00 00 00 00

# UDB_0_5_0_CONFIG (count=128)
000007ef: 00 00 00 00 00 00 00 00 00 00 00 00 00 00 00 00
000007ff: 00 00 00 00 00 00 00 00 00 00 00 00 00 00 00 00
0000080f: 00 00 00 00 00 00 00 00 00 00 00 00 00 00 00 00
0000081f: 00 00 00 00 00 00 00 00 00 00 00 00 00 00 00 00
0000082f: 00 00 00 00 00 00 00 00 00 00 00 00 00 00 00 00
0000083f: 00 00 00 00 00 00 00 00 00 00 00 00 00 00 00 00
0000084f: 00 00 00 00 00 00 00 00 00 00 00 00 00 00 00 00
0000085f: 00 00 00 00 00 00 00 00 00 00 00 00 00 00 00 00

# UDB_0_5_1_CONFIG (count=128)
0000086f: 00 00 00 00 00 00 00 00 00 00 00 00 00 00 00 00
0000087f: 00 00 00 00 00 00 00 00 00 00 00 00 00 00 00 00
0000088f: 00 00 00 00 00 00 00 00 00 00 00 00 00 00 00 00
0000089f: 00 00 00 00 00 00 00 00 00 00 00 00 00 00 00 00
000008af: 00 00 00 00 00 00 00 00 00 00 00 00 00 00 00 00
000008bf: 00 00 00 00 00 00 00 00 00 00 00 00 00 00 00 00
000008cf: 00 00 00 00 00 00 00 00 00 00 00 00 00 00 00 00
000008df: 00 00 00 00 00 00 00 00 00 00 00 00 00 00 00 00

# UDB_1_0_0_CONFIG (count=128)
000008ef: 00 00 00 00 00 00 00 00 00 00 00 00 00 00 00 00
000008ff: 00 00 00 00 00 00 00 00 00 00 00 00 00 00 00 00
0000090f: 00 00 00 00 00 00 00 00 00 00 00 00 00 00 00 00
0000091f: 00 00 00 00 00 00 00 00 00 00 00 00 00 00 00 00
0000092f: 00 00 00 00 00 00 00 00 00 00 00 00 00 00 00 00
0000093f: 00 00 00 00 00 00 00 00 00 00 00 00 00 00 00 00
0000094f: 00 00 00 00 00 00 00 00 00 00 00 00 00 00 00 00
0000095f: 00 00 00 00 00 00 00 00 00 00 00 00 00 00 00 00

# UDB_1_0_1_CONFIG (count=128)
0000096f: 00 00 00 00 00 00 00 00 00 00 00 00 00 00 00 00
0000097f: 00 00 00 00 00 00 00 00 00 00 00 00 00 00 00 00
0000098f: 00 00 00 00 00 00 00 00 00 00 00 00 00 00 00 00
0000099f: 00 00 00 00 00 00 00 00 00 00 00 00 00 00 00 00
000009af: 00 00 00 00 00 00 00 00 00 00 00 00 00 00 00 00
000009bf: 00 00 00 00 00 00 00 00 00 00 00 00 00 00 00 00
000009cf: 00 00 00 00 00 00 00 00 00 00 00 00 00 00 00 00
000009df: 00 00 00 00 00 00 00 00 00 00 00 00 00 00 00 00

# UDB_1_1_1_CONFIG (count=128)
000009ef: 00 00 00 00 00 00 00 00 00 00 00 00 00 00 00 00
000009ff: 00 00 00 00 00 00 00 00 00 00 00 00 00 00 00 00
00000a0f: 00 00 00 00 00 00 00 00 00 00 00 00 00 00 00 00
00000a1f: 00 00 00 00 00 00 00 00 00 00 00 00 00 00 00 00
00000a2f: 00 00 00 00 00 00 00 00 00 00 00 00 00 00 00 00
00000a3f: 00 00 00 00 00 00 00 00 00 00 00 00 00 00 00 00
00000a4f: 00 00 00 00 00 00 00 00 00 00 00 00 00 00 00 00
00000a5f: 00 00 00 00 00 00 00 00 00 00 00 00 00 00 00 00

# UDB_1_1_0_CONFIG (count=128)
00000a6f: 00 00 00 00 00 00 00 00 00 00 00 00 00 00 00 00
00000a7f: 00 00 00 00 00 00 00 00 00 00 00 00 00 00 00 00
00000a8f: 00 00 00 00 00 00 00 00 00 00 00 00 00 00 00 00
00000a9f: 00 00 00 00 00 00 00 00 00 00 00 00 00 00 00 00
00000aaf: 00 00 00 00 00 00 00 00 00 00 00 00 00 00 00 00
00000abf: 00 00 00 00 00 00 00 00 00 00 00 00 00 00 00 00
00000acf: 00 00 00 00 00 00 00 00 00 00 00 00 00 00 00 00
00000adf: 00 00 00 00 00 00 00 00 00 00 00 00 00 00 00 00

# UDB_0_1_1_CONFIG (count=128)
00000aef: 00 00 00 00 00 00 00 00 00 00 00 00 00 00 00 00
00000aff: 00 00 00 00 00 00 00 00 00 00 00 00 00 00 00 00
00000b0f: 00 00 00 00 00 00 00 00 00 00 00 00 00 00 00 00
00000b1f: 00 00 00 00 00 00 00 00 00 00 00 00 00 00 00 00
00000b2f: 00 00 00 00 00 00 00 00 00 00 00 00 00 00 00 00
00000b3f: 00 00 00 00 00 00 00 00 00 00 00 00 00 00 00 00
00000b4f: 00 00 00 00 00 00 00 00 00 00 00 00 00 00 00 00
00000b5f: 00 00 00 00 00 00 00 00 00 00 00 00 00 00 00 00

# UDB_0_1_0_CONFIG (count=128)
00000b6f: 00 00 00 00 00 00 00 00 00 00 00 00 00 00 00 00
00000b7f: 00 00 00 00 00 00 00 00 00 00 00 00 00 00 00 00
00000b8f: 00 00 00 00 00 00 00 00 00 00 00 00 00 00 00 00
00000b9f: 00 00 00 00 00 00 00 00 00 00 00 00 00 00 00 00
00000baf: 00 00 00 00 00 00 00 00 00 00 00 00 00 00 00 00
00000bbf: 00 00 00 00 00 00 00 00 00 00 00 00 00 00 00 00
00000bcf: 00 00 00 00 00 00 00 00 00 00 00 00 00 00 00 00
00000bdf: 00 00 00 00 00 00 00 00 00 00 00 00 00 00 00 00

# UDB_0_0_0_CONFIG (count=128)
00000bef: 00 00 00 00 00 00 00 00 00 00 00 00 00 00 00 00
00000bff: 00 00 00 00 00 00 00 00 00 00 00 00 00 00 00 00
00000c0f: 00 00 00 00 00 00 00 00 00 00 00 00 00 00 00 00
00000c1f: 00 00 00 00 00 00 00 00 00 00 00 00 00 00 00 00
00000c2f: 00 00 00 00 00 00 00 00 00 00 00 00 00 00 00 00
00000c3f: 00 00 00 00 00 00 00 00 00 00 00 00 00 00 00 00
00000c4f: 00 00 00 00 00 00 00 00 00 00 00 00 00 00 00 00
00000c5f: 00 00 00 00 00 00 00 00 00 00 00 00 00 00 00 00

# UDB_0_0_1_CONFIG (count=128)
00000c6f: 00 00 00 00 00 00 00 00 00 00 00 00 00 00 00 00
00000c7f: 00 00 00 00 00 00 00 00 00 00 00 00 00 00 00 00
00000c8f: 00 00 00 00 00 00 00 00 00 00 00 00 00 00 00 00
00000c9f: 00 00 00 00 00 00 00 00 00 00 00 00 00 00 00 00
00000caf: 00 00 00 00 00 00 00 00 00 00 00 00 00 00 00 00
00000cbf: 00 00 00 00 00 00 00 00 00 00 00 00 00 00 00 00
00000ccf: 00 00 00 00 00 00 00 00 00 00 00 00 00 00 00 00
00000cdf: 00 00 00 00 00 00 00 00 00 00 00 00 00 00 00 00

# UWRK_B0_WRK_DP_BITS (count=64)
00000cef: 00 00 00 00 00 00 00 00 00 00 00 00 00 00 00 00
00000cff: 00 00 00 00 00 00 00 00 00 00 00 00 00 00 00 00
00000d0f: 00 00 00 00 00 00 00 00 00 00 00 00 00 00 00 00
00000d1f: 00 00 00 00 00 00 00 00 00 00 00 00 00 00 00 00

# UWRK_B0_WRK_STATCTL_BITS + 0x00000070 (count=32)
00000d2f: 00 00 00 00 00 00 00 00 00 00 00 00 00 00 00 00
00000d3f: 00 00 00 00 00 00 00 00 00 00 00 00 00 00 00 00

# UWRK_B1_WRK_DP_BITS (count=64)
00000d4f: 00 00 00 00 00 00 00 00 00 00 00 00 00 00 00 00
00000d5f: 00 00 00 00 00 00 00 00 00 00 00 00 00 00 00 00
00000d6f: 00 00 00 00 00 00 00 00 00 00 00 00 00 00 00 00
00000d7f: 00 00 00 00 00 00 00 00 00 00 00 00 00 00 00 00

# UWRK_B1_WRK_STATCTL_BITS + 0x00000070 (count=32)
00000d8f: 00 00 00 00 00 00 00 00 00 00 00 00 00 00 00 00
00000d9f: 00 00 00 00 00 00 00 00 00 00 00 00 00 00 00 00

# UCFG_BCTL1 (count=16)
00000daf: 00 00 00 00 00 00 00 00 00 00 00 00 00 00 00 00

# UCFG_BCTL0 (count=16)
00000dbf: 00 00 00 00 00 00 00 00 00 00 00 00 00 00 00 00

# DSISWITCH_0_0 (count=128)
00000dcf: 00 00 00 00 00 00 00 00 00 00 00 00 00 00 00 00
00000ddf: 00 00 00 00 00 00 00 00 00 00 00 00 00 00 00 00
00000def: 00 00 00 00 00 00 00 00 00 00 00 00 00 00 00 00
00000dff: 00 00 00 00 00 00 00 00 00 00 00 00 00 00 00 00
00000e0f: 00 00 00 00 00 00 00 00 00 00 00 00 00 00 00 00
00000e1f: 00 00 00 00 00 00 00 00 00 00 00 00 00 00 00 00
00000e2f: 00 00 00 00 00 00 00 00 00 00 00 00 00 00 00 00
00000e3f: 00 00 00 00 00 00 00 00 00 00 00 00 00 00 00 00

# DSI0_0_HV_ROUTING + 0x00000080 (count=128)
00000e4f: 00 00 00 00 00 00 00 00 00 00 00 00 00 00 00 00
00000e5f: 00 00 00 00 00 00 00 00 00 00 00 00 00 00 00 00
00000e6f: 00 00 00 00 00 00 00 00 00 00 00 00 00 00 00 00
00000e7f: 00 00 00 00 00 00 00 00 00 00 00 00 00 00 00 00
00000e8f: 00 00 00 00 00 00 00 00 00 00 00 00 00 00 00 00
00000e9f: 00 00 00 00 00 00 00 00 00 00 00 00 00 00 00 00
00000eaf: 00 00 00 00 00 00 00 00 00 00 00 00 00 00 00 00
00000ebf: 00 00 00 00 00 00 00 00 00 00 00 00 00 00 00 00

# DSISWITCH_0_1 (count=128)
00000ecf: 00 00 00 00 00 00 00 00 00 00 00 00 00 00 00 00
00000edf: 00 00 00 00 00 00 00 00 00 00 00 00 00 00 00 00
00000eef: 00 00 00 00 00 00 00 00 00 00 00 00 00 00 00 00
00000eff: 00 00 00 00 00 00 00 00 00 00 00 00 00 00 00 00
00000f0f: 00 00 00 00 00 00 00 00 00 00 00 00 00 00 00 00
00000f1f: 00 00 00 00 00 00 00 00 00 00 00 00 00 00 00 00
00000f2f: 00 00 00 00 00 00 00 00 00 00 00 00 00 00 00 00
00000f3f: 00 00 00 00 00 00 00 00 00 00 00 00 00 00 00 00

# DSI0_1_HV_ROUTING + 0x00000080 (count=128)
00000f4f: 00 00 00 00 00 00 00 00 00 00 00 00 00 00 00 00
00000f5f: 00 00 00 00 00 00 00 00 00 00 00 00 00 00 00 00
00000f6f: 00 00 00 00 00 00 00 00 00 00 00 00 00 00 00 00
00000f7f: 00 00 00 00 00 00 00 00 00 00 00 00 00 00 00 00
00000f8f: 00 00 00 00 00 00 00 00 00 00 00 00 00 00 00 00
00000f9f: 00 00 00 00 00 00 00 00 00 00 00 00 00 00 00 00
00000faf: 00 00 00 00 00 00 00 00 00 00 00 00 00 00 00 00
00000fbf: 00 00 00 00 00 00 00 00 00 00 00 00 00 00 00 00

# DSISWITCH_0_2 (count=128)
00000fcf: 00 00 00 00 00 00 00 00 00 00 00 00 00 00 00 00
00000fdf: 00 00 00 00 00 00 00 00 00 00 00 00 00 00 00 00
00000fef: 00 00 00 00 00 00 00 00 00 00 00 00 00 00 00 00
00000fff: 00 00 00 00 00 00 00 00 00 00 00 00 00 00 00 00
0000100f: 00 00 00 00 00 00 00 00 00 00 00 00 00 00 00 00
0000101f: 00 00 00 00 00 00 00 00 00 00 00 00 00 00 00 00
0000102f: 00 00 00 00 00 00 00 00 00 00 00 00 00 00 00 00
0000103f: 00 00 00 00 00 00 00 00 00 00 00 00 00 00 00 00

# DSI0_2_HV_ROUTING + 0x00000080 (count=128)
0000104f: 00 00 00 00 00 00 00 00 00 00 00 00 00 00 00 00
0000105f: 00 00 00 00 00 00 00 00 00 00 00 00 00 00 00 00
0000106f: 00 00 00 00 00 00 00 00 00 00 00 00 00 00 00 00
0000107f: 00 00 00 00 00 00 00 00 00 00 00 00 00 00 00 00
0000108f: 00 00 00 00 00 00 00 00 00 00 00 00 00 00 00 00
0000109f: 00 00 00 00 00 00 00 00 00 00 00 00 00 00 00 00
000010af: 00 00 00 00 00 00 00 00 00 00 00 00 00 00 00 00
000010bf: 00 00 00 00 00 00 00 00 00 00 00 00 00 00 00 00

# DSISWITCH_0_3 (count=128)
000010cf: 00 00 00 00 00 00 00 00 00 00 00 00 00 00 00 00
000010df: 00 00 00 00 00 00 00 00 00 00 00 00 00 00 00 00
000010ef: 00 00 00 00 00 00 00 00 00 00 00 00 00 00 00 00
000010ff: 00 00 00 00 00 00 00 00 00 00 00 00 00 00 00 00
0000110f: 00 00 00 00 00 00 00 00 00 00 00 00 00 00 00 00
0000111f: 00 00 00 00 00 00 00 00 00 00 00 00 00 00 00 00
0000112f: 00 00 00 00 00 00 00 00 00 00 00 00 00 00 00 00
0000113f: 00 00 00 00 00 00 00 00 00 00 00 00 00 00 00 00

# DSI0_3_HV_ROUTING + 0x00000080 (count=128)
0000114f: 00 00 00 00 00 00 00 00 00 00 00 00 00 00 00 00
0000115f: 00 00 00 00 00 00 00 00 00 00 00 00 00 00 00 00
0000116f: 00 00 00 00 00 00 00 00 00 00 00 00 00 00 00 00
0000117f: 00 00 00 00 00 00 00 00 00 00 00 00 00 00 00 00
0000118f: 00 00 00 00 00 00 00 00 00 00 00 00 00 00 00 00
0000119f: 00 00 00 00 00 00 00 00 00 00 00 00 00 00 00 00
000011af: 00 00 00 00 00 00 00 00 00 00 00 00 00 00 00 00
000011bf: 00 00 00 00 00 00 00 00 00 00 00 00 00 00 00 00

# DSISWITCH_0_4 (count=128)
000011cf: 00 00 00 00 00 00 00 00 00 00 00 00 00 00 00 00
000011df: 00 00 00 00 00 00 00 00 00 00 00 00 00 00 00 00
000011ef: 00 00 00 00 00 00 00 00 00 00 00 00 00 00 00 00
000011ff: 00 00 00 00 00 00 00 00 00 00 00 00 00 00 00 00
0000120f: 00 00 00 00 00 00 00 00 00 00 00 00 00 00 00 00
0000121f: 00 00 00 00 00 00 00 00 00 00 00 00 00 00 00 00
0000122f: 00 00 00 00 00 00 00 00 00 00 00 00 00 00 00 00
0000123f: 00 00 00 00 00 00 00 00 00 00 00 00 00 00 00 00

# DSI0_4_HV_ROUTING + 0x00000080 (count=128)
0000124f: 00 00 00 00 00 00 00 00 00 00 00 00 00 00 00 00
0000125f: 00 00 00 00 00 00 00 00 00 00 00 00 00 00 00 00
0000126f: 00 00 00 00 00 00 00 00 00 00 00 00 00 00 00 00
0000127f: 00 00 00 00 00 00 00 00 00 00 00 00 00 00 00 00
0000128f: 00 00 00 00 00 00 00 00 00 00 00 00 00 00 00 00
0000129f: 00 00 00 00 00 00 00 00 00 00 00 00 00 00 00 00
000012af: 00 00 00 00 00 00 00 00 00 00 00 00 00 00 00 00
000012bf: 00 00 00 00 00 00 00 00 00 00 00 00 00 00 00 00

# DSISWITCH_0_5 (count=128)
000012cf: 00 00 00 00 00 00 00 00 00 00 00 00 00 00 00 00
000012df: 00 00 00 00 00 00 00 00 00 00 00 00 00 00 00 00
000012ef: 00 00 00 00 00 00 00 00 00 00 00 00 00 00 00 00
000012ff: 00 00 00 00 00 00 00 00 00 00 00 00 00 00 00 00
0000130f: 00 00 00 00 00 00 00 00 00 00 00 00 00 00 00 00
0000131f: 00 00 00 00 00 00 00 00 00 00 00 00 00 00 00 00
0000132f: 00 00 00 00 00 00 00 00 00 00 00 00 00 00 00 00
0000133f: 00 00 00 00 00 00 00 00 00 00 00 00 00 00 00 00

# DSI0_5_HV_ROUTING + 0x00000080 (count=128)
0000134f: 00 00 00 00 00 00 00 00 00 00 00 00 00 00 00 00
0000135f: 00 00 00 00 00 00 00 00 00 00 00 00 00 00 00 00
0000136f: 00 00 00 00 00 00 00 00 00 00 00 00 00 00 00 00
0000137f: 00 00 00 00 00 00 00 00 00 00 00 00 00 00 00 00
0000138f: 00 00 00 00 00 00 00 00 00 00 00 00 00 00 00 00
0000139f: 00 00 00 00 00 00 00 00 00 00 00 00 00 00 00 00
000013af: 00 00 00 00 00 00 00 00 00 00 00 00 00 00 00 00
000013bf: 00 00 00 00 00 00 00 00 00 00 00 00 00 00 00 00

# UDBSWITCH_0_0 (count=128)
000013cf: 00 00 00 00 00 00 00 00 00 00 00 00 00 00 00 00
000013df: 00 00 00 00 00 00 00 00 00 00 00 00 00 00 00 00
000013ef: 00 00 00 00 00 00 00 00 00 00 00 00 00 00 00 00
000013ff: 00 00 00 00 00 00 00 00 00 00 00 00 00 00 00 00
0000140f: 00 00 00 00 00 00 00 00 00 00 00 00 00 00 00 00
0000141f: 00 00 00 00 00 00 00 00 00 00 00 00 00 00 00 00
0000142f: 00 00 00 00 00 00 00 00 00 00 00 00 00 00 00 00
0000143f: 00 00 00 00 00 00 00 00 00 00 00 00 00 00 00 00

# UDB_1_0_HV_ROUTING + 0x00000080 (count=128)
0000144f: 00 00 00 00 00 00 00 00 00 00 00 00 00 00 00 00
0000145f: 00 00 00 00 00 00 00 00 00 00 00 00 00 00 00 00
0000146f: 00 00 00 00 00 00 00 00 00 00 00 00 00 00 00 00
0000147f: 00 00 00 00 00 00 00 00 00 00 00 00 00 00 00 00
0000148f: 00 00 00 00 00 00 00 00 00 00 00 00 00 00 00 00
0000149f: 00 00 00 00 00 00 00 00 00 00 00 00 00 00 00 00
000014af: 00 00 00 00 00 00 00 00 00 00 00 00 00 00 00 00
000014bf: 00 00 00 00 00 00 00 00 00 00 00 00 00 00 00 00

# UDBSWITCH_1_0 (count=128)
000014cf: 00 00 00 00 00 00 00 00 00 00 00 00 00 00 00 00
000014df: 00 00 00 00 00 00 00 00 00 00 00 00 00 00 00 00
000014ef: 00 00 00 00 00 00 00 00 00 00 00 00 00 00 00 00
000014ff: 00 00 00 00 00 00 00 00 00 00 00 00 00 00 00 00
0000150f: 00 00 00 00 00 00 00 00 00 00 00 00 00 00 00 00
0000151f: 00 00 00 00 00 00 00 00 00 00 00 00 00 00 00 00
0000152f: 00 00 00 00 00 00 00 00 00 00 00 00 00 00 00 00
0000153f: 00 00 00 00 00 00 00 00 00 00 00 00 00 00 00 00

# UDB_2_0_HV_ROUTING + 0x00000080 (count=128)
0000154f: 00 00 00 00 00 00 00 00 00 00 00 00 00 00 00 00
0000155f: 00 00 00 00 00 00 00 00 00 00 00 00 00 00 00 00
0000156f: 00 00 00 00 00 00 00 00 00 00 00 00 00 00 00 00
0000157f: 00 00 00 00 00 00 00 00 00 00 00 00 00 00 00 00
0000158f: 00 00 00 00 00 00 00 00 00 00 00 00 00 00 00 00
0000159f: 00 00 00 00 00 00 00 00 00 00 00 00 00 00 00 00
000015af: 00 00 00 00 00 00 00 00 00 00 00 00 00 00 00 00
000015bf: 00 00 00 00 00 00 00 00 00 00 00 00 00 00 00 00

# UDBSWITCH_0_1 (count=128)
000015cf: 00 00 00 00 00 00 00 00 00 00 00 00 00 00 00 00
000015df: 00 00 00 00 00 00 00 00 00 00 00 00 00 00 00 00
000015ef: 00 00 00 00 00 00 00 00 00 00 00 00 00 00 00 00
000015ff: 00 00 00 00 00 00 00 00 00 00 00 00 00 00 00 00
0000160f: 00 00 00 00 00 00 00 00 00 00 00 00 00 00 00 00
0000161f: 00 00 00 00 00 00 00 00 00 00 00 00 00 00 00 00
0000162f: 00 00 00 00 00 00 00 00 00 00 00 00 00 00 00 00
0000163f: 00 00 00 00 00 00 00 00 00 00 00 00 00 00 00 00

# UDB_1_1_HV_ROUTING + 0x00000080 (count=128)
0000164f: 00 00 00 00 00 00 00 00 00 00 00 00 00 00 00 00
0000165f: 00 00 00 00 00 00 00 00 00 00 00 00 00 00 00 00
0000166f: 00 00 00 00 00 00 00 00 00 00 00 00 00 00 00 00
0000167f: 00 00 00 00 00 00 00 00 00 00 00 00 00 00 00 00
0000168f: 00 00 00 00 00 00 00 00 00 00 00 00 00 00 00 00
0000169f: 00 00 00 00 00 00 00 00 00 00 00 00 00 00 00 00
000016af: 00 00 00 00 00 00 00 00 00 00 00 00 00 00 00 00
000016bf: 00 00 00 00 00 00 00 00 00 00 00 00 00 00 00 00

# UDBSWITCH_1_1 (count=128)
000016cf: 00 00 00 00 00 00 00 00 00 00 00 00 00 00 00 00
000016df: 00 00 00 00 00 00 00 00 00 00 00 00 00 00 00 00
000016ef: 00 00 00 00 00 00 00 00 00 00 00 00 00 00 00 00
000016ff: 00 00 00 00 00 00 00 00 00 00 00 00 00 00 00 00
0000170f: 00 00 00 00 00 00 00 00 00 00 00 00 00 00 00 00
0000171f: 00 00 00 00 00 00 00 00 00 00 00 00 00 00 00 00
0000172f: 00 00 00 00 00 00 00 00 00 00 00 00 00 00 00 00
0000173f: 00 00 00 00 00 00 00 00 00 00 00 00 00 00 00 00

# UDB_2_1_HV_ROUTING + 0x00000080 (count=128)
0000174f: 00 00 00 00 00 00 00 00 00 00 00 00 00 00 00 00
0000175f: 00 00 00 00 00 00 00 00 00 00 00 00 00 00 00 00
0000176f: 00 00 00 00 00 00 00 00 00 00 00 00 00 00 00 00
0000177f: 00 00 00 00 00 00 00 00 00 00 00 00 00 00 00 00
0000178f: 00 00 00 00 00 00 00 00 00 00 00 00 00 00 00 00
0000179f: 00 00 00 00 00 00 00 00 00 00 00 00 00 00 00 00
000017af: 00 00 00 00 00 00 00 00 00 00 00 00 00 00 00 00
000017bf: 00 00 00 00 00 00 00 00 00 00 00 00 00 00 00 00

# UDBSWITCH_0_2 (count=128)
000017cf: 00 00 00 00 00 00 00 00 00 00 00 00 00 00 00 00
000017df: 00 00 00 00 00 00 00 00 00 00 00 00 00 00 00 00
000017ef: 00 00 00 00 00 00 00 00 00 00 00 00 00 00 00 00
000017ff: 00 00 00 00 00 00 00 00 00 00 00 00 00 00 00 00
0000180f: 00 00 00 00 00 00 00 00 00 00 00 00 00 00 00 00
0000181f: 00 00 00 00 00 00 00 00 00 00 00 00 00 00 00 00
0000182f: 00 00 00 00 00 00 00 00 00 00 00 00 00 00 00 00
0000183f: 00 00 00 00 00 00 00 00 00 00 00 00 00 00 00 00

# UDB_1_2_HV_ROUTING + 0x00000080 (count=128)
0000184f: 00 00 00 00 00 00 00 00 00 00 00 00 00 00 00 00
0000185f: 00 00 00 00 00 00 00 00 00 00 00 00 00 00 00 00
0000186f: 00 00 00 00 00 00 00 00 00 00 00 00 00 00 00 00
0000187f: 00 00 00 00 00 00 00 00 00 00 00 00 00 00 00 00
0000188f: 00 00 00 00 00 00 00 00 00 00 00 00 00 00 00 00
0000189f: 00 00 00 00 00 00 00 00 00 00 00 00 00 00 00 00
000018af: 00 00 00 00 00 00 00 00 00 00 00 00 00 00 00 00
000018bf: 00 00 00 00 00 00 00 00 00 00 00 00 00 00 00 00

# UDBSWITCH_1_2 (count=128)
000018cf: 00 00 00 00 00 00 00 00 00 00 00 00 00 00 00 00
000018df: 00 00 00 00 00 00 00 00 00 00 00 00 00 00 00 00
000018ef: 00 00 00 00 00 00 00 00 00 00 00 00 00 00 00 00
000018ff: 00 00 00 00 00 00 00 00 00 00 00 00 00 00 00 00
0000190f: 00 00 00 00 00 00 00 00 00 00 00 00 00 00 00 00
0000191f: 00 00 00 00 00 00 00 00 00 00 00 00 00 00 00 00
0000192f: 00 00 00 00 00 00 00 00 00 00 00 00 00 00 00 00
0000193f: 00 00 00 00 00 00 00 00 00 00 00 00 00 00 00 00

# UDB_2_2_HV_ROUTING + 0x00000080 (count=128)
0000194f: 00 00 00 00 00 00 00 00 00 00 00 00 00 00 00 00
0000195f: 00 00 00 00 00 00 00 00 00 00 00 00 00 00 00 00
0000196f: 00 00 00 00 00 00 00 00 00 00 00 00 00 00 00 00
0000197f: 00 00 00 00 00 00 00 00 00 00 00 00 00 00 00 00
0000198f: 00 00 00 00 00 00 00 00 00 00 00 00 00 00 00 00
0000199f: 00 00 00 00 00 00 00 00 00 00 00 00 00 00 00 00
000019af: 00 00 00 00 00 00 00 00 00 00 00 00 00 00 00 00
000019bf: 00 00 00 00 00 00 00 00 00 00 00 00 00 00 00 00

# UDBSWITCH_0_3 (count=128)
000019cf: 00 00 00 00 00 00 00 00 00 00 00 00 00 00 00 00
000019df: 00 00 00 00 00 00 00 00 00 00 00 00 00 00 00 00
000019ef: 00 00 00 00 00 00 00 00 00 00 00 00 00 00 00 00
000019ff: 00 00 00 00 00 00 00 00 00 00 00 00 00 00 00 00
00001a0f: 00 00 00 00 00 00 00 00 00 00 00 00 00 00 00 00
00001a1f: 00 00 00 00 00 00 00 00 00 00 00 00 00 00 00 00
00001a2f: 00 00 00 00 00 00 00 00 00 00 00 00 00 00 00 00
00001a3f: 00 00 00 00 00 00 00 00 00 00 00 00 00 00 00 00

# UDB_1_3_HV_ROUTING + 0x00000080 (count=128)
00001a4f: 00 00 00 00 00 00 00 00 00 00 00 00 00 00 00 00
00001a5f: 00 00 00 00 00 00 00 00 00 00 00 00 00 00 00 00
00001a6f: 00 00 00 00 00 00 00 00 00 00 00 00 00 00 00 00
00001a7f: 00 00 00 00 00 00 00 00 00 00 00 00 00 00 00 00
00001a8f: 00 00 00 00 00 00 00 00 00 00 00 00 00 00 00 00
00001a9f: 00 00 00 00 00 00 00 00 00 00 00 00 00 00 00 00
00001aaf: 00 00 00 00 00 00 00 00 00 00 00 00 00 00 00 00
00001abf: 00 00 00 00 00 00 00 00 00 00 00 00 00 00 00 00

# UDBSWITCH_1_3 (count=128)
00001acf: 00 00 00 00 00 00 00 00 00 00 00 00 00 00 00 00
00001adf: 00 00 00 00 00 00 00 00 00 00 00 00 00 00 00 00
00001aef: 00 00 00 00 00 00 00 00 00 00 00 00 00 00 00 00
00001aff: 00 00 00 00 00 00 00 00 00 00 00 00 00 00 00 00
00001b0f: 00 00 00 00 00 00 00 00 00 00 00 00 00 00 00 00
00001b1f: 00 00 00 00 00 00 00 00 00 00 00 00 00 00 00 00
00001b2f: 00 00 00 00 00 00 00 00 00 00 00 00 00 00 00 00
00001b3f: 00 00 00 00 00 00 00 00 00 00 00 00 00 00 00 00

# UDB_2_3_HV_ROUTING + 0x00000080 (count=128)
00001b4f: 00 00 00 00 00 00 00 00 00 00 00 00 00 00 00 00
00001b5f: 00 00 00 00 00 00 00 00 00 00 00 00 00 00 00 00
00001b6f: 00 00 00 00 00 00 00 00 00 00 00 00 00 00 00 00
00001b7f: 00 00 00 00 00 00 00 00 00 00 00 00 00 00 00 00
00001b8f: 00 00 00 00 00 00 00 00 00 00 00 00 00 00 00 00
00001b9f: 00 00 00 00 00 00 00 00 00 00 00 00 00 00 00 00
00001baf: 00 00 00 00 00 00 00 00 00 00 00 00 00 00 00 00
00001bbf: 00 00 00 00 00 00 00 00 00 00 00 00 00 00 00 00

# UDBSWITCH_0_4 (count=128)
00001bcf: 00 00 00 00 00 00 00 00 00 00 00 00 00 00 00 00
00001bdf: 00 00 00 00 00 00 00 00 00 00 00 00 00 00 00 00
00001bef: 00 00 00 00 00 00 00 00 00 00 00 00 00 00 00 00
00001bff: 00 00 00 00 00 00 00 00 00 00 00 00 00 00 00 00
00001c0f: 00 00 00 00 00 00 00 00 00 00 00 00 00 00 00 00
00001c1f: 00 00 00 00 00 00 00 00 00 00 00 00 00 00 00 00
00001c2f: 00 00 00 00 00 00 00 00 00 00 00 00 00 00 00 00
00001c3f: 00 00 00 00 00 00 00 00 00 00 00 00 00 00 00 00

# UDB_1_4_HV_ROUTING + 0x00000080 (count=128)
00001c4f: 00 00 00 00 00 00 00 00 00 00 00 00 00 00 00 00
00001c5f: 00 00 00 00 00 00 00 00 00 00 00 00 00 00 00 00
00001c6f: 00 00 00 00 00 00 00 00 00 00 00 00 00 00 00 00
00001c7f: 00 00 00 00 00 00 00 00 00 00 00 00 00 00 00 00
00001c8f: 00 00 00 00 00 00 00 00 00 00 00 00 00 00 00 00
00001c9f: 00 00 00 00 00 00 00 00 00 00 00 00 00 00 00 00
00001caf: 00 00 00 00 00 00 00 00 00 00 00 00 00 00 00 00
00001cbf: 00 00 00 00 00 00 00 00 00 00 00 00 00 00 00 00

# UDBSWITCH_1_4 (count=128)
00001ccf: 00 00 00 00 00 00 00 00 00 00 00 00 00 00 00 00
00001cdf: 00 00 00 00 00 00 00 00 00 00 00 00 00 00 00 00
00001cef: 00 00 00 00 00 00 00 00 00 00 00 00 00 00 00 00
00001cff: 00 00 00 00 00 00 00 00 00 00 00 00 00 00 00 00
00001d0f: 00 00 00 00 00 00 00 00 00 00 00 00 00 00 00 00
00001d1f: 00 00 00 00 00 00 00 00 00 00 00 00 00 00 00 00
00001d2f: 00 00 00 00 00 00 00 00 00 00 00 00 00 00 00 00
00001d3f: 00 00 00 00 00 00 00 00 00 00 00 00 00 00 00 00

# UDB_2_4_HV_ROUTING + 0x00000080 (count=128)
00001d4f: 00 00 00 00 00 00 00 00 00 00 00 00 00 00 00 00
00001d5f: 00 00 00 00 00 00 00 00 00 00 00 00 00 00 00 00
00001d6f: 00 00 00 00 00 00 00 00 00 00 00 00 00 00 00 00
00001d7f: 00 00 00 00 00 00 00 00 00 00 00 00 00 00 00 00
00001d8f: 00 00 00 00 00 00 00 00 00 00 00 00 00 00 00 00
00001d9f: 00 00 00 00 00 00 00 00 00 00 00 00 00 00 00 00
00001daf: 00 00 00 00 00 00 00 00 00 00 00 00 00 00 00 00
00001dbf: 00 00 00 00 00 00 00 00 00 00 00 00 00 00 00 00

# UDBSWITCH_0_5 (count=128)
00001dcf: 00 00 00 00 00 00 00 00 00 00 00 00 00 00 00 00
00001ddf: 00 00 00 00 00 00 00 00 00 00 00 00 00 00 00 00
00001def: 00 00 00 00 00 00 00 00 00 00 00 00 00 00 00 00
00001dff: 00 00 00 00 00 00 00 00 00 00 00 00 00 00 00 00
00001e0f: 00 00 00 00 00 00 00 00 00 00 00 00 00 00 00 00
00001e1f: 00 00 00 00 00 00 00 00 00 00 00 00 00 00 00 00
00001e2f: 00 00 00 00 00 00 00 00 00 00 00 00 00 00 00 00
00001e3f: 00 00 00 00 00 00 00 00 00 00 00 00 00 00 00 00

# UDB_1_5_HV_ROUTING + 0x00000080 (count=128)
00001e4f: 00 00 00 00 00 00 00 00 00 00 00 00 00 00 00 00
00001e5f: 00 00 00 00 00 00 00 00 00 00 00 00 00 00 00 00
00001e6f: 00 00 00 00 00 00 00 00 00 00 00 00 00 00 00 00
00001e7f: 00 00 00 00 00 00 00 00 00 00 00 00 00 00 00 00
00001e8f: 00 00 00 00 00 00 00 00 00 00 00 00 00 00 00 00
00001e9f: 00 00 00 00 00 00 00 00 00 00 00 00 00 00 00 00
00001eaf: 00 00 00 00 00 00 00 00 00 00 00 00 00 00 00 00
00001ebf: 00 00 00 00 00 00 00 00 00 00 00 00 00 00 00 00

# UDBSWITCH_1_5 (count=128)
00001ecf: 00 00 00 00 00 00 00 00 00 00 00 00 00 00 00 00
00001edf: 00 00 00 00 00 00 00 00 00 00 00 00 00 00 00 00
00001eef: 00 00 00 00 00 00 00 00 00 00 00 00 00 00 00 00
00001eff: 00 00 00 00 00 00 00 00 00 00 00 00 00 00 00 00
00001f0f: 00 00 00 00 00 00 00 00 00 00 00 00 00 00 00 00
00001f1f: 00 00 00 00 00 00 00 00 00 00 00 00 00 00 00 00
00001f2f: 00 00 00 00 00 00 00 00 00 00 00 00 00 00 00 00
00001f3f: 00 00 00 00 00 00 00 00 00 00 00 00 00 00 00 00

# UDB_2_5_HV_ROUTING + 0x00000080 (count=128)
00001f4f: 00 00 00 00 00 00 00 00 00 00 00 00 00 00 00 00
00001f5f: 00 00 00 00 00 00 00 00 00 00 00 00 00 00 00 00
00001f6f: 00 00 00 00 00 00 00 00 00 00 00 00 00 00 00 00
00001f7f: 00 00 00 00 00 00 00 00 00 00 00 00 00 00 00 00
00001f8f: 00 00 00 00 00 00 00 00 00 00 00 00 00 00 00 00
00001f9f: 00 00 00 00 00 00 00 00 00 00 00 00 00 00 00 00
00001faf: 00 00 00 00 00 00 00 00 00 00 00 00 00 00 00 00
00001fbf: 00 00 00 00 00 00 00 00 00 00 00 00 00 00 00 00

# DSISWITCH_1_0 (count=128)
00001fcf: 00 00 00 00 00 00 00 00 00 00 00 00 00 00 00 00
00001fdf: 00 00 00 00 00 00 00 00 00 00 00 00 00 00 00 00
00001fef: 00 00 00 00 00 00 00 00 00 00 00 00 00 00 00 00
00001fff: 00 00 00 00 00 00 00 00 00 00 00 00 00 00 00 00
0000200f: 00 00 00 00 00 00 00 00 00 00 00 00 00 00 00 00
0000201f: 00 00 00 00 00 00 00 00 00 00 00 00 00 00 00 00
0000202f: 00 00 00 00 00 00 00 00 00 00 00 00 00 00 00 00
0000203f: 00 00 00 00 00 00 00 00 00 00 00 00 00 00 00 00

# DSI3_0_HV_ROUTING + 0x00000080 (count=128)
0000204f: 00 00 00 00 00 00 00 00 00 00 00 00 00 00 00 00
0000205f: 00 00 00 00 00 00 00 00 00 00 00 00 00 00 00 00
0000206f: 00 00 00 00 00 00 00 00 00 00 00 00 00 00 00 00
0000207f: 00 00 00 00 00 00 00 00 00 00 00 00 00 00 00 00
0000208f: 00 00 00 00 00 00 00 00 00 00 00 00 00 00 00 00
0000209f: 00 00 00 00 00 00 00 00 00 00 00 00 00 00 00 00
000020af: 00 00 00 00 00 00 00 00 00 00 00 00 00 00 00 00
000020bf: 00 00 00 00 00 00 00 00 00 00 00 00 00 00 00 00

# DSISWITCH_1_1 (count=128)
000020cf: 00 00 00 00 00 00 00 00 00 00 00 00 00 00 00 00
000020df: 00 00 00 00 00 00 00 00 00 00 00 00 00 00 00 00
000020ef: 00 00 00 00 00 00 00 00 00 00 00 00 00 00 00 00
000020ff: 00 00 00 00 00 00 00 00 00 00 00 00 00 00 00 00
0000210f: 00 00 00 00 00 00 00 00 00 00 00 00 00 00 00 00
0000211f: 00 00 00 00 00 00 00 00 00 00 00 00 00 00 00 00
0000212f: 00 00 00 00 00 00 00 00 00 00 00 00 00 00 00 00
0000213f: 00 00 00 00 00 00 00 00 00 00 00 00 00 00 00 00

# DSI3_1_HV_ROUTING + 0x00000080 (count=128)
0000214f: 00 00 00 00 00 00 00 00 00 00 00 00 00 00 00 00
0000215f: 00 00 00 00 00 00 00 00 00 00 00 00 00 00 00 00
0000216f: 00 00 00 00 00 00 00 00 00 00 00 00 00 00 00 00
0000217f: 00 00 00 00 00 00 00 00 00 00 00 00 00 00 00 00
0000218f: 00 00 00 00 00 00 00 00 00 00 00 00 00 00 00 00
0000219f: 00 00 00 00 00 00 00 00 00 00 00 00 00 00 00 00
000021af: 00 00 00 00 00 00 00 00 00 00 00 00 00 00 00 00
000021bf: 00 00 00 00 00 00 00 00 00 00 00 00 00 00 00 00

# DSISWITCH_1_2 (count=128)
000021cf: 00 00 00 00 00 00 00 00 00 00 00 00 00 00 00 00
000021df: 00 00 00 00 00 00 00 00 00 00 00 00 00 00 00 00
000021ef: 00 00 00 00 00 00 00 00 00 00 00 00 00 00 00 00
000021ff: 00 00 00 00 00 00 00 00 00 00 00 00 00 00 00 00
0000220f: 00 00 00 00 00 00 00 00 00 00 00 00 00 00 00 00
0000221f: 00 00 00 00 00 00 00 00 00 00 00 00 00 00 00 00
0000222f: 00 00 00 00 00 00 00 00 00 00 00 00 00 00 00 00
0000223f: 00 00 00 00 00 00 00 00 00 00 00 00 00 00 00 00

# DSI3_2_HV_ROUTING + 0x00000080 (count=128)
0000224f: 00 00 00 00 00 00 00 00 00 00 00 00 00 00 00 00
0000225f: 00 00 00 00 00 00 00 00 00 00 00 00 00 00 00 00
0000226f: 00 00 00 00 00 00 00 00 00 00 00 00 00 00 00 00
0000227f: 00 00 00 00 00 00 00 00 00 00 00 00 00 00 00 00
0000228f: 00 00 00 00 00 00 00 00 00 00 00 00 00 00 00 00
0000229f: 00 00 00 00 00 00 00 00 00 00 00 00 00 00 00 00
000022af: 00 00 00 00 00 00 00 00 00 00 00 00 00 00 00 00
000022bf: 00 00 00 00 00 00 00 00 00 00 00 00 00 00 00 00

# DSISWITCH_1_3 (count=128)
000022cf: 00 00 00 00 00 00 00 00 00 00 00 00 00 00 00 00
000022df: 00 00 00 00 00 00 00 00 00 00 00 00 00 00 00 00
000022ef: 00 00 00 00 00 00 00 00 00 00 00 00 00 00 00 00
000022ff: 00 00 00 00 00 00 00 00 00 00 00 00 00 00 00 00
0000230f: 00 00 00 00 00 00 00 00 00 00 00 00 00 00 00 00
0000231f: 00 00 00 00 00 00 00 00 00 00 00 00 00 00 00 00
0000232f: 00 00 00 00 00 00 00 00 00 00 00 00 00 00 00 00
0000233f: 00 00 00 00 00 00 00 00 00 00 00 00 00 00 00 00

# DSI3_3_HV_ROUTING + 0x00000080 (count=128)
0000234f: 00 00 00 00 00 00 00 00 00 00 00 00 00 00 00 00
0000235f: 00 00 00 00 00 00 00 00 00 00 00 00 00 00 00 00
0000236f: 00 00 00 00 00 00 00 00 00 00 00 00 00 00 00 00
0000237f: 00 00 00 00 00 00 00 00 00 00 00 00 00 00 00 00
0000238f: 00 00 00 00 00 00 00 00 00 00 00 00 00 00 00 00
0000239f: 00 00 00 00 00 00 00 00 00 00 00 00 00 00 00 00
000023af: 00 00 00 00 00 00 00 00 00 00 00 00 00 00 00 00
000023bf: 00 00 00 00 00 00 00 00 00 00 00 00 00 00 00 00

# DSISWITCH_1_4 (count=128)
000023cf: 00 00 00 00 00 00 00 00 00 00 00 00 00 00 00 00
000023df: 00 00 00 00 00 00 00 00 00 00 00 00 00 00 00 00
000023ef: 00 00 00 00 00 00 00 00 00 00 00 00 00 00 00 00
000023ff: 00 00 00 00 00 00 00 00 00 00 00 00 00 00 00 00
0000240f: 00 00 00 00 00 00 00 00 00 00 00 00 00 00 00 00
0000241f: 00 00 00 00 00 00 00 00 00 00 00 00 00 00 00 00
0000242f: 00 00 00 00 00 00 00 00 00 00 00 00 00 00 00 00
0000243f: 00 00 00 00 00 00 00 00 00 00 00 00 00 00 00 00

# DSI3_4_HV_ROUTING + 0x00000080 (count=128)
0000244f: 00 00 00 00 00 00 00 00 00 00 00 00 00 00 00 00
0000245f: 00 00 00 00 00 00 00 00 00 00 00 00 00 00 00 00
0000246f: 00 00 00 00 00 00 00 00 00 00 00 00 00 00 00 00
0000247f: 00 00 00 00 00 00 00 00 00 00 00 00 00 00 00 00
0000248f: 00 00 00 00 00 00 00 00 00 00 00 00 00 00 00 00
0000249f: 00 00 00 00 00 00 00 00 00 00 00 00 00 00 00 00
000024af: 00 00 00 00 00 00 00 00 00 00 00 00 00 00 00 00
000024bf: 00 00 00 00 00 00 00 00 00 00 00 00 00 00 00 00

# DSISWITCH_1_5 (count=128)
000024cf: 00 00 00 00 00 00 00 00 00 00 00 00 00 00 00 00
000024df: 00 00 00 00 00 00 00 00 00 00 00 00 00 00 00 00
000024ef: 00 00 00 00 00 00 00 00 00 00 00 00 00 00 00 00
000024ff: 00 00 00 00 00 00 00 00 00 00 00 00 00 00 00 00
0000250f: 00 00 00 00 00 00 00 00 00 00 00 00 00 00 00 00
0000251f: 00 00 00 00 00 00 00 00 00 00 00 00 00 00 00 00
0000252f: 00 00 00 00 00 00 00 00 00 00 00 00 00 00 00 00
0000253f: 00 00 00 00 00 00 00 00 00 00 00 00 00 00 00 00

# DSI3_5_HV_ROUTING + 0x00000080 (count=128)
0000254f: 00 00 00 00 00 00 00 00 00 00 00 00 00 00 00 00
0000255f: 00 00 00 00 00 00 00 00 00 00 00 00 00 00 00 00
0000256f: 00 00 00 00 00 00 00 00 00 00 00 00 00 00 00 00
0000257f: 00 00 00 00 00 00 00 00 00 00 00 00 00 00 00 00
0000258f: 00 00 00 00 00 00 00 00 00 00 00 00 00 00 00 00
0000259f: 00 00 00 00 00 00 00 00 00 00 00 00 00 00 00 00
000025af: 00 00 00 00 00 00 00 00 00 00 00 00 00 00 00 00
000025bf: 00 00 00 00 00 00 00 00 00 00 00 00 00 00 00 00

