ARM GAS  C:\Users\mjphi\AppData\Local\Temp\ccvmRHsw.s 			page 1


   1              		.syntax unified
   2              		.cpu cortex-m3
   3              		.fpu softvfp
   4              		.eabi_attribute 20, 1
   5              		.eabi_attribute 21, 1
   6              		.eabi_attribute 23, 3
   7              		.eabi_attribute 24, 1
   8              		.eabi_attribute 25, 1
   9              		.eabi_attribute 26, 1
  10              		.eabi_attribute 30, 6
  11              		.eabi_attribute 34, 1
  12              		.eabi_attribute 18, 4
  13              		.thumb
  14              		.file	"cymetadata.c"
  15              		.text
  16              	.Ltext0:
  17              		.cfi_sections	.debug_frame
  18              		.global	cy_meta_configecc
  19              		.section	.cyconfigecc,"a",%progbits
  20              		.align	2
  21              		.type	cy_meta_configecc, %object
  22              		.size	cy_meta_configecc, 152
  23              	cy_meta_configecc:
  24 0000 02       		.byte	2
  25 0001 52       		.byte	82
  26 0002 00       		.byte	0
  27 0003 40       		.byte	64
  28 0004 01       		.byte	1
  29 0005 09       		.byte	9
  30 0006 01       		.byte	1
  31 0007 40       		.byte	64
  32 0008 04       		.byte	4
  33 0009 0A       		.byte	10
  34 000a 01       		.byte	1
  35 000b 40       		.byte	64
  36 000c 01       		.byte	1
  37 000d 0B       		.byte	11
  38 000e 01       		.byte	1
  39 000f 40       		.byte	64
  40 0010 01       		.byte	1
  41 0011 15       		.byte	21
  42 0012 01       		.byte	1
  43 0013 40       		.byte	64
  44 0014 01       		.byte	1
  45 0015 1B       		.byte	27
  46 0016 01       		.byte	1
  47 0017 40       		.byte	64
  48 0018 02       		.byte	2
  49 0019 44       		.byte	68
  50 001a 01       		.byte	1
  51 001b 40       		.byte	64
  52 001c 01       		.byte	1
  53 001d 45       		.byte	69
  54 001e 01       		.byte	1
  55 001f 40       		.byte	64
  56 0020 03       		.byte	3
  57 0021 46       		.byte	70
ARM GAS  C:\Users\mjphi\AppData\Local\Temp\ccvmRHsw.s 			page 2


  58 0022 01       		.byte	1
  59 0023 40       		.byte	64
  60 0024 03       		.byte	3
  61 0025 47       		.byte	71
  62 0026 01       		.byte	1
  63 0027 40       		.byte	64
  64 0028 02       		.byte	2
  65 0029 48       		.byte	72
  66 002a 01       		.byte	1
  67 002b 40       		.byte	64
  68 002c 01       		.byte	1
  69 002d 49       		.byte	73
  70 002e 01       		.byte	1
  71 002f 40       		.byte	64
  72 0030 01       		.byte	1
  73 0031 4C       		.byte	76
  74 0032 01       		.byte	1
  75 0033 40       		.byte	64
  76 0034 02       		.byte	2
  77 0035 4D       		.byte	77
  78 0036 01       		.byte	1
  79 0037 40       		.byte	64
  80 0038 34       		.byte	52
  81 0039 30       		.byte	48
  82 003a 64       		.byte	100
  83 003b 30       		.byte	48
  84 003c B5       		.byte	-75
  85 003d 02       		.byte	2
  86 003e B8       		.byte	-72
  87 003f 02       		.byte	2
  88 0040 BE       		.byte	-66
  89 0041 01       		.byte	1
  90 0042 D8       		.byte	-40
  91 0043 04       		.byte	4
  92 0044 DF       		.byte	-33
  93 0045 01       		.byte	1
  94 0046 1D       		.byte	29
  95 0047 02       		.byte	2
  96 0048 EC       		.byte	-20
  97 0049 10       		.byte	16
  98 004a EC       		.byte	-20
  99 004b 10       		.byte	16
 100 004c 7C       		.byte	124
 101 004d 01       		.byte	1
 102 004e DE       		.byte	-34
 103 004f 01       		.byte	1
 104 0050 94       		.byte	-108
 105 0051 01       		.byte	1
 106 0052 45       		.byte	69
 107 0053 08       		.byte	8
 108 0054 94       		.byte	-108
 109 0055 01       		.byte	1
 110 0056 D0       		.byte	-48
 111 0057 01       		.byte	1
 112 0058 A5       		.byte	-91
 113 0059 08       		.byte	8
 114 005a B4       		.byte	-76
ARM GAS  C:\Users\mjphi\AppData\Local\Temp\ccvmRHsw.s 			page 3


 115 005b 01       		.byte	1
 116 005c EC       		.byte	-20
 117 005d 08       		.byte	8
 118 005e 25       		.byte	37
 119 005f 10       		.byte	16
 120 0060 C8       		.byte	-56
 121 0061 20       		.byte	32
 122 0062 B5       		.byte	-75
 123 0063 10       		.byte	16
 124 0064 A5       		.byte	-91
 125 0065 08       		.byte	8
 126 0066 B5       		.byte	-75
 127 0067 08       		.byte	8
 128 0068 EC       		.byte	-20
 129 0069 08       		.byte	8
 130 006a 00       		.byte	0
 131 006b 00       		.byte	0
 132 006c 20       		.byte	32
 133 006d 00       		.byte	0
 134 006e 00       		.byte	0
 135 006f 20       		.byte	32
 136 0070 10       		.byte	16
 137 0071 00       		.byte	0
 138 0072 00       		.byte	0
 139 0073 00       		.byte	0
 140 0074 00       		.byte	0
 141 0075 00       		.byte	0
 142 0076 00       		.byte	0
 143 0077 00       		.byte	0
 144 0078 00       		.byte	0
 145 0079 00       		.byte	0
 146 007a 00       		.byte	0
 147 007b 00       		.byte	0
 148 007c 00       		.byte	0
 149 007d 00       		.byte	0
 150 007e 10       		.byte	16
 151 007f 00       		.byte	0
 152 0080 00       		.byte	0
 153 0081 FC       		.byte	-4
 154 0082 FC       		.byte	-4
 155 0083 00       		.byte	0
 156 0084 00       		.byte	0
 157 0085 00       		.byte	0
 158 0086 00       		.byte	0
 159 0087 00       		.byte	0
 160 0088 30       		.byte	48
 161 0089 00       		.byte	0
 162 008a 00       		.byte	0
 163 008b 30       		.byte	48
 164 008c 00       		.byte	0
 165 008d 00       		.byte	0
 166 008e 00       		.byte	0
 167 008f 00       		.byte	0
 168 0090 00       		.byte	0
 169 0091 00       		.byte	0
 170 0092 00       		.byte	0
 171 0093 00       		.byte	0
ARM GAS  C:\Users\mjphi\AppData\Local\Temp\ccvmRHsw.s 			page 4


 172 0094 67       		.byte	103
 173 0095 00       		.byte	0
 174 0096 18       		.byte	24
 175 0097 01       		.byte	1
 176              		.global	cy_meta_custnvl
 177              		.section	.cycustnvl,"a",%progbits
 178              		.align	2
 179              		.type	cy_meta_custnvl, %object
 180              		.size	cy_meta_custnvl, 4
 181              	cy_meta_custnvl:
 182 0000 00       		.byte	0
 183 0001 00       		.byte	0
 184 0002 40       		.byte	64
 185 0003 05       		.byte	5
 186              		.global	cy_meta_wonvl
 187              		.section	.cywolatch,"a",%progbits
 188              		.align	2
 189              		.type	cy_meta_wonvl, %object
 190              		.size	cy_meta_wonvl, 4
 191              	cy_meta_wonvl:
 192 0000 BC       		.byte	-68
 193 0001 90       		.byte	-112
 194 0002 AC       		.byte	-84
 195 0003 AF       		.byte	-81
 196              		.global	cy_meta_flashprotect
 197              		.section	.cyflashprotect,"a",%progbits
 198              		.align	2
 199              		.type	cy_meta_flashprotect, %object
 200              		.size	cy_meta_flashprotect, 256
 201              	cy_meta_flashprotect:
 202 0000 00000000 		.space	256
 202      00000000 
 202      00000000 
 202      00000000 
 202      00000000 
 203              		.global	cy_metadata
 204              		.section	.cymeta,"a",%progbits
 205              		.align	2
 206              		.type	cy_metadata, %object
 207              		.size	cy_metadata, 12
 208              	cy_metadata:
 209 0000 00       		.byte	0
 210 0001 01       		.byte	1
 211 0002 2E       		.byte	46
 212 0003 16       		.byte	22
 213 0004 00       		.byte	0
 214 0005 69       		.byte	105
 215 0006 00       		.byte	0
 216 0007 01       		.byte	1
 217 0008 00       		.byte	0
 218 0009 00       		.byte	0
 219 000a 00       		.byte	0
 220 000b 00       		.byte	0
 221              		.text
 222              	.Letext0:
 223              		.file 1 ".\\Generated_Source\\PSoC5\\cymetadata.c"
 224              		.file 2 ".\\Generated_Source\\PSoC5\\cytypes.h"
ARM GAS  C:\Users\mjphi\AppData\Local\Temp\ccvmRHsw.s 			page 5


 225              		.section	.debug_info,"",%progbits
 226              	.Ldebug_info0:
 227 0000 35010000 		.4byte	0x135
 228 0004 0400     		.2byte	0x4
 229 0006 00000000 		.4byte	.Ldebug_abbrev0
 230 000a 04       		.byte	0x4
 231 000b 01       		.uleb128 0x1
 232 000c 00000000 		.4byte	.LASF18
 233 0010 01       		.byte	0x1
 234 0011 8E000000 		.4byte	.LASF19
 235 0015 5B010000 		.4byte	.LASF20
 236 0019 00000000 		.4byte	.Ldebug_line0
 237 001d 02       		.uleb128 0x2
 238 001e 01       		.byte	0x1
 239 001f 06       		.byte	0x6
 240 0020 CA010000 		.4byte	.LASF0
 241 0024 02       		.uleb128 0x2
 242 0025 01       		.byte	0x1
 243 0026 08       		.byte	0x8
 244 0027 C6000000 		.4byte	.LASF1
 245 002b 02       		.uleb128 0x2
 246 002c 02       		.byte	0x2
 247 002d 05       		.byte	0x5
 248 002e B1010000 		.4byte	.LASF2
 249 0032 02       		.uleb128 0x2
 250 0033 02       		.byte	0x2
 251 0034 07       		.byte	0x7
 252 0035 E6000000 		.4byte	.LASF3
 253 0039 02       		.uleb128 0x2
 254 003a 04       		.byte	0x4
 255 003b 05       		.byte	0x5
 256 003c C1010000 		.4byte	.LASF4
 257 0040 02       		.uleb128 0x2
 258 0041 04       		.byte	0x4
 259 0042 07       		.byte	0x7
 260 0043 D4000000 		.4byte	.LASF5
 261 0047 02       		.uleb128 0x2
 262 0048 08       		.byte	0x8
 263 0049 05       		.byte	0x5
 264 004a 9E010000 		.4byte	.LASF6
 265 004e 02       		.uleb128 0x2
 266 004f 08       		.byte	0x8
 267 0050 07       		.byte	0x7
 268 0051 2F010000 		.4byte	.LASF7
 269 0055 03       		.uleb128 0x3
 270 0056 04       		.byte	0x4
 271 0057 05       		.byte	0x5
 272 0058 696E7400 		.ascii	"int\000"
 273 005c 02       		.uleb128 0x2
 274 005d 04       		.byte	0x4
 275 005e 07       		.byte	0x7
 276 005f 22010000 		.4byte	.LASF8
 277 0063 04       		.uleb128 0x4
 278 0064 BB010000 		.4byte	.LASF21
 279 0068 02       		.byte	0x2
 280 0069 C2       		.byte	0xc2
 281 006a 24000000 		.4byte	0x24
ARM GAS  C:\Users\mjphi\AppData\Local\Temp\ccvmRHsw.s 			page 6


 282 006e 02       		.uleb128 0x2
 283 006f 04       		.byte	0x4
 284 0070 04       		.byte	0x4
 285 0071 C0000000 		.4byte	.LASF9
 286 0075 02       		.uleb128 0x2
 287 0076 08       		.byte	0x8
 288 0077 04       		.byte	0x4
 289 0078 F9000000 		.4byte	.LASF10
 290 007c 02       		.uleb128 0x2
 291 007d 01       		.byte	0x1
 292 007e 08       		.byte	0x8
 293 007f AC010000 		.4byte	.LASF11
 294 0083 05       		.uleb128 0x5
 295 0084 63000000 		.4byte	0x63
 296 0088 93000000 		.4byte	0x93
 297 008c 06       		.uleb128 0x6
 298 008d 93000000 		.4byte	0x93
 299 0091 97       		.byte	0x97
 300 0092 00       		.byte	0
 301 0093 02       		.uleb128 0x2
 302 0094 04       		.byte	0x4
 303 0095 07       		.byte	0x7
 304 0096 95010000 		.4byte	.LASF12
 305 009a 07       		.uleb128 0x7
 306 009b 10010000 		.4byte	.LASF13
 307 009f 01       		.byte	0x1
 308 00a0 1C       		.byte	0x1c
 309 00a1 AB000000 		.4byte	0xab
 310 00a5 05       		.uleb128 0x5
 311 00a6 03       		.byte	0x3
 312 00a7 00000000 		.4byte	cy_meta_configecc
 313 00ab 08       		.uleb128 0x8
 314 00ac 83000000 		.4byte	0x83
 315 00b0 05       		.uleb128 0x5
 316 00b1 63000000 		.4byte	0x63
 317 00b5 C0000000 		.4byte	0xc0
 318 00b9 06       		.uleb128 0x6
 319 00ba 93000000 		.4byte	0x93
 320 00be 03       		.byte	0x3
 321 00bf 00       		.byte	0
 322 00c0 07       		.uleb128 0x7
 323 00c1 00010000 		.4byte	.LASF14
 324 00c5 01       		.byte	0x1
 325 00c6 39       		.byte	0x39
 326 00c7 D1000000 		.4byte	0xd1
 327 00cb 05       		.uleb128 0x5
 328 00cc 03       		.byte	0x3
 329 00cd 00000000 		.4byte	cy_meta_custnvl
 330 00d1 08       		.uleb128 0x8
 331 00d2 B0000000 		.4byte	0xb0
 332 00d6 07       		.uleb128 0x7
 333 00d7 87010000 		.4byte	.LASF15
 334 00db 01       		.byte	0x1
 335 00dc 44       		.byte	0x44
 336 00dd E7000000 		.4byte	0xe7
 337 00e1 05       		.uleb128 0x5
 338 00e2 03       		.byte	0x3
ARM GAS  C:\Users\mjphi\AppData\Local\Temp\ccvmRHsw.s 			page 7


 339 00e3 00000000 		.4byte	cy_meta_wonvl
 340 00e7 08       		.uleb128 0x8
 341 00e8 B0000000 		.4byte	0xb0
 342 00ec 05       		.uleb128 0x5
 343 00ed 63000000 		.4byte	0x63
 344 00f1 FC000000 		.4byte	0xfc
 345 00f5 06       		.uleb128 0x6
 346 00f6 93000000 		.4byte	0x93
 347 00fa FF       		.byte	0xff
 348 00fb 00       		.byte	0
 349 00fc 07       		.uleb128 0x7
 350 00fd 46010000 		.4byte	.LASF16
 351 0101 01       		.byte	0x1
 352 0102 4F       		.byte	0x4f
 353 0103 0D010000 		.4byte	0x10d
 354 0107 05       		.uleb128 0x5
 355 0108 03       		.byte	0x3
 356 0109 00000000 		.4byte	cy_meta_flashprotect
 357 010d 08       		.uleb128 0x8
 358 010e EC000000 		.4byte	0xec
 359 0112 05       		.uleb128 0x5
 360 0113 63000000 		.4byte	0x63
 361 0117 22010000 		.4byte	0x122
 362 011b 06       		.uleb128 0x6
 363 011c 93000000 		.4byte	0x93
 364 0120 0B       		.byte	0xb
 365 0121 00       		.byte	0
 366 0122 07       		.uleb128 0x7
 367 0123 B4000000 		.4byte	.LASF17
 368 0127 01       		.byte	0x1
 369 0128 79       		.byte	0x79
 370 0129 33010000 		.4byte	0x133
 371 012d 05       		.uleb128 0x5
 372 012e 03       		.byte	0x3
 373 012f 00000000 		.4byte	cy_metadata
 374 0133 08       		.uleb128 0x8
 375 0134 12010000 		.4byte	0x112
 376 0138 00       		.byte	0
 377              		.section	.debug_abbrev,"",%progbits
 378              	.Ldebug_abbrev0:
 379 0000 01       		.uleb128 0x1
 380 0001 11       		.uleb128 0x11
 381 0002 01       		.byte	0x1
 382 0003 25       		.uleb128 0x25
 383 0004 0E       		.uleb128 0xe
 384 0005 13       		.uleb128 0x13
 385 0006 0B       		.uleb128 0xb
 386 0007 03       		.uleb128 0x3
 387 0008 0E       		.uleb128 0xe
 388 0009 1B       		.uleb128 0x1b
 389 000a 0E       		.uleb128 0xe
 390 000b 10       		.uleb128 0x10
 391 000c 17       		.uleb128 0x17
 392 000d 00       		.byte	0
 393 000e 00       		.byte	0
 394 000f 02       		.uleb128 0x2
 395 0010 24       		.uleb128 0x24
ARM GAS  C:\Users\mjphi\AppData\Local\Temp\ccvmRHsw.s 			page 8


 396 0011 00       		.byte	0
 397 0012 0B       		.uleb128 0xb
 398 0013 0B       		.uleb128 0xb
 399 0014 3E       		.uleb128 0x3e
 400 0015 0B       		.uleb128 0xb
 401 0016 03       		.uleb128 0x3
 402 0017 0E       		.uleb128 0xe
 403 0018 00       		.byte	0
 404 0019 00       		.byte	0
 405 001a 03       		.uleb128 0x3
 406 001b 24       		.uleb128 0x24
 407 001c 00       		.byte	0
 408 001d 0B       		.uleb128 0xb
 409 001e 0B       		.uleb128 0xb
 410 001f 3E       		.uleb128 0x3e
 411 0020 0B       		.uleb128 0xb
 412 0021 03       		.uleb128 0x3
 413 0022 08       		.uleb128 0x8
 414 0023 00       		.byte	0
 415 0024 00       		.byte	0
 416 0025 04       		.uleb128 0x4
 417 0026 16       		.uleb128 0x16
 418 0027 00       		.byte	0
 419 0028 03       		.uleb128 0x3
 420 0029 0E       		.uleb128 0xe
 421 002a 3A       		.uleb128 0x3a
 422 002b 0B       		.uleb128 0xb
 423 002c 3B       		.uleb128 0x3b
 424 002d 0B       		.uleb128 0xb
 425 002e 49       		.uleb128 0x49
 426 002f 13       		.uleb128 0x13
 427 0030 00       		.byte	0
 428 0031 00       		.byte	0
 429 0032 05       		.uleb128 0x5
 430 0033 01       		.uleb128 0x1
 431 0034 01       		.byte	0x1
 432 0035 49       		.uleb128 0x49
 433 0036 13       		.uleb128 0x13
 434 0037 01       		.uleb128 0x1
 435 0038 13       		.uleb128 0x13
 436 0039 00       		.byte	0
 437 003a 00       		.byte	0
 438 003b 06       		.uleb128 0x6
 439 003c 21       		.uleb128 0x21
 440 003d 00       		.byte	0
 441 003e 49       		.uleb128 0x49
 442 003f 13       		.uleb128 0x13
 443 0040 2F       		.uleb128 0x2f
 444 0041 0B       		.uleb128 0xb
 445 0042 00       		.byte	0
 446 0043 00       		.byte	0
 447 0044 07       		.uleb128 0x7
 448 0045 34       		.uleb128 0x34
 449 0046 00       		.byte	0
 450 0047 03       		.uleb128 0x3
 451 0048 0E       		.uleb128 0xe
 452 0049 3A       		.uleb128 0x3a
ARM GAS  C:\Users\mjphi\AppData\Local\Temp\ccvmRHsw.s 			page 9


 453 004a 0B       		.uleb128 0xb
 454 004b 3B       		.uleb128 0x3b
 455 004c 0B       		.uleb128 0xb
 456 004d 49       		.uleb128 0x49
 457 004e 13       		.uleb128 0x13
 458 004f 3F       		.uleb128 0x3f
 459 0050 19       		.uleb128 0x19
 460 0051 02       		.uleb128 0x2
 461 0052 18       		.uleb128 0x18
 462 0053 00       		.byte	0
 463 0054 00       		.byte	0
 464 0055 08       		.uleb128 0x8
 465 0056 26       		.uleb128 0x26
 466 0057 00       		.byte	0
 467 0058 49       		.uleb128 0x49
 468 0059 13       		.uleb128 0x13
 469 005a 00       		.byte	0
 470 005b 00       		.byte	0
 471 005c 00       		.byte	0
 472              		.section	.debug_aranges,"",%progbits
 473 0000 14000000 		.4byte	0x14
 474 0004 0200     		.2byte	0x2
 475 0006 00000000 		.4byte	.Ldebug_info0
 476 000a 04       		.byte	0x4
 477 000b 00       		.byte	0
 478 000c 0000     		.2byte	0
 479 000e 0000     		.2byte	0
 480 0010 00000000 		.4byte	0
 481 0014 00000000 		.4byte	0
 482              		.section	.debug_line,"",%progbits
 483              	.Ldebug_line0:
 484 0000 4F000000 		.section	.debug_str,"MS",%progbits,1
 484      02004900 
 484      00000201 
 484      FB0E0D00 
 484      01010101 
 485              	.LASF18:
 486 0000 474E5520 		.ascii	"GNU C 4.9.3 20150303 (release) [ARM/embedded-4_9-br"
 486      4320342E 
 486      392E3320 
 486      32303135 
 486      30333033 
 487 0033 616E6368 		.ascii	"anch revision 221220] -mcpu=cortex-m3 -mthumb -g -O"
 487      20726576 
 487      6973696F 
 487      6E203232 
 487      31323230 
 488 0066 30202D66 		.ascii	"0 -ffunction-sections -ffat-lto-objects\000"
 488      66756E63 
 488      74696F6E 
 488      2D736563 
 488      74696F6E 
 489              	.LASF19:
 490 008e 2E5C4765 		.ascii	".\\Generated_Source\\PSoC5\\cymetadata.c\000"
 490      6E657261 
 490      7465645F 
 490      536F7572 
ARM GAS  C:\Users\mjphi\AppData\Local\Temp\ccvmRHsw.s 			page 10


 490      63655C50 
 491              	.LASF17:
 492 00b4 63795F6D 		.ascii	"cy_metadata\000"
 492      65746164 
 492      61746100 
 493              	.LASF9:
 494 00c0 666C6F61 		.ascii	"float\000"
 494      7400
 495              	.LASF1:
 496 00c6 756E7369 		.ascii	"unsigned char\000"
 496      676E6564 
 496      20636861 
 496      7200
 497              	.LASF5:
 498 00d4 6C6F6E67 		.ascii	"long unsigned int\000"
 498      20756E73 
 498      69676E65 
 498      6420696E 
 498      7400
 499              	.LASF3:
 500 00e6 73686F72 		.ascii	"short unsigned int\000"
 500      7420756E 
 500      7369676E 
 500      65642069 
 500      6E7400
 501              	.LASF10:
 502 00f9 646F7562 		.ascii	"double\000"
 502      6C6500
 503              	.LASF14:
 504 0100 63795F6D 		.ascii	"cy_meta_custnvl\000"
 504      6574615F 
 504      63757374 
 504      6E766C00 
 505              	.LASF13:
 506 0110 63795F6D 		.ascii	"cy_meta_configecc\000"
 506      6574615F 
 506      636F6E66 
 506      69676563 
 506      6300
 507              	.LASF8:
 508 0122 756E7369 		.ascii	"unsigned int\000"
 508      676E6564 
 508      20696E74 
 508      00
 509              	.LASF7:
 510 012f 6C6F6E67 		.ascii	"long long unsigned int\000"
 510      206C6F6E 
 510      6720756E 
 510      7369676E 
 510      65642069 
 511              	.LASF16:
 512 0146 63795F6D 		.ascii	"cy_meta_flashprotect\000"
 512      6574615F 
 512      666C6173 
 512      6870726F 
 512      74656374 
 513              	.LASF20:
ARM GAS  C:\Users\mjphi\AppData\Local\Temp\ccvmRHsw.s 			page 11


 514 015b 433A5C63 		.ascii	"C:\\code\\uci_winter_2016\\Final_Project.cydsn\000"
 514      6F64655C 
 514      7563695F 
 514      77696E74 
 514      65725F32 
 515              	.LASF15:
 516 0187 63795F6D 		.ascii	"cy_meta_wonvl\000"
 516      6574615F 
 516      776F6E76 
 516      6C00
 517              	.LASF12:
 518 0195 73697A65 		.ascii	"sizetype\000"
 518      74797065 
 518      00
 519              	.LASF6:
 520 019e 6C6F6E67 		.ascii	"long long int\000"
 520      206C6F6E 
 520      6720696E 
 520      7400
 521              	.LASF11:
 522 01ac 63686172 		.ascii	"char\000"
 522      00
 523              	.LASF2:
 524 01b1 73686F72 		.ascii	"short int\000"
 524      7420696E 
 524      7400
 525              	.LASF21:
 526 01bb 75696E74 		.ascii	"uint8\000"
 526      3800
 527              	.LASF4:
 528 01c1 6C6F6E67 		.ascii	"long int\000"
 528      20696E74 
 528      00
 529              	.LASF0:
 530 01ca 7369676E 		.ascii	"signed char\000"
 530      65642063 
 530      68617200 
 531              		.ident	"GCC: (GNU Tools for ARM Embedded Processors) 4.9.3 20150303 (release) [ARM/embedded-4_9-br
