ARM GAS  C:\Users\mjphi\AppData\Local\Temp\ccu1tb1c.s 			page 1


   1              		.syntax unified
   2              		.cpu cortex-m3
   3              		.fpu softvfp
   4              		.eabi_attribute 20, 1
   5              		.eabi_attribute 21, 1
   6              		.eabi_attribute 23, 3
   7              		.eabi_attribute 24, 1
   8              		.eabi_attribute 25, 1
   9              		.eabi_attribute 26, 1
  10              		.eabi_attribute 30, 6
  11              		.eabi_attribute 34, 1
  12              		.eabi_attribute 18, 4
  13              		.thumb
  14              		.file	"Green_LED_pin.c"
  15              		.text
  16              	.Ltext0:
  17              		.cfi_sections	.debug_frame
  18              		.section	.text.Green_LED_pin_Write,"ax",%progbits
  19              		.align	2
  20              		.global	Green_LED_pin_Write
  21              		.thumb
  22              		.thumb_func
  23              		.type	Green_LED_pin_Write, %function
  24              	Green_LED_pin_Write:
  25              	.LFB0:
  26              		.file 1 ".\\Generated_Source\\PSoC5\\Green_LED_pin.c"
   1:.\Generated_Source\PSoC5/Green_LED_pin.c **** /*******************************************************************************
   2:.\Generated_Source\PSoC5/Green_LED_pin.c **** * File Name: Green_LED_pin.c  
   3:.\Generated_Source\PSoC5/Green_LED_pin.c **** * Version 2.10
   4:.\Generated_Source\PSoC5/Green_LED_pin.c **** *
   5:.\Generated_Source\PSoC5/Green_LED_pin.c **** * Description:
   6:.\Generated_Source\PSoC5/Green_LED_pin.c **** *  This file contains API to enable firmware control of a Pins component.
   7:.\Generated_Source\PSoC5/Green_LED_pin.c **** *
   8:.\Generated_Source\PSoC5/Green_LED_pin.c **** * Note:
   9:.\Generated_Source\PSoC5/Green_LED_pin.c **** *
  10:.\Generated_Source\PSoC5/Green_LED_pin.c **** ********************************************************************************
  11:.\Generated_Source\PSoC5/Green_LED_pin.c **** * Copyright 2008-2014, Cypress Semiconductor Corporation.  All rights reserved.
  12:.\Generated_Source\PSoC5/Green_LED_pin.c **** * You may use this file only in accordance with the license, terms, conditions, 
  13:.\Generated_Source\PSoC5/Green_LED_pin.c **** * disclaimers, and limitations in the end user license agreement accompanying 
  14:.\Generated_Source\PSoC5/Green_LED_pin.c **** * the software package with which this file was provided.
  15:.\Generated_Source\PSoC5/Green_LED_pin.c **** *******************************************************************************/
  16:.\Generated_Source\PSoC5/Green_LED_pin.c **** 
  17:.\Generated_Source\PSoC5/Green_LED_pin.c **** #include "cytypes.h"
  18:.\Generated_Source\PSoC5/Green_LED_pin.c **** #include "Green_LED_pin.h"
  19:.\Generated_Source\PSoC5/Green_LED_pin.c **** 
  20:.\Generated_Source\PSoC5/Green_LED_pin.c **** /* APIs are not generated for P15[7:6] on PSoC 5 */
  21:.\Generated_Source\PSoC5/Green_LED_pin.c **** #if !(CY_PSOC5A &&\
  22:.\Generated_Source\PSoC5/Green_LED_pin.c **** 	 Green_LED_pin__PORT == 15 && ((Green_LED_pin__MASK & 0xC0) != 0))
  23:.\Generated_Source\PSoC5/Green_LED_pin.c **** 
  24:.\Generated_Source\PSoC5/Green_LED_pin.c **** 
  25:.\Generated_Source\PSoC5/Green_LED_pin.c **** /*******************************************************************************
  26:.\Generated_Source\PSoC5/Green_LED_pin.c **** * Function Name: Green_LED_pin_Write
  27:.\Generated_Source\PSoC5/Green_LED_pin.c **** ********************************************************************************
  28:.\Generated_Source\PSoC5/Green_LED_pin.c **** *
  29:.\Generated_Source\PSoC5/Green_LED_pin.c **** * Summary:
  30:.\Generated_Source\PSoC5/Green_LED_pin.c **** *  Assign a new value to the digital port's data output register.  
  31:.\Generated_Source\PSoC5/Green_LED_pin.c **** *
ARM GAS  C:\Users\mjphi\AppData\Local\Temp\ccu1tb1c.s 			page 2


  32:.\Generated_Source\PSoC5/Green_LED_pin.c **** * Parameters:  
  33:.\Generated_Source\PSoC5/Green_LED_pin.c **** *  prtValue:  The value to be assigned to the Digital Port. 
  34:.\Generated_Source\PSoC5/Green_LED_pin.c **** *
  35:.\Generated_Source\PSoC5/Green_LED_pin.c **** * Return: 
  36:.\Generated_Source\PSoC5/Green_LED_pin.c **** *  None
  37:.\Generated_Source\PSoC5/Green_LED_pin.c **** *  
  38:.\Generated_Source\PSoC5/Green_LED_pin.c **** *******************************************************************************/
  39:.\Generated_Source\PSoC5/Green_LED_pin.c **** void Green_LED_pin_Write(uint8 value) 
  40:.\Generated_Source\PSoC5/Green_LED_pin.c **** {
  27              		.loc 1 40 0
  28              		.cfi_startproc
  29              		@ args = 0, pretend = 0, frame = 16
  30              		@ frame_needed = 1, uses_anonymous_args = 0
  31              		@ link register save eliminated.
  32 0000 80B4     		push	{r7}
  33              		.cfi_def_cfa_offset 4
  34              		.cfi_offset 7, -4
  35 0002 85B0     		sub	sp, sp, #20
  36              		.cfi_def_cfa_offset 24
  37 0004 00AF     		add	r7, sp, #0
  38              		.cfi_def_cfa_register 7
  39 0006 0346     		mov	r3, r0
  40 0008 FB71     		strb	r3, [r7, #7]
  41:.\Generated_Source\PSoC5/Green_LED_pin.c ****     uint8 staticBits = (Green_LED_pin_DR & (uint8)(~Green_LED_pin_MASK));
  41              		.loc 1 41 0
  42 000a 0B4B     		ldr	r3, .L2
  43 000c 1B78     		ldrb	r3, [r3]
  44 000e DBB2     		uxtb	r3, r3
  45 0010 23F00803 		bic	r3, r3, #8
  46 0014 FB73     		strb	r3, [r7, #15]
  42:.\Generated_Source\PSoC5/Green_LED_pin.c ****     Green_LED_pin_DR = staticBits | ((uint8)(value << Green_LED_pin_SHIFT) & Green_LED_pin_MASK);
  47              		.loc 1 42 0
  48 0016 0849     		ldr	r1, .L2
  49 0018 FB79     		ldrb	r3, [r7, #7]
  50 001a DB00     		lsls	r3, r3, #3
  51 001c DBB2     		uxtb	r3, r3
  52 001e 03F00803 		and	r3, r3, #8
  53 0022 DAB2     		uxtb	r2, r3
  54 0024 FB7B     		ldrb	r3, [r7, #15]
  55 0026 1343     		orrs	r3, r3, r2
  56 0028 DBB2     		uxtb	r3, r3
  57 002a 0B70     		strb	r3, [r1]
  43:.\Generated_Source\PSoC5/Green_LED_pin.c **** }
  58              		.loc 1 43 0
  59 002c 1437     		adds	r7, r7, #20
  60              		.cfi_def_cfa_offset 4
  61 002e BD46     		mov	sp, r7
  62              		.cfi_def_cfa_register 13
  63              		@ sp needed
  64 0030 5DF8047B 		ldr	r7, [sp], #4
  65              		.cfi_restore 7
  66              		.cfi_def_cfa_offset 0
  67 0034 7047     		bx	lr
  68              	.L3:
  69 0036 00BF     		.align	2
  70              	.L2:
  71 0038 20510040 		.word	1073762592
ARM GAS  C:\Users\mjphi\AppData\Local\Temp\ccu1tb1c.s 			page 3


  72              		.cfi_endproc
  73              	.LFE0:
  74              		.size	Green_LED_pin_Write, .-Green_LED_pin_Write
  75              		.section	.text.Green_LED_pin_SetDriveMode,"ax",%progbits
  76              		.align	2
  77              		.global	Green_LED_pin_SetDriveMode
  78              		.thumb
  79              		.thumb_func
  80              		.type	Green_LED_pin_SetDriveMode, %function
  81              	Green_LED_pin_SetDriveMode:
  82              	.LFB1:
  44:.\Generated_Source\PSoC5/Green_LED_pin.c **** 
  45:.\Generated_Source\PSoC5/Green_LED_pin.c **** 
  46:.\Generated_Source\PSoC5/Green_LED_pin.c **** /*******************************************************************************
  47:.\Generated_Source\PSoC5/Green_LED_pin.c **** * Function Name: Green_LED_pin_SetDriveMode
  48:.\Generated_Source\PSoC5/Green_LED_pin.c **** ********************************************************************************
  49:.\Generated_Source\PSoC5/Green_LED_pin.c **** *
  50:.\Generated_Source\PSoC5/Green_LED_pin.c **** * Summary:
  51:.\Generated_Source\PSoC5/Green_LED_pin.c **** *  Change the drive mode on the pins of the port.
  52:.\Generated_Source\PSoC5/Green_LED_pin.c **** * 
  53:.\Generated_Source\PSoC5/Green_LED_pin.c **** * Parameters:  
  54:.\Generated_Source\PSoC5/Green_LED_pin.c **** *  mode:  Change the pins to one of the following drive modes.
  55:.\Generated_Source\PSoC5/Green_LED_pin.c **** *
  56:.\Generated_Source\PSoC5/Green_LED_pin.c **** *  Green_LED_pin_DM_STRONG     Strong Drive 
  57:.\Generated_Source\PSoC5/Green_LED_pin.c **** *  Green_LED_pin_DM_OD_HI      Open Drain, Drives High 
  58:.\Generated_Source\PSoC5/Green_LED_pin.c **** *  Green_LED_pin_DM_OD_LO      Open Drain, Drives Low 
  59:.\Generated_Source\PSoC5/Green_LED_pin.c **** *  Green_LED_pin_DM_RES_UP     Resistive Pull Up 
  60:.\Generated_Source\PSoC5/Green_LED_pin.c **** *  Green_LED_pin_DM_RES_DWN    Resistive Pull Down 
  61:.\Generated_Source\PSoC5/Green_LED_pin.c **** *  Green_LED_pin_DM_RES_UPDWN  Resistive Pull Up/Down 
  62:.\Generated_Source\PSoC5/Green_LED_pin.c **** *  Green_LED_pin_DM_DIG_HIZ    High Impedance Digital 
  63:.\Generated_Source\PSoC5/Green_LED_pin.c **** *  Green_LED_pin_DM_ALG_HIZ    High Impedance Analog 
  64:.\Generated_Source\PSoC5/Green_LED_pin.c **** *
  65:.\Generated_Source\PSoC5/Green_LED_pin.c **** * Return: 
  66:.\Generated_Source\PSoC5/Green_LED_pin.c **** *  None
  67:.\Generated_Source\PSoC5/Green_LED_pin.c **** *
  68:.\Generated_Source\PSoC5/Green_LED_pin.c **** *******************************************************************************/
  69:.\Generated_Source\PSoC5/Green_LED_pin.c **** void Green_LED_pin_SetDriveMode(uint8 mode) 
  70:.\Generated_Source\PSoC5/Green_LED_pin.c **** {
  83              		.loc 1 70 0
  84              		.cfi_startproc
  85              		@ args = 0, pretend = 0, frame = 8
  86              		@ frame_needed = 1, uses_anonymous_args = 0
  87              		@ link register save eliminated.
  88 0000 80B4     		push	{r7}
  89              		.cfi_def_cfa_offset 4
  90              		.cfi_offset 7, -4
  91 0002 83B0     		sub	sp, sp, #12
  92              		.cfi_def_cfa_offset 16
  93 0004 00AF     		add	r7, sp, #0
  94              		.cfi_def_cfa_register 7
  95 0006 0346     		mov	r3, r0
  96 0008 FB71     		strb	r3, [r7, #7]
  71:.\Generated_Source\PSoC5/Green_LED_pin.c **** 	CyPins_SetPinDriveMode(Green_LED_pin_0, mode);
  97              		.loc 1 71 0
  98 000a 0A4B     		ldr	r3, .L5
  99 000c 094A     		ldr	r2, .L5
 100 000e 1278     		ldrb	r2, [r2]
ARM GAS  C:\Users\mjphi\AppData\Local\Temp\ccu1tb1c.s 			page 4


 101 0010 D2B2     		uxtb	r2, r2
 102 0012 D2B2     		uxtb	r2, r2
 103 0014 22F00E02 		bic	r2, r2, #14
 104 0018 D1B2     		uxtb	r1, r2
 105 001a FA79     		ldrb	r2, [r7, #7]	@ zero_extendqisi2
 106 001c 02F00E02 		and	r2, r2, #14
 107 0020 D2B2     		uxtb	r2, r2
 108 0022 0A43     		orrs	r2, r2, r1
 109 0024 D2B2     		uxtb	r2, r2
 110 0026 D2B2     		uxtb	r2, r2
 111 0028 1A70     		strb	r2, [r3]
  72:.\Generated_Source\PSoC5/Green_LED_pin.c **** }
 112              		.loc 1 72 0
 113 002a 0C37     		adds	r7, r7, #12
 114              		.cfi_def_cfa_offset 4
 115 002c BD46     		mov	sp, r7
 116              		.cfi_def_cfa_register 13
 117              		@ sp needed
 118 002e 5DF8047B 		ldr	r7, [sp], #4
 119              		.cfi_restore 7
 120              		.cfi_def_cfa_offset 0
 121 0032 7047     		bx	lr
 122              	.L6:
 123              		.align	2
 124              	.L5:
 125 0034 13500040 		.word	1073762323
 126              		.cfi_endproc
 127              	.LFE1:
 128              		.size	Green_LED_pin_SetDriveMode, .-Green_LED_pin_SetDriveMode
 129              		.section	.text.Green_LED_pin_Read,"ax",%progbits
 130              		.align	2
 131              		.global	Green_LED_pin_Read
 132              		.thumb
 133              		.thumb_func
 134              		.type	Green_LED_pin_Read, %function
 135              	Green_LED_pin_Read:
 136              	.LFB2:
  73:.\Generated_Source\PSoC5/Green_LED_pin.c **** 
  74:.\Generated_Source\PSoC5/Green_LED_pin.c **** 
  75:.\Generated_Source\PSoC5/Green_LED_pin.c **** /*******************************************************************************
  76:.\Generated_Source\PSoC5/Green_LED_pin.c **** * Function Name: Green_LED_pin_Read
  77:.\Generated_Source\PSoC5/Green_LED_pin.c **** ********************************************************************************
  78:.\Generated_Source\PSoC5/Green_LED_pin.c **** *
  79:.\Generated_Source\PSoC5/Green_LED_pin.c **** * Summary:
  80:.\Generated_Source\PSoC5/Green_LED_pin.c **** *  Read the current value on the pins of the Digital Port in right justified 
  81:.\Generated_Source\PSoC5/Green_LED_pin.c **** *  form.
  82:.\Generated_Source\PSoC5/Green_LED_pin.c **** *
  83:.\Generated_Source\PSoC5/Green_LED_pin.c **** * Parameters:  
  84:.\Generated_Source\PSoC5/Green_LED_pin.c **** *  None
  85:.\Generated_Source\PSoC5/Green_LED_pin.c **** *
  86:.\Generated_Source\PSoC5/Green_LED_pin.c **** * Return: 
  87:.\Generated_Source\PSoC5/Green_LED_pin.c **** *  Returns the current value of the Digital Port as a right justified number
  88:.\Generated_Source\PSoC5/Green_LED_pin.c **** *  
  89:.\Generated_Source\PSoC5/Green_LED_pin.c **** * Note:
  90:.\Generated_Source\PSoC5/Green_LED_pin.c **** *  Macro Green_LED_pin_ReadPS calls this function. 
  91:.\Generated_Source\PSoC5/Green_LED_pin.c **** *  
  92:.\Generated_Source\PSoC5/Green_LED_pin.c **** *******************************************************************************/
ARM GAS  C:\Users\mjphi\AppData\Local\Temp\ccu1tb1c.s 			page 5


  93:.\Generated_Source\PSoC5/Green_LED_pin.c **** uint8 Green_LED_pin_Read(void) 
  94:.\Generated_Source\PSoC5/Green_LED_pin.c **** {
 137              		.loc 1 94 0
 138              		.cfi_startproc
 139              		@ args = 0, pretend = 0, frame = 0
 140              		@ frame_needed = 1, uses_anonymous_args = 0
 141              		@ link register save eliminated.
 142 0000 80B4     		push	{r7}
 143              		.cfi_def_cfa_offset 4
 144              		.cfi_offset 7, -4
 145 0002 00AF     		add	r7, sp, #0
 146              		.cfi_def_cfa_register 7
  95:.\Generated_Source\PSoC5/Green_LED_pin.c ****     return (Green_LED_pin_PS & Green_LED_pin_MASK) >> Green_LED_pin_SHIFT;
 147              		.loc 1 95 0
 148 0004 054B     		ldr	r3, .L9
 149 0006 1B78     		ldrb	r3, [r3]
 150 0008 DBB2     		uxtb	r3, r3
 151 000a 03F00803 		and	r3, r3, #8
 152 000e DB08     		lsrs	r3, r3, #3
 153 0010 DBB2     		uxtb	r3, r3
  96:.\Generated_Source\PSoC5/Green_LED_pin.c **** }
 154              		.loc 1 96 0
 155 0012 1846     		mov	r0, r3
 156 0014 BD46     		mov	sp, r7
 157              		.cfi_def_cfa_register 13
 158              		@ sp needed
 159 0016 5DF8047B 		ldr	r7, [sp], #4
 160              		.cfi_restore 7
 161              		.cfi_def_cfa_offset 0
 162 001a 7047     		bx	lr
 163              	.L10:
 164              		.align	2
 165              	.L9:
 166 001c 21510040 		.word	1073762593
 167              		.cfi_endproc
 168              	.LFE2:
 169              		.size	Green_LED_pin_Read, .-Green_LED_pin_Read
 170              		.section	.text.Green_LED_pin_ReadDataReg,"ax",%progbits
 171              		.align	2
 172              		.global	Green_LED_pin_ReadDataReg
 173              		.thumb
 174              		.thumb_func
 175              		.type	Green_LED_pin_ReadDataReg, %function
 176              	Green_LED_pin_ReadDataReg:
 177              	.LFB3:
  97:.\Generated_Source\PSoC5/Green_LED_pin.c **** 
  98:.\Generated_Source\PSoC5/Green_LED_pin.c **** 
  99:.\Generated_Source\PSoC5/Green_LED_pin.c **** /*******************************************************************************
 100:.\Generated_Source\PSoC5/Green_LED_pin.c **** * Function Name: Green_LED_pin_ReadDataReg
 101:.\Generated_Source\PSoC5/Green_LED_pin.c **** ********************************************************************************
 102:.\Generated_Source\PSoC5/Green_LED_pin.c **** *
 103:.\Generated_Source\PSoC5/Green_LED_pin.c **** * Summary:
 104:.\Generated_Source\PSoC5/Green_LED_pin.c **** *  Read the current value assigned to a Digital Port's data output register
 105:.\Generated_Source\PSoC5/Green_LED_pin.c **** *
 106:.\Generated_Source\PSoC5/Green_LED_pin.c **** * Parameters:  
 107:.\Generated_Source\PSoC5/Green_LED_pin.c **** *  None 
 108:.\Generated_Source\PSoC5/Green_LED_pin.c **** *
ARM GAS  C:\Users\mjphi\AppData\Local\Temp\ccu1tb1c.s 			page 6


 109:.\Generated_Source\PSoC5/Green_LED_pin.c **** * Return: 
 110:.\Generated_Source\PSoC5/Green_LED_pin.c **** *  Returns the current value assigned to the Digital Port's data output register
 111:.\Generated_Source\PSoC5/Green_LED_pin.c **** *  
 112:.\Generated_Source\PSoC5/Green_LED_pin.c **** *******************************************************************************/
 113:.\Generated_Source\PSoC5/Green_LED_pin.c **** uint8 Green_LED_pin_ReadDataReg(void) 
 114:.\Generated_Source\PSoC5/Green_LED_pin.c **** {
 178              		.loc 1 114 0
 179              		.cfi_startproc
 180              		@ args = 0, pretend = 0, frame = 0
 181              		@ frame_needed = 1, uses_anonymous_args = 0
 182              		@ link register save eliminated.
 183 0000 80B4     		push	{r7}
 184              		.cfi_def_cfa_offset 4
 185              		.cfi_offset 7, -4
 186 0002 00AF     		add	r7, sp, #0
 187              		.cfi_def_cfa_register 7
 115:.\Generated_Source\PSoC5/Green_LED_pin.c ****     return (Green_LED_pin_DR & Green_LED_pin_MASK) >> Green_LED_pin_SHIFT;
 188              		.loc 1 115 0
 189 0004 054B     		ldr	r3, .L13
 190 0006 1B78     		ldrb	r3, [r3]
 191 0008 DBB2     		uxtb	r3, r3
 192 000a 03F00803 		and	r3, r3, #8
 193 000e DB08     		lsrs	r3, r3, #3
 194 0010 DBB2     		uxtb	r3, r3
 116:.\Generated_Source\PSoC5/Green_LED_pin.c **** }
 195              		.loc 1 116 0
 196 0012 1846     		mov	r0, r3
 197 0014 BD46     		mov	sp, r7
 198              		.cfi_def_cfa_register 13
 199              		@ sp needed
 200 0016 5DF8047B 		ldr	r7, [sp], #4
 201              		.cfi_restore 7
 202              		.cfi_def_cfa_offset 0
 203 001a 7047     		bx	lr
 204              	.L14:
 205              		.align	2
 206              	.L13:
 207 001c 20510040 		.word	1073762592
 208              		.cfi_endproc
 209              	.LFE3:
 210              		.size	Green_LED_pin_ReadDataReg, .-Green_LED_pin_ReadDataReg
 211              		.text
 212              	.Letext0:
 213              		.file 2 ".\\Generated_Source\\PSoC5\\cytypes.h"
 214              		.section	.debug_info,"",%progbits
 215              	.Ldebug_info0:
 216 0000 19010000 		.4byte	0x119
 217 0004 0400     		.2byte	0x4
 218 0006 00000000 		.4byte	.Ldebug_abbrev0
 219 000a 04       		.byte	0x4
 220 000b 01       		.uleb128 0x1
 221 000c 11000000 		.4byte	.LASF20
 222 0010 01       		.byte	0x1
 223 0011 9F000000 		.4byte	.LASF21
 224 0015 64010000 		.4byte	.LASF22
 225 0019 00000000 		.4byte	.Ldebug_ranges0+0
 226 001d 00000000 		.4byte	0
ARM GAS  C:\Users\mjphi\AppData\Local\Temp\ccu1tb1c.s 			page 7


 227 0021 00000000 		.4byte	.Ldebug_line0
 228 0025 02       		.uleb128 0x2
 229 0026 01       		.byte	0x1
 230 0027 06       		.byte	0x6
 231 0028 EA010000 		.4byte	.LASF0
 232 002c 02       		.uleb128 0x2
 233 002d 01       		.byte	0x1
 234 002e 08       		.byte	0x8
 235 002f E1000000 		.4byte	.LASF1
 236 0033 02       		.uleb128 0x2
 237 0034 02       		.byte	0x2
 238 0035 05       		.byte	0x5
 239 0036 B7010000 		.4byte	.LASF2
 240 003a 02       		.uleb128 0x2
 241 003b 02       		.byte	0x2
 242 003c 07       		.byte	0x7
 243 003d 06010000 		.4byte	.LASF3
 244 0041 02       		.uleb128 0x2
 245 0042 04       		.byte	0x4
 246 0043 05       		.byte	0x5
 247 0044 C7010000 		.4byte	.LASF4
 248 0048 02       		.uleb128 0x2
 249 0049 04       		.byte	0x4
 250 004a 07       		.byte	0x7
 251 004b F4000000 		.4byte	.LASF5
 252 004f 02       		.uleb128 0x2
 253 0050 08       		.byte	0x8
 254 0051 05       		.byte	0x5
 255 0052 90010000 		.4byte	.LASF6
 256 0056 02       		.uleb128 0x2
 257 0057 08       		.byte	0x8
 258 0058 07       		.byte	0x7
 259 0059 2D010000 		.4byte	.LASF7
 260 005d 03       		.uleb128 0x3
 261 005e 04       		.byte	0x4
 262 005f 05       		.byte	0x5
 263 0060 696E7400 		.ascii	"int\000"
 264 0064 02       		.uleb128 0x2
 265 0065 04       		.byte	0x4
 266 0066 07       		.byte	0x7
 267 0067 20010000 		.4byte	.LASF8
 268 006b 04       		.uleb128 0x4
 269 006c C1010000 		.4byte	.LASF12
 270 0070 02       		.byte	0x2
 271 0071 C2       		.byte	0xc2
 272 0072 2C000000 		.4byte	0x2c
 273 0076 02       		.uleb128 0x2
 274 0077 04       		.byte	0x4
 275 0078 04       		.byte	0x4
 276 0079 DB000000 		.4byte	.LASF9
 277 007d 02       		.uleb128 0x2
 278 007e 08       		.byte	0x8
 279 007f 04       		.byte	0x4
 280 0080 19010000 		.4byte	.LASF10
 281 0084 02       		.uleb128 0x2
 282 0085 01       		.byte	0x1
 283 0086 08       		.byte	0x8
ARM GAS  C:\Users\mjphi\AppData\Local\Temp\ccu1tb1c.s 			page 8


 284 0087 9E010000 		.4byte	.LASF11
 285 008b 05       		.uleb128 0x5
 286 008c EF000000 		.4byte	.LASF13
 287 0090 02       		.byte	0x2
 288 0091 6C01     		.2byte	0x16c
 289 0093 97000000 		.4byte	0x97
 290 0097 06       		.uleb128 0x6
 291 0098 6B000000 		.4byte	0x6b
 292 009c 07       		.uleb128 0x7
 293 009d A3010000 		.4byte	.LASF14
 294 00a1 01       		.byte	0x1
 295 00a2 27       		.byte	0x27
 296 00a3 00000000 		.4byte	.LFB0
 297 00a7 3C000000 		.4byte	.LFE0-.LFB0
 298 00ab 01       		.uleb128 0x1
 299 00ac 9C       		.byte	0x9c
 300 00ad CE000000 		.4byte	0xce
 301 00b1 08       		.uleb128 0x8
 302 00b2 00000000 		.4byte	.LASF16
 303 00b6 01       		.byte	0x1
 304 00b7 27       		.byte	0x27
 305 00b8 6B000000 		.4byte	0x6b
 306 00bc 02       		.uleb128 0x2
 307 00bd 91       		.byte	0x91
 308 00be 6F       		.sleb128 -17
 309 00bf 09       		.uleb128 0x9
 310 00c0 06000000 		.4byte	.LASF23
 311 00c4 01       		.byte	0x1
 312 00c5 29       		.byte	0x29
 313 00c6 6B000000 		.4byte	0x6b
 314 00ca 02       		.uleb128 0x2
 315 00cb 91       		.byte	0x91
 316 00cc 77       		.sleb128 -9
 317 00cd 00       		.byte	0
 318 00ce 07       		.uleb128 0x7
 319 00cf 44010000 		.4byte	.LASF15
 320 00d3 01       		.byte	0x1
 321 00d4 45       		.byte	0x45
 322 00d5 00000000 		.4byte	.LFB1
 323 00d9 38000000 		.4byte	.LFE1-.LFB1
 324 00dd 01       		.uleb128 0x1
 325 00de 9C       		.byte	0x9c
 326 00df F2000000 		.4byte	0xf2
 327 00e3 08       		.uleb128 0x8
 328 00e4 5F010000 		.4byte	.LASF17
 329 00e8 01       		.byte	0x1
 330 00e9 45       		.byte	0x45
 331 00ea 6B000000 		.4byte	0x6b
 332 00ee 02       		.uleb128 0x2
 333 00ef 91       		.byte	0x91
 334 00f0 77       		.sleb128 -9
 335 00f1 00       		.byte	0
 336 00f2 0A       		.uleb128 0xa
 337 00f3 C8000000 		.4byte	.LASF18
 338 00f7 01       		.byte	0x1
 339 00f8 5D       		.byte	0x5d
 340 00f9 6B000000 		.4byte	0x6b
ARM GAS  C:\Users\mjphi\AppData\Local\Temp\ccu1tb1c.s 			page 9


 341 00fd 00000000 		.4byte	.LFB2
 342 0101 20000000 		.4byte	.LFE2-.LFB2
 343 0105 01       		.uleb128 0x1
 344 0106 9C       		.byte	0x9c
 345 0107 0A       		.uleb128 0xa
 346 0108 D0010000 		.4byte	.LASF19
 347 010c 01       		.byte	0x1
 348 010d 71       		.byte	0x71
 349 010e 6B000000 		.4byte	0x6b
 350 0112 00000000 		.4byte	.LFB3
 351 0116 20000000 		.4byte	.LFE3-.LFB3
 352 011a 01       		.uleb128 0x1
 353 011b 9C       		.byte	0x9c
 354 011c 00       		.byte	0
 355              		.section	.debug_abbrev,"",%progbits
 356              	.Ldebug_abbrev0:
 357 0000 01       		.uleb128 0x1
 358 0001 11       		.uleb128 0x11
 359 0002 01       		.byte	0x1
 360 0003 25       		.uleb128 0x25
 361 0004 0E       		.uleb128 0xe
 362 0005 13       		.uleb128 0x13
 363 0006 0B       		.uleb128 0xb
 364 0007 03       		.uleb128 0x3
 365 0008 0E       		.uleb128 0xe
 366 0009 1B       		.uleb128 0x1b
 367 000a 0E       		.uleb128 0xe
 368 000b 55       		.uleb128 0x55
 369 000c 17       		.uleb128 0x17
 370 000d 11       		.uleb128 0x11
 371 000e 01       		.uleb128 0x1
 372 000f 10       		.uleb128 0x10
 373 0010 17       		.uleb128 0x17
 374 0011 00       		.byte	0
 375 0012 00       		.byte	0
 376 0013 02       		.uleb128 0x2
 377 0014 24       		.uleb128 0x24
 378 0015 00       		.byte	0
 379 0016 0B       		.uleb128 0xb
 380 0017 0B       		.uleb128 0xb
 381 0018 3E       		.uleb128 0x3e
 382 0019 0B       		.uleb128 0xb
 383 001a 03       		.uleb128 0x3
 384 001b 0E       		.uleb128 0xe
 385 001c 00       		.byte	0
 386 001d 00       		.byte	0
 387 001e 03       		.uleb128 0x3
 388 001f 24       		.uleb128 0x24
 389 0020 00       		.byte	0
 390 0021 0B       		.uleb128 0xb
 391 0022 0B       		.uleb128 0xb
 392 0023 3E       		.uleb128 0x3e
 393 0024 0B       		.uleb128 0xb
 394 0025 03       		.uleb128 0x3
 395 0026 08       		.uleb128 0x8
 396 0027 00       		.byte	0
 397 0028 00       		.byte	0
ARM GAS  C:\Users\mjphi\AppData\Local\Temp\ccu1tb1c.s 			page 10


 398 0029 04       		.uleb128 0x4
 399 002a 16       		.uleb128 0x16
 400 002b 00       		.byte	0
 401 002c 03       		.uleb128 0x3
 402 002d 0E       		.uleb128 0xe
 403 002e 3A       		.uleb128 0x3a
 404 002f 0B       		.uleb128 0xb
 405 0030 3B       		.uleb128 0x3b
 406 0031 0B       		.uleb128 0xb
 407 0032 49       		.uleb128 0x49
 408 0033 13       		.uleb128 0x13
 409 0034 00       		.byte	0
 410 0035 00       		.byte	0
 411 0036 05       		.uleb128 0x5
 412 0037 16       		.uleb128 0x16
 413 0038 00       		.byte	0
 414 0039 03       		.uleb128 0x3
 415 003a 0E       		.uleb128 0xe
 416 003b 3A       		.uleb128 0x3a
 417 003c 0B       		.uleb128 0xb
 418 003d 3B       		.uleb128 0x3b
 419 003e 05       		.uleb128 0x5
 420 003f 49       		.uleb128 0x49
 421 0040 13       		.uleb128 0x13
 422 0041 00       		.byte	0
 423 0042 00       		.byte	0
 424 0043 06       		.uleb128 0x6
 425 0044 35       		.uleb128 0x35
 426 0045 00       		.byte	0
 427 0046 49       		.uleb128 0x49
 428 0047 13       		.uleb128 0x13
 429 0048 00       		.byte	0
 430 0049 00       		.byte	0
 431 004a 07       		.uleb128 0x7
 432 004b 2E       		.uleb128 0x2e
 433 004c 01       		.byte	0x1
 434 004d 3F       		.uleb128 0x3f
 435 004e 19       		.uleb128 0x19
 436 004f 03       		.uleb128 0x3
 437 0050 0E       		.uleb128 0xe
 438 0051 3A       		.uleb128 0x3a
 439 0052 0B       		.uleb128 0xb
 440 0053 3B       		.uleb128 0x3b
 441 0054 0B       		.uleb128 0xb
 442 0055 27       		.uleb128 0x27
 443 0056 19       		.uleb128 0x19
 444 0057 11       		.uleb128 0x11
 445 0058 01       		.uleb128 0x1
 446 0059 12       		.uleb128 0x12
 447 005a 06       		.uleb128 0x6
 448 005b 40       		.uleb128 0x40
 449 005c 18       		.uleb128 0x18
 450 005d 9742     		.uleb128 0x2117
 451 005f 19       		.uleb128 0x19
 452 0060 01       		.uleb128 0x1
 453 0061 13       		.uleb128 0x13
 454 0062 00       		.byte	0
ARM GAS  C:\Users\mjphi\AppData\Local\Temp\ccu1tb1c.s 			page 11


 455 0063 00       		.byte	0
 456 0064 08       		.uleb128 0x8
 457 0065 05       		.uleb128 0x5
 458 0066 00       		.byte	0
 459 0067 03       		.uleb128 0x3
 460 0068 0E       		.uleb128 0xe
 461 0069 3A       		.uleb128 0x3a
 462 006a 0B       		.uleb128 0xb
 463 006b 3B       		.uleb128 0x3b
 464 006c 0B       		.uleb128 0xb
 465 006d 49       		.uleb128 0x49
 466 006e 13       		.uleb128 0x13
 467 006f 02       		.uleb128 0x2
 468 0070 18       		.uleb128 0x18
 469 0071 00       		.byte	0
 470 0072 00       		.byte	0
 471 0073 09       		.uleb128 0x9
 472 0074 34       		.uleb128 0x34
 473 0075 00       		.byte	0
 474 0076 03       		.uleb128 0x3
 475 0077 0E       		.uleb128 0xe
 476 0078 3A       		.uleb128 0x3a
 477 0079 0B       		.uleb128 0xb
 478 007a 3B       		.uleb128 0x3b
 479 007b 0B       		.uleb128 0xb
 480 007c 49       		.uleb128 0x49
 481 007d 13       		.uleb128 0x13
 482 007e 02       		.uleb128 0x2
 483 007f 18       		.uleb128 0x18
 484 0080 00       		.byte	0
 485 0081 00       		.byte	0
 486 0082 0A       		.uleb128 0xa
 487 0083 2E       		.uleb128 0x2e
 488 0084 00       		.byte	0
 489 0085 3F       		.uleb128 0x3f
 490 0086 19       		.uleb128 0x19
 491 0087 03       		.uleb128 0x3
 492 0088 0E       		.uleb128 0xe
 493 0089 3A       		.uleb128 0x3a
 494 008a 0B       		.uleb128 0xb
 495 008b 3B       		.uleb128 0x3b
 496 008c 0B       		.uleb128 0xb
 497 008d 27       		.uleb128 0x27
 498 008e 19       		.uleb128 0x19
 499 008f 49       		.uleb128 0x49
 500 0090 13       		.uleb128 0x13
 501 0091 11       		.uleb128 0x11
 502 0092 01       		.uleb128 0x1
 503 0093 12       		.uleb128 0x12
 504 0094 06       		.uleb128 0x6
 505 0095 40       		.uleb128 0x40
 506 0096 18       		.uleb128 0x18
 507 0097 9742     		.uleb128 0x2117
 508 0099 19       		.uleb128 0x19
 509 009a 00       		.byte	0
 510 009b 00       		.byte	0
 511 009c 00       		.byte	0
ARM GAS  C:\Users\mjphi\AppData\Local\Temp\ccu1tb1c.s 			page 12


 512              		.section	.debug_aranges,"",%progbits
 513 0000 34000000 		.4byte	0x34
 514 0004 0200     		.2byte	0x2
 515 0006 00000000 		.4byte	.Ldebug_info0
 516 000a 04       		.byte	0x4
 517 000b 00       		.byte	0
 518 000c 0000     		.2byte	0
 519 000e 0000     		.2byte	0
 520 0010 00000000 		.4byte	.LFB0
 521 0014 3C000000 		.4byte	.LFE0-.LFB0
 522 0018 00000000 		.4byte	.LFB1
 523 001c 38000000 		.4byte	.LFE1-.LFB1
 524 0020 00000000 		.4byte	.LFB2
 525 0024 20000000 		.4byte	.LFE2-.LFB2
 526 0028 00000000 		.4byte	.LFB3
 527 002c 20000000 		.4byte	.LFE3-.LFB3
 528 0030 00000000 		.4byte	0
 529 0034 00000000 		.4byte	0
 530              		.section	.debug_ranges,"",%progbits
 531              	.Ldebug_ranges0:
 532 0000 00000000 		.4byte	.LFB0
 533 0004 3C000000 		.4byte	.LFE0
 534 0008 00000000 		.4byte	.LFB1
 535 000c 38000000 		.4byte	.LFE1
 536 0010 00000000 		.4byte	.LFB2
 537 0014 20000000 		.4byte	.LFE2
 538 0018 00000000 		.4byte	.LFB3
 539 001c 20000000 		.4byte	.LFE3
 540 0020 00000000 		.4byte	0
 541 0024 00000000 		.4byte	0
 542              		.section	.debug_line,"",%progbits
 543              	.Ldebug_line0:
 544 0000 9A000000 		.section	.debug_str,"MS",%progbits,1
 544      02004C00 
 544      00000201 
 544      FB0E0D00 
 544      01010101 
 545              	.LASF16:
 546 0000 76616C75 		.ascii	"value\000"
 546      6500
 547              	.LASF23:
 548 0006 73746174 		.ascii	"staticBits\000"
 548      69634269 
 548      747300
 549              	.LASF20:
 550 0011 474E5520 		.ascii	"GNU C 4.9.3 20150303 (release) [ARM/embedded-4_9-br"
 550      4320342E 
 550      392E3320 
 550      32303135 
 550      30333033 
 551 0044 616E6368 		.ascii	"anch revision 221220] -mcpu=cortex-m3 -mthumb -g -O"
 551      20726576 
 551      6973696F 
 551      6E203232 
 551      31323230 
 552 0077 30202D66 		.ascii	"0 -ffunction-sections -ffat-lto-objects\000"
 552      66756E63 
ARM GAS  C:\Users\mjphi\AppData\Local\Temp\ccu1tb1c.s 			page 13


 552      74696F6E 
 552      2D736563 
 552      74696F6E 
 553              	.LASF21:
 554 009f 2E5C4765 		.ascii	".\\Generated_Source\\PSoC5\\Green_LED_pin.c\000"
 554      6E657261 
 554      7465645F 
 554      536F7572 
 554      63655C50 
 555              	.LASF18:
 556 00c8 47726565 		.ascii	"Green_LED_pin_Read\000"
 556      6E5F4C45 
 556      445F7069 
 556      6E5F5265 
 556      616400
 557              	.LASF9:
 558 00db 666C6F61 		.ascii	"float\000"
 558      7400
 559              	.LASF1:
 560 00e1 756E7369 		.ascii	"unsigned char\000"
 560      676E6564 
 560      20636861 
 560      7200
 561              	.LASF13:
 562 00ef 72656738 		.ascii	"reg8\000"
 562      00
 563              	.LASF5:
 564 00f4 6C6F6E67 		.ascii	"long unsigned int\000"
 564      20756E73 
 564      69676E65 
 564      6420696E 
 564      7400
 565              	.LASF3:
 566 0106 73686F72 		.ascii	"short unsigned int\000"
 566      7420756E 
 566      7369676E 
 566      65642069 
 566      6E7400
 567              	.LASF10:
 568 0119 646F7562 		.ascii	"double\000"
 568      6C6500
 569              	.LASF8:
 570 0120 756E7369 		.ascii	"unsigned int\000"
 570      676E6564 
 570      20696E74 
 570      00
 571              	.LASF7:
 572 012d 6C6F6E67 		.ascii	"long long unsigned int\000"
 572      206C6F6E 
 572      6720756E 
 572      7369676E 
 572      65642069 
 573              	.LASF15:
 574 0144 47726565 		.ascii	"Green_LED_pin_SetDriveMode\000"
 574      6E5F4C45 
 574      445F7069 
 574      6E5F5365 
ARM GAS  C:\Users\mjphi\AppData\Local\Temp\ccu1tb1c.s 			page 14


 574      74447269 
 575              	.LASF17:
 576 015f 6D6F6465 		.ascii	"mode\000"
 576      00
 577              	.LASF22:
 578 0164 433A5C63 		.ascii	"C:\\code\\uci_winter_2016\\Final_Project.cydsn\000"
 578      6F64655C 
 578      7563695F 
 578      77696E74 
 578      65725F32 
 579              	.LASF6:
 580 0190 6C6F6E67 		.ascii	"long long int\000"
 580      206C6F6E 
 580      6720696E 
 580      7400
 581              	.LASF11:
 582 019e 63686172 		.ascii	"char\000"
 582      00
 583              	.LASF14:
 584 01a3 47726565 		.ascii	"Green_LED_pin_Write\000"
 584      6E5F4C45 
 584      445F7069 
 584      6E5F5772 
 584      69746500 
 585              	.LASF2:
 586 01b7 73686F72 		.ascii	"short int\000"
 586      7420696E 
 586      7400
 587              	.LASF12:
 588 01c1 75696E74 		.ascii	"uint8\000"
 588      3800
 589              	.LASF4:
 590 01c7 6C6F6E67 		.ascii	"long int\000"
 590      20696E74 
 590      00
 591              	.LASF19:
 592 01d0 47726565 		.ascii	"Green_LED_pin_ReadDataReg\000"
 592      6E5F4C45 
 592      445F7069 
 592      6E5F5265 
 592      61644461 
 593              	.LASF0:
 594 01ea 7369676E 		.ascii	"signed char\000"
 594      65642063 
 594      68617200 
 595              		.ident	"GCC: (GNU Tools for ARM Embedded Processors) 4.9.3 20150303 (release) [ARM/embedded-4_9-br
