ARM GAS  C:\Users\mjphi\AppData\Local\Temp\cco5j2jf.s 			page 1


   1              		.syntax unified
   2              		.cpu cortex-m3
   3              		.fpu softvfp
   4              		.eabi_attribute 20, 1
   5              		.eabi_attribute 21, 1
   6              		.eabi_attribute 23, 3
   7              		.eabi_attribute 24, 1
   8              		.eabi_attribute 25, 1
   9              		.eabi_attribute 26, 1
  10              		.eabi_attribute 30, 6
  11              		.eabi_attribute 34, 1
  12              		.eabi_attribute 18, 4
  13              		.thumb
  14              		.file	"main.c"
  15              		.text
  16              	.Ltext0:
  17              		.cfi_sections	.debug_frame
  18              		.comm	Cmd_SetData,1,1
  19              		.comm	Cmd_SetAddr,1,1
  20              		.comm	Cmd_DispCtrl,1,1
  21              		.comm	DisplayPointFlag,1,1
  22              		.comm	DisplayBrigtness,1,1
  23              		.comm	lightoutput,2,2
  24              		.global	mute
  25              		.bss
  26              		.type	mute, %object
  27              		.size	mute, 1
  28              	mute:
  29 0000 00       		.space	1
  30              		.section	.text.vApplicationMallocFailedHook,"ax",%progbits
  31              		.align	2
  32              		.global	vApplicationMallocFailedHook
  33              		.thumb
  34              		.thumb_func
  35              		.type	vApplicationMallocFailedHook, %function
  36              	vApplicationMallocFailedHook:
  37              	.LFB64:
  38              		.file 1 ".\\main.c"
   1:.\main.c      **** 
   2:.\main.c      **** #include "device.h"
   3:.\main.c      **** #include "FreeRTOS.h"
   4:.\main.c      **** #include "port.h"
   5:.\main.c      **** #include "task.h"
   6:.\main.c      **** #include "math.h"
   7:.\main.c      **** #include "stdlib.h"
   8:.\main.c      **** #include "complex.h"
   9:.\main.c      **** #include "TM1636.h"
  10:.\main.c      **** 
  11:.\main.c      **** //-Declare the resistance of the resistor that connects with the temperature sensor-//
  12:.\main.c      **** #define RESISTOR_CONNECT_THERMISTOR	10000//the resistance is 8k ohm
  13:.\main.c      **** 
  14:.\main.c      **** #define FOREVER (1 == 1)
  15:.\main.c      **** 
  16:.\main.c      **** /* Blink task parameters */
  17:.\main.c      **** #define BLINK_STACK_SIZE 64
  18:.\main.c      **** 
  19:.\main.c      **** int16_t lightoutput;
ARM GAS  C:\Users\mjphi\AppData\Local\Temp\cco5j2jf.s 			page 2


  20:.\main.c      **** int8_t mute = 0;
  21:.\main.c      **** 
  22:.\main.c      **** static void Check_Buttons_Task(void *parm);
  23:.\main.c      **** static void Update_Display_Task(void *parm);
  24:.\main.c      **** static void Light_Sensor_Task (void *parm);
  25:.\main.c      **** static void Alarm_Task(void *parm);
  26:.\main.c      **** 
  27:.\main.c      **** 
  28:.\main.c      **** /*
  29:.\main.c      ****  * Installs the RTOS interrupt handlers and starts the peripherals.
  30:.\main.c      ****  */
  31:.\main.c      **** static void prvHardwareSetup( void );
  32:.\main.c      **** /*---------------------------------------------------------------------------*/
  33:.\main.c      **** 
  34:.\main.c      **** 
  35:.\main.c      **** void vApplicationMallocFailedHook(void)
  36:.\main.c      **** {
  39              		.loc 1 36 0
  40              		.cfi_startproc
  41              		@ args = 0, pretend = 0, frame = 0
  42              		@ frame_needed = 1, uses_anonymous_args = 0
  43              		@ link register save eliminated.
  44 0000 80B4     		push	{r7}
  45              		.cfi_def_cfa_offset 4
  46              		.cfi_offset 7, -4
  47 0002 00AF     		add	r7, sp, #0
  48              		.cfi_def_cfa_register 7
  37:.\main.c      ****     /* The heap space has been execeeded. */
  38:.\main.c      **** }
  49              		.loc 1 38 0
  50 0004 BD46     		mov	sp, r7
  51              		.cfi_def_cfa_register 13
  52              		@ sp needed
  53 0006 5DF8047B 		ldr	r7, [sp], #4
  54              		.cfi_restore 7
  55              		.cfi_def_cfa_offset 0
  56 000a 7047     		bx	lr
  57              		.cfi_endproc
  58              	.LFE64:
  59              		.size	vApplicationMallocFailedHook, .-vApplicationMallocFailedHook
  60              		.section	.text.vApplicationStackOverflowHook,"ax",%progbits
  61              		.align	2
  62              		.global	vApplicationStackOverflowHook
  63              		.thumb
  64              		.thumb_func
  65              		.type	vApplicationStackOverflowHook, %function
  66              	vApplicationStackOverflowHook:
  67              	.LFB65:
  39:.\main.c      **** 
  40:.\main.c      **** void vApplicationStackOverflowHook(void)
  41:.\main.c      **** {
  68              		.loc 1 41 0
  69              		.cfi_startproc
  70              		@ args = 0, pretend = 0, frame = 0
  71              		@ frame_needed = 1, uses_anonymous_args = 0
  72              		@ link register save eliminated.
  73 0000 80B4     		push	{r7}
ARM GAS  C:\Users\mjphi\AppData\Local\Temp\cco5j2jf.s 			page 3


  74              		.cfi_def_cfa_offset 4
  75              		.cfi_offset 7, -4
  76 0002 00AF     		add	r7, sp, #0
  77              		.cfi_def_cfa_register 7
  42:.\main.c      ****     /* The stack space has been overflowed */
  43:.\main.c      **** }
  78              		.loc 1 43 0
  79 0004 BD46     		mov	sp, r7
  80              		.cfi_def_cfa_register 13
  81              		@ sp needed
  82 0006 5DF8047B 		ldr	r7, [sp], #4
  83              		.cfi_restore 7
  84              		.cfi_def_cfa_offset 0
  85 000a 7047     		bx	lr
  86              		.cfi_endproc
  87              	.LFE65:
  88              		.size	vApplicationStackOverflowHook, .-vApplicationStackOverflowHook
  89              		.section	.rodata
  90              		.align	2
  91              	.LC0:
  92 0000 42757474 		.ascii	"Buttons\000"
  92      6F6E7300 
  93              		.align	2
  94              	.LC1:
  95 0008 44697370 		.ascii	"Display\000"
  95      6C617900 
  96              		.align	2
  97              	.LC2:
  98 0010 53656E73 		.ascii	"Sensor\000"
  98      6F7200
  99 0017 00       		.align	2
 100              	.LC3:
 101 0018 416C6172 		.ascii	"Alarm\000"
 101      6D00
 102 001e 0000     		.section	.text.main,"ax",%progbits
 103              		.align	2
 104              		.global	main
 105              		.thumb
 106              		.thumb_func
 107              		.type	main, %function
 108              	main:
 109              	.LFB66:
  44:.\main.c      **** 
  45:.\main.c      **** 
  46:.\main.c      **** int main( void )
  47:.\main.c      **** {
 110              		.loc 1 47 0
 111              		.cfi_startproc
 112              		@ args = 0, pretend = 0, frame = 0
 113              		@ frame_needed = 1, uses_anonymous_args = 0
 114 0000 80B5     		push	{r7, lr}
 115              		.cfi_def_cfa_offset 8
 116              		.cfi_offset 7, -8
 117              		.cfi_offset 14, -4
 118 0002 84B0     		sub	sp, sp, #16
 119              		.cfi_def_cfa_offset 24
 120 0004 04AF     		add	r7, sp, #16
ARM GAS  C:\Users\mjphi\AppData\Local\Temp\cco5j2jf.s 			page 4


 121              		.cfi_def_cfa 7, 8
  48:.\main.c      ****     /* Place your initialization/startup code here (e.g. MyInst_Start()) */
  49:.\main.c      **** 	prvHardwareSetup();
 122              		.loc 1 49 0
 123 0006 FFF7FEFF 		bl	prvHardwareSetup
  50:.\main.c      ****        
  51:.\main.c      ****     /* Start ADC, AMux, OpAmp components */
  52:.\main.c      **** 	ADC_DelSig_1_Start();
 124              		.loc 1 52 0
 125 000a FFF7FEFF 		bl	ADC_DelSig_1_Start
  53:.\main.c      ****     
  54:.\main.c      ****     /* Start the ADC conversion */
  55:.\main.c      ****     ADC_DelSig_1_StartConvert();
 126              		.loc 1 55 0
 127 000e FFF7FEFF 		bl	ADC_DelSig_1_StartConvert
  56:.\main.c      ****     
  57:.\main.c      ****     /*Initialize Display*/
  58:.\main.c      ****     TM1636init();
 128              		.loc 1 58 0
 129 0012 FFF7FEFF 		bl	TM1636init
  59:.\main.c      ****     
  60:.\main.c      ****     /* Create the tasks */
  61:.\main.c      ****     ( void ) xTaskCreate( Check_Buttons_Task, "Buttons", BLINK_STACK_SIZE, NULL, 1, NULL );
 130              		.loc 1 61 0
 131 0016 0123     		movs	r3, #1
 132 0018 0093     		str	r3, [sp]
 133 001a 0023     		movs	r3, #0
 134 001c 0193     		str	r3, [sp, #4]
 135 001e 0023     		movs	r3, #0
 136 0020 0293     		str	r3, [sp, #8]
 137 0022 0023     		movs	r3, #0
 138 0024 0393     		str	r3, [sp, #12]
 139 0026 1948     		ldr	r0, .L5
 140 0028 1949     		ldr	r1, .L5+4
 141 002a 4022     		movs	r2, #64
 142 002c 0023     		movs	r3, #0
 143 002e FFF7FEFF 		bl	xTaskGenericCreate
  62:.\main.c      ****     ( void ) xTaskCreate( Update_Display_Task, "Display", BLINK_STACK_SIZE, NULL, 1, NULL );
 144              		.loc 1 62 0
 145 0032 0123     		movs	r3, #1
 146 0034 0093     		str	r3, [sp]
 147 0036 0023     		movs	r3, #0
 148 0038 0193     		str	r3, [sp, #4]
 149 003a 0023     		movs	r3, #0
 150 003c 0293     		str	r3, [sp, #8]
 151 003e 0023     		movs	r3, #0
 152 0040 0393     		str	r3, [sp, #12]
 153 0042 1448     		ldr	r0, .L5+8
 154 0044 1449     		ldr	r1, .L5+12
 155 0046 4022     		movs	r2, #64
 156 0048 0023     		movs	r3, #0
 157 004a FFF7FEFF 		bl	xTaskGenericCreate
  63:.\main.c      ****     ( void ) xTaskCreate( Light_Sensor_Task, "Sensor", BLINK_STACK_SIZE, NULL, 1, NULL );
 158              		.loc 1 63 0
 159 004e 0123     		movs	r3, #1
 160 0050 0093     		str	r3, [sp]
 161 0052 0023     		movs	r3, #0
ARM GAS  C:\Users\mjphi\AppData\Local\Temp\cco5j2jf.s 			page 5


 162 0054 0193     		str	r3, [sp, #4]
 163 0056 0023     		movs	r3, #0
 164 0058 0293     		str	r3, [sp, #8]
 165 005a 0023     		movs	r3, #0
 166 005c 0393     		str	r3, [sp, #12]
 167 005e 0F48     		ldr	r0, .L5+16
 168 0060 0F49     		ldr	r1, .L5+20
 169 0062 4022     		movs	r2, #64
 170 0064 0023     		movs	r3, #0
 171 0066 FFF7FEFF 		bl	xTaskGenericCreate
  64:.\main.c      ****     ( void ) xTaskCreate( Alarm_Task, "Alarm", BLINK_STACK_SIZE, NULL, 1, NULL );
 172              		.loc 1 64 0
 173 006a 0123     		movs	r3, #1
 174 006c 0093     		str	r3, [sp]
 175 006e 0023     		movs	r3, #0
 176 0070 0193     		str	r3, [sp, #4]
 177 0072 0023     		movs	r3, #0
 178 0074 0293     		str	r3, [sp, #8]
 179 0076 0023     		movs	r3, #0
 180 0078 0393     		str	r3, [sp, #12]
 181 007a 0A48     		ldr	r0, .L5+24
 182 007c 0A49     		ldr	r1, .L5+28
 183 007e 4022     		movs	r2, #64
 184 0080 0023     		movs	r3, #0
 185 0082 FFF7FEFF 		bl	xTaskGenericCreate
  65:.\main.c      ****     
  66:.\main.c      ****     /* Start the OS */
  67:.\main.c      ****     vTaskStartScheduler();
 186              		.loc 1 67 0
 187 0086 FFF7FEFF 		bl	vTaskStartScheduler
 188              	.L4:
  68:.\main.c      ****     
  69:.\main.c      ****     /*NOTREACHED*/
  70:.\main.c      ****     for(;;);
 189              		.loc 1 70 0 discriminator 1
 190 008a FEE7     		b	.L4
 191              	.L6:
 192              		.align	2
 193              	.L5:
 194 008c 00000000 		.word	Check_Buttons_Task
 195 0090 00000000 		.word	.LC0
 196 0094 00000000 		.word	Update_Display_Task
 197 0098 08000000 		.word	.LC1
 198 009c 00000000 		.word	Light_Sensor_Task
 199 00a0 10000000 		.word	.LC2
 200 00a4 00000000 		.word	Alarm_Task
 201 00a8 18000000 		.word	.LC3
 202              		.cfi_endproc
 203              	.LFE66:
 204              		.size	main, .-main
 205              		.section	.text.prvHardwareSetup,"ax",%progbits
 206              		.align	2
 207              		.thumb
 208              		.thumb_func
 209              		.type	prvHardwareSetup, %function
 210              	prvHardwareSetup:
 211              	.LFB67:
ARM GAS  C:\Users\mjphi\AppData\Local\Temp\cco5j2jf.s 			page 6


  71:.\main.c      **** }
  72:.\main.c      **** 
  73:.\main.c      **** void prvHardwareSetup( void )
  74:.\main.c      **** {
 212              		.loc 1 74 0
 213              		.cfi_startproc
 214              		@ args = 0, pretend = 0, frame = 0
 215              		@ frame_needed = 1, uses_anonymous_args = 0
 216              		@ link register save eliminated.
 217 0000 80B4     		push	{r7}
 218              		.cfi_def_cfa_offset 4
 219              		.cfi_offset 7, -4
 220 0002 00AF     		add	r7, sp, #0
 221              		.cfi_def_cfa_register 7
  75:.\main.c      ****     /* Port layer functions that need to be copied into the vector table. */
  76:.\main.c      ****     extern void xPortPendSVHandler( void );
  77:.\main.c      ****     extern void xPortSysTickHandler( void );
  78:.\main.c      ****     extern void vPortSVCHandler( void );
  79:.\main.c      ****     extern cyisraddress CyRamVectors[];
  80:.\main.c      **** 
  81:.\main.c      **** 	/* Install the OS Interrupt Handlers. */
  82:.\main.c      **** 	CyRamVectors[ 11 ] = ( cyisraddress ) vPortSVCHandler;
 222              		.loc 1 82 0
 223 0004 064B     		ldr	r3, .L8
 224 0006 074A     		ldr	r2, .L8+4
 225 0008 DA62     		str	r2, [r3, #44]
  83:.\main.c      **** 	CyRamVectors[ 14 ] = ( cyisraddress ) xPortPendSVHandler;
 226              		.loc 1 83 0
 227 000a 054B     		ldr	r3, .L8
 228 000c 064A     		ldr	r2, .L8+8
 229 000e 9A63     		str	r2, [r3, #56]
  84:.\main.c      **** 	CyRamVectors[ 15 ] = ( cyisraddress ) xPortSysTickHandler;
 230              		.loc 1 84 0
 231 0010 034B     		ldr	r3, .L8
 232 0012 064A     		ldr	r2, .L8+12
 233 0014 DA63     		str	r2, [r3, #60]
  85:.\main.c      **** 
  86:.\main.c      **** 	/* Start-up the peripherals. */
  87:.\main.c      **** }
 234              		.loc 1 87 0
 235 0016 BD46     		mov	sp, r7
 236              		.cfi_def_cfa_register 13
 237              		@ sp needed
 238 0018 5DF8047B 		ldr	r7, [sp], #4
 239              		.cfi_restore 7
 240              		.cfi_def_cfa_offset 0
 241 001c 7047     		bx	lr
 242              	.L9:
 243 001e 00BF     		.align	2
 244              	.L8:
 245 0020 00000000 		.word	CyRamVectors
 246 0024 00000000 		.word	vPortSVCHandler
 247 0028 00000000 		.word	xPortPendSVHandler
 248 002c 00000000 		.word	xPortSysTickHandler
 249              		.cfi_endproc
 250              	.LFE67:
 251              		.size	prvHardwareSetup, .-prvHardwareSetup
ARM GAS  C:\Users\mjphi\AppData\Local\Temp\cco5j2jf.s 			page 7


 252              		.section	.text.Check_Buttons_Task,"ax",%progbits
 253              		.align	2
 254              		.thumb
 255              		.thumb_func
 256              		.type	Check_Buttons_Task, %function
 257              	Check_Buttons_Task:
 258              	.LFB68:
  88:.\main.c      **** /*---------------------------------------------------------------------------*/
  89:.\main.c      **** 
  90:.\main.c      **** static void Check_Buttons_Task(void *parm){
 259              		.loc 1 90 0
 260              		.cfi_startproc
 261              		@ args = 0, pretend = 0, frame = 8
 262              		@ frame_needed = 1, uses_anonymous_args = 0
 263 0000 80B5     		push	{r7, lr}
 264              		.cfi_def_cfa_offset 8
 265              		.cfi_offset 7, -8
 266              		.cfi_offset 14, -4
 267 0002 82B0     		sub	sp, sp, #8
 268              		.cfi_def_cfa_offset 16
 269 0004 00AF     		add	r7, sp, #0
 270              		.cfi_def_cfa_register 7
 271 0006 7860     		str	r0, [r7, #4]
 272              	.L13:
  91:.\main.c      ****     (void) parm;
  92:.\main.c      ****     
  93:.\main.c      ****     while(FOREVER){
  94:.\main.c      ****         if(sw1_Read() == 0){
 273              		.loc 1 94 0
 274 0008 FFF7FEFF 		bl	sw1_Read
 275 000c 0346     		mov	r3, r0
 276 000e 002B     		cmp	r3, #0
 277 0010 10D1     		bne	.L11
  95:.\main.c      ****             mute = !mute;
 278              		.loc 1 95 0
 279 0012 0A4B     		ldr	r3, .L14
 280 0014 1B78     		ldrb	r3, [r3]	@ zero_extendqisi2
 281 0016 5BB2     		sxtb	r3, r3
 282 0018 002B     		cmp	r3, #0
 283 001a 0CBF     		ite	eq
 284 001c 0123     		moveq	r3, #1
 285 001e 0023     		movne	r3, #0
 286 0020 DBB2     		uxtb	r3, r3
 287 0022 DAB2     		uxtb	r2, r3
 288 0024 054B     		ldr	r3, .L14
 289 0026 1A70     		strb	r2, [r3]
  96:.\main.c      ****             while(sw1_Read() == 0);
 290              		.loc 1 96 0
 291 0028 00BF     		nop
 292              	.L12:
 293              		.loc 1 96 0 is_stmt 0 discriminator 1
 294 002a FFF7FEFF 		bl	sw1_Read
 295 002e 0346     		mov	r3, r0
 296 0030 002B     		cmp	r3, #0
 297 0032 FAD0     		beq	.L12
 298              	.L11:
  97:.\main.c      ****         }
ARM GAS  C:\Users\mjphi\AppData\Local\Temp\cco5j2jf.s 			page 8


  98:.\main.c      ****         vTaskDelay( 50 );
 299              		.loc 1 98 0 is_stmt 1
 300 0034 3220     		movs	r0, #50
 301 0036 FFF7FEFF 		bl	vTaskDelay
  99:.\main.c      ****     }
 302              		.loc 1 99 0
 303 003a E5E7     		b	.L13
 304              	.L15:
 305              		.align	2
 306              	.L14:
 307 003c 00000000 		.word	mute
 308              		.cfi_endproc
 309              	.LFE68:
 310              		.size	Check_Buttons_Task, .-Check_Buttons_Task
 311              		.section	.text.Update_Display_Task,"ax",%progbits
 312              		.align	2
 313              		.thumb
 314              		.thumb_func
 315              		.type	Update_Display_Task, %function
 316              	Update_Display_Task:
 317              	.LFB69:
 100:.\main.c      **** }
 101:.\main.c      **** 
 102:.\main.c      **** static void Update_Display_Task(void *parm){
 318              		.loc 1 102 0
 319              		.cfi_startproc
 320              		@ args = 0, pretend = 0, frame = 16
 321              		@ frame_needed = 1, uses_anonymous_args = 0
 322 0000 80B5     		push	{r7, lr}
 323              		.cfi_def_cfa_offset 8
 324              		.cfi_offset 7, -8
 325              		.cfi_offset 14, -4
 326 0002 84B0     		sub	sp, sp, #16
 327              		.cfi_def_cfa_offset 24
 328 0004 00AF     		add	r7, sp, #0
 329              		.cfi_def_cfa_register 7
 330 0006 7860     		str	r0, [r7, #4]
 331              	.L19:
 332              	.LBB2:
 103:.\main.c      ****     (void) parm;
 104:.\main.c      ****       
 105:.\main.c      ****     while( FOREVER ){
 106:.\main.c      ****         
 107:.\main.c      ****         int8_t temp[4];
 108:.\main.c      **** 
 109:.\main.c      ****         if(lightoutput < 1000)
 333              		.loc 1 109 0
 334 0008 314B     		ldr	r3, .L20
 335 000a 1B88     		ldrh	r3, [r3]
 336 000c 1BB2     		sxth	r3, r3
 337 000e B3F57A7F 		cmp	r3, #1000
 338 0012 02DA     		bge	.L17
 110:.\main.c      ****         {
 111:.\main.c      ****         	temp[0] = INDEX_BLANK;
 339              		.loc 1 111 0
 340 0014 1123     		movs	r3, #17
 341 0016 3B73     		strb	r3, [r7, #12]
ARM GAS  C:\Users\mjphi\AppData\Local\Temp\cco5j2jf.s 			page 9


 342 0018 0BE0     		b	.L18
 343              	.L17:
 112:.\main.c      ****         }
 113:.\main.c      ****         else
 114:.\main.c      ****         {
 115:.\main.c      ****         	temp[0] = lightoutput/1000;
 344              		.loc 1 115 0
 345 001a 2D4B     		ldr	r3, .L20
 346 001c 1B88     		ldrh	r3, [r3]
 347 001e 1BB2     		sxth	r3, r3
 348 0020 2C4A     		ldr	r2, .L20+4
 349 0022 82FB0312 		smull	r1, r2, r2, r3
 350 0026 9211     		asrs	r2, r2, #6
 351 0028 DB17     		asrs	r3, r3, #31
 352 002a D31A     		subs	r3, r2, r3
 353 002c 9BB2     		uxth	r3, r3
 354 002e DBB2     		uxtb	r3, r3
 355 0030 3B73     		strb	r3, [r7, #12]
 356              	.L18:
 116:.\main.c      ****         }
 117:.\main.c      ****         
 118:.\main.c      ****         lightoutput %= 1000;
 357              		.loc 1 118 0
 358 0032 274B     		ldr	r3, .L20
 359 0034 1B88     		ldrh	r3, [r3]
 360 0036 1BB2     		sxth	r3, r3
 361 0038 264A     		ldr	r2, .L20+4
 362 003a 82FB0312 		smull	r1, r2, r2, r3
 363 003e 9111     		asrs	r1, r2, #6
 364 0040 DA17     		asrs	r2, r3, #31
 365 0042 8A1A     		subs	r2, r1, r2
 366 0044 4FF47A71 		mov	r1, #1000
 367 0048 01FB02F2 		mul	r2, r1, r2
 368 004c 9B1A     		subs	r3, r3, r2
 369 004e 9AB2     		uxth	r2, r3
 370 0050 1F4B     		ldr	r3, .L20
 371 0052 1A80     		strh	r2, [r3]	@ movhi
 119:.\main.c      ****         temp[1] = lightoutput / 100; //index of second bit from left
 372              		.loc 1 119 0
 373 0054 1E4B     		ldr	r3, .L20
 374 0056 1B88     		ldrh	r3, [r3]
 375 0058 1BB2     		sxth	r3, r3
 376 005a 1F4A     		ldr	r2, .L20+8
 377 005c 82FB0312 		smull	r1, r2, r2, r3
 378 0060 5211     		asrs	r2, r2, #5
 379 0062 DB17     		asrs	r3, r3, #31
 380 0064 D31A     		subs	r3, r2, r3
 381 0066 9BB2     		uxth	r3, r3
 382 0068 DBB2     		uxtb	r3, r3
 383 006a 7B73     		strb	r3, [r7, #13]
 120:.\main.c      ****         temp[2] = (lightoutput/10) % (temp[1] * 10);//index of third bit from left
 384              		.loc 1 120 0
 385 006c 184B     		ldr	r3, .L20
 386 006e 1B88     		ldrh	r3, [r3]
 387 0070 1BB2     		sxth	r3, r3
 388 0072 1A4A     		ldr	r2, .L20+12
 389 0074 82FB0312 		smull	r1, r2, r2, r3
ARM GAS  C:\Users\mjphi\AppData\Local\Temp\cco5j2jf.s 			page 10


 390 0078 9210     		asrs	r2, r2, #2
 391 007a DB17     		asrs	r3, r3, #31
 392 007c D31A     		subs	r3, r2, r3
 393 007e 9BB2     		uxth	r3, r3
 394 0080 1AB2     		sxth	r2, r3
 395 0082 7B7B     		ldrb	r3, [r7, #13]	@ zero_extendqisi2
 396 0084 59B2     		sxtb	r1, r3
 397 0086 0B46     		mov	r3, r1
 398 0088 9B00     		lsls	r3, r3, #2
 399 008a 0B44     		add	r3, r3, r1
 400 008c 5B00     		lsls	r3, r3, #1
 401 008e 92FBF3F1 		sdiv	r1, r2, r3
 402 0092 03FB01F3 		mul	r3, r3, r1
 403 0096 D31A     		subs	r3, r2, r3
 404 0098 DBB2     		uxtb	r3, r3
 405 009a BB73     		strb	r3, [r7, #14]
 121:.\main.c      ****         temp[3] = lightoutput % 10;//index of the fourth bit from left
 406              		.loc 1 121 0
 407 009c 0C4B     		ldr	r3, .L20
 408 009e 1B88     		ldrh	r3, [r3]
 409 00a0 1AB2     		sxth	r2, r3
 410 00a2 0E4B     		ldr	r3, .L20+12
 411 00a4 83FB0213 		smull	r1, r3, r3, r2
 412 00a8 9910     		asrs	r1, r3, #2
 413 00aa D317     		asrs	r3, r2, #31
 414 00ac C91A     		subs	r1, r1, r3
 415 00ae 0B46     		mov	r3, r1
 416 00b0 9B00     		lsls	r3, r3, #2
 417 00b2 0B44     		add	r3, r3, r1
 418 00b4 5B00     		lsls	r3, r3, #1
 419 00b6 D31A     		subs	r3, r2, r3
 420 00b8 9BB2     		uxth	r3, r3
 421 00ba DBB2     		uxtb	r3, r3
 422 00bc FB73     		strb	r3, [r7, #15]
 122:.\main.c      ****         TM1636_Full_Screen(temp);
 423              		.loc 1 122 0
 424 00be 07F10C03 		add	r3, r7, #12
 425 00c2 1846     		mov	r0, r3
 426 00c4 FFF7FEFF 		bl	TM1636_Full_Screen
 123:.\main.c      ****         vTaskDelay( 50 );
 427              		.loc 1 123 0
 428 00c8 3220     		movs	r0, #50
 429 00ca FFF7FEFF 		bl	vTaskDelay
 430              	.LBE2:
 124:.\main.c      ****     }
 431              		.loc 1 124 0
 432 00ce 9BE7     		b	.L19
 433              	.L21:
 434              		.align	2
 435              	.L20:
 436 00d0 00000000 		.word	lightoutput
 437 00d4 D34D6210 		.word	274877907
 438 00d8 1F85EB51 		.word	1374389535
 439 00dc 67666666 		.word	1717986919
 440              		.cfi_endproc
 441              	.LFE69:
 442              		.size	Update_Display_Task, .-Update_Display_Task
ARM GAS  C:\Users\mjphi\AppData\Local\Temp\cco5j2jf.s 			page 11


 443              		.section	.text.Light_Sensor_Task,"ax",%progbits
 444              		.align	2
 445              		.thumb
 446              		.thumb_func
 447              		.type	Light_Sensor_Task, %function
 448              	Light_Sensor_Task:
 449              	.LFB70:
 125:.\main.c      **** }
 126:.\main.c      **** 
 127:.\main.c      **** static void Light_Sensor_Task (void *parm){
 450              		.loc 1 127 0
 451              		.cfi_startproc
 452              		@ args = 0, pretend = 0, frame = 8
 453              		@ frame_needed = 1, uses_anonymous_args = 0
 454 0000 80B5     		push	{r7, lr}
 455              		.cfi_def_cfa_offset 8
 456              		.cfi_offset 7, -8
 457              		.cfi_offset 14, -4
 458 0002 82B0     		sub	sp, sp, #8
 459              		.cfi_def_cfa_offset 16
 460 0004 00AF     		add	r7, sp, #0
 461              		.cfi_def_cfa_register 7
 462 0006 7860     		str	r0, [r7, #4]
 463              	.L24:
 128:.\main.c      ****     (void) parm;
 129:.\main.c      ****     
 130:.\main.c      ****     while( FOREVER ){
 131:.\main.c      ****         if(ADC_DelSig_1_IsEndConversion(ADC_DelSig_1_RETURN_STATUS))
 464              		.loc 1 131 0
 465 0008 0120     		movs	r0, #1
 466 000a FFF7FEFF 		bl	ADC_DelSig_1_IsEndConversion
 467 000e 0346     		mov	r3, r0
 468 0010 002B     		cmp	r3, #0
 469 0012 05D0     		beq	.L23
 132:.\main.c      ****         {
 133:.\main.c      ****             lightoutput = ADC_DelSig_1_GetResult16();
 470              		.loc 1 133 0
 471 0014 FFF7FEFF 		bl	ADC_DelSig_1_GetResult16
 472 0018 0346     		mov	r3, r0
 473 001a 1A46     		mov	r2, r3
 474 001c 024B     		ldr	r3, .L25
 475 001e 1A80     		strh	r2, [r3]	@ movhi
 476              	.L23:
 134:.\main.c      ****         }
 135:.\main.c      ****         vTaskDelay( 50 );
 477              		.loc 1 135 0
 478 0020 3220     		movs	r0, #50
 479 0022 FFF7FEFF 		bl	vTaskDelay
 136:.\main.c      ****     }
 480              		.loc 1 136 0
 481 0026 EFE7     		b	.L24
 482              	.L26:
 483              		.align	2
 484              	.L25:
 485 0028 00000000 		.word	lightoutput
 486              		.cfi_endproc
 487              	.LFE70:
ARM GAS  C:\Users\mjphi\AppData\Local\Temp\cco5j2jf.s 			page 12


 488              		.size	Light_Sensor_Task, .-Light_Sensor_Task
 489              		.section	.text.Alarm_Task,"ax",%progbits
 490              		.align	2
 491              		.thumb
 492              		.thumb_func
 493              		.type	Alarm_Task, %function
 494              	Alarm_Task:
 495              	.LFB71:
 137:.\main.c      **** }
 138:.\main.c      **** 
 139:.\main.c      **** static void Alarm_Task(void *parm){
 496              		.loc 1 139 0
 497              		.cfi_startproc
 498              		@ args = 0, pretend = 0, frame = 8
 499              		@ frame_needed = 1, uses_anonymous_args = 0
 500 0000 80B5     		push	{r7, lr}
 501              		.cfi_def_cfa_offset 8
 502              		.cfi_offset 7, -8
 503              		.cfi_offset 14, -4
 504 0002 82B0     		sub	sp, sp, #8
 505              		.cfi_def_cfa_offset 16
 506 0004 00AF     		add	r7, sp, #0
 507              		.cfi_def_cfa_register 7
 508 0006 7860     		str	r0, [r7, #4]
 509              	.L32:
 140:.\main.c      ****     (void) parm;
 141:.\main.c      ****     while( FOREVER ){
 142:.\main.c      ****         if(lightoutput > 600){
 510              		.loc 1 142 0
 511 0008 154B     		ldr	r3, .L33
 512 000a 1B88     		ldrh	r3, [r3]
 513 000c 1BB2     		sxth	r3, r3
 514 000e B3F5167F 		cmp	r3, #600
 515 0012 16DD     		ble	.L28
 143:.\main.c      ****             if(mute == 0){
 516              		.loc 1 143 0
 517 0014 134B     		ldr	r3, .L33+4
 518 0016 1B78     		ldrb	r3, [r3]	@ zero_extendqisi2
 519 0018 002B     		cmp	r3, #0
 520 001a 03D1     		bne	.L29
 144:.\main.c      ****                 Buzzer_Write(1);
 521              		.loc 1 144 0
 522 001c 0120     		movs	r0, #1
 523 001e FFF7FEFF 		bl	Buzzer_Write
 524 0022 17E0     		b	.L31
 525              	.L29:
 145:.\main.c      ****             }else{
 146:.\main.c      ****                 Buzzer_Write(0);
 526              		.loc 1 146 0
 527 0024 0020     		movs	r0, #0
 528 0026 FFF7FEFF 		bl	Buzzer_Write
 147:.\main.c      ****                 Red1_LED_pin_Write(!Red1_LED_pin_Read());
 529              		.loc 1 147 0
 530 002a FFF7FEFF 		bl	Red1_LED_pin_Read
 531 002e 0346     		mov	r3, r0
 532 0030 002B     		cmp	r3, #0
 533 0032 0CBF     		ite	eq
ARM GAS  C:\Users\mjphi\AppData\Local\Temp\cco5j2jf.s 			page 13


 534 0034 0123     		moveq	r3, #1
 535 0036 0023     		movne	r3, #0
 536 0038 DBB2     		uxtb	r3, r3
 537 003a 1846     		mov	r0, r3
 538 003c FFF7FEFF 		bl	Red1_LED_pin_Write
 539 0040 08E0     		b	.L31
 540              	.L28:
 148:.\main.c      ****             }
 149:.\main.c      ****         }else{
 150:.\main.c      ****             Buzzer_Write(0);
 541              		.loc 1 150 0
 542 0042 0020     		movs	r0, #0
 543 0044 FFF7FEFF 		bl	Buzzer_Write
 151:.\main.c      ****             Red1_LED_pin_Write(0);
 544              		.loc 1 151 0
 545 0048 0020     		movs	r0, #0
 546 004a FFF7FEFF 		bl	Red1_LED_pin_Write
 152:.\main.c      ****             mute = 0;
 547              		.loc 1 152 0
 548 004e 054B     		ldr	r3, .L33+4
 549 0050 0022     		movs	r2, #0
 550 0052 1A70     		strb	r2, [r3]
 551              	.L31:
 153:.\main.c      ****         }
 154:.\main.c      ****         vTaskDelay( 500 );
 552              		.loc 1 154 0
 553 0054 4FF4FA70 		mov	r0, #500
 554 0058 FFF7FEFF 		bl	vTaskDelay
 155:.\main.c      ****     }
 555              		.loc 1 155 0
 556 005c D4E7     		b	.L32
 557              	.L34:
 558 005e 00BF     		.align	2
 559              	.L33:
 560 0060 00000000 		.word	lightoutput
 561 0064 00000000 		.word	mute
 562              		.cfi_endproc
 563              	.LFE71:
 564              		.size	Alarm_Task, .-Alarm_Task
 565              		.text
 566              	.Letext0:
 567              		.file 2 "c:\\program files (x86)\\cypress\\psoc creator\\3.3\\psoc creator\\import\\gnu\\arm\\4.9.
 568              		.file 3 "c:\\program files (x86)\\cypress\\psoc creator\\3.3\\psoc creator\\import\\gnu\\arm\\4.9.
 569              		.file 4 "Generated_Source\\PSoC5/cytypes.h"
 570              		.file 5 "Generated_Source\\PSoC5/core_cm3.h"
 571              		.file 6 ".\\TM1636.h"
 572              		.section	.debug_info,"",%progbits
 573              	.Ldebug_info0:
 574 0000 BB020000 		.4byte	0x2bb
 575 0004 0400     		.2byte	0x4
 576 0006 00000000 		.4byte	.Ldebug_abbrev0
 577 000a 04       		.byte	0x4
 578 000b 01       		.uleb128 0x1
 579 000c 51000000 		.4byte	.LASF43
 580 0010 01       		.byte	0x1
 581 0011 0D010000 		.4byte	.LASF44
 582 0015 23020000 		.4byte	.LASF45
ARM GAS  C:\Users\mjphi\AppData\Local\Temp\cco5j2jf.s 			page 14


 583 0019 00000000 		.4byte	.Ldebug_ranges0+0
 584 001d 00000000 		.4byte	0
 585 0021 00000000 		.4byte	.Ldebug_line0
 586 0025 02       		.uleb128 0x2
 587 0026 00000000 		.4byte	.LASF0
 588 002a 02       		.byte	0x2
 589 002b 1B       		.byte	0x1b
 590 002c 30000000 		.4byte	0x30
 591 0030 03       		.uleb128 0x3
 592 0031 01       		.byte	0x1
 593 0032 06       		.byte	0x6
 594 0033 C7020000 		.4byte	.LASF2
 595 0037 02       		.uleb128 0x2
 596 0038 09000000 		.4byte	.LASF1
 597 003c 02       		.byte	0x2
 598 003d 1D       		.byte	0x1d
 599 003e 42000000 		.4byte	0x42
 600 0042 03       		.uleb128 0x3
 601 0043 01       		.byte	0x1
 602 0044 08       		.byte	0x8
 603 0045 FF000000 		.4byte	.LASF3
 604 0049 02       		.uleb128 0x2
 605 004a 13000000 		.4byte	.LASF4
 606 004e 02       		.byte	0x2
 607 004f 29       		.byte	0x29
 608 0050 54000000 		.4byte	0x54
 609 0054 03       		.uleb128 0x3
 610 0055 02       		.byte	0x2
 611 0056 05       		.byte	0x5
 612 0057 A0020000 		.4byte	.LASF5
 613 005b 03       		.uleb128 0x3
 614 005c 02       		.byte	0x2
 615 005d 07       		.byte	0x7
 616 005e 3F010000 		.4byte	.LASF6
 617 0062 02       		.uleb128 0x2
 618 0063 3E000000 		.4byte	.LASF7
 619 0067 02       		.byte	0x2
 620 0068 3F       		.byte	0x3f
 621 0069 6D000000 		.4byte	0x6d
 622 006d 03       		.uleb128 0x3
 623 006e 04       		.byte	0x4
 624 006f 05       		.byte	0x5
 625 0070 48000000 		.4byte	.LASF8
 626 0074 03       		.uleb128 0x3
 627 0075 04       		.byte	0x4
 628 0076 07       		.byte	0x7
 629 0077 28010000 		.4byte	.LASF9
 630 007b 03       		.uleb128 0x3
 631 007c 08       		.byte	0x8
 632 007d 05       		.byte	0x5
 633 007e 60020000 		.4byte	.LASF10
 634 0082 03       		.uleb128 0x3
 635 0083 08       		.byte	0x8
 636 0084 07       		.byte	0x7
 637 0085 DC010000 		.4byte	.LASF11
 638 0089 04       		.uleb128 0x4
 639 008a 04       		.byte	0x4
ARM GAS  C:\Users\mjphi\AppData\Local\Temp\cco5j2jf.s 			page 15


 640 008b 05       		.byte	0x5
 641 008c 696E7400 		.ascii	"int\000"
 642 0090 03       		.uleb128 0x3
 643 0091 04       		.byte	0x4
 644 0092 07       		.byte	0x7
 645 0093 C3010000 		.4byte	.LASF12
 646 0097 02       		.uleb128 0x2
 647 0098 F2000000 		.4byte	.LASF13
 648 009c 03       		.byte	0x3
 649 009d 14       		.byte	0x14
 650 009e 25000000 		.4byte	0x25
 651 00a2 02       		.uleb128 0x2
 652 00a3 F3010000 		.4byte	.LASF14
 653 00a7 03       		.byte	0x3
 654 00a8 15       		.byte	0x15
 655 00a9 37000000 		.4byte	0x37
 656 00ad 02       		.uleb128 0x2
 657 00ae 1B020000 		.4byte	.LASF15
 658 00b2 03       		.byte	0x3
 659 00b3 20       		.byte	0x20
 660 00b4 49000000 		.4byte	0x49
 661 00b8 02       		.uleb128 0x2
 662 00b9 4F020000 		.4byte	.LASF16
 663 00bd 03       		.byte	0x3
 664 00be 2C       		.byte	0x2c
 665 00bf 62000000 		.4byte	0x62
 666 00c3 03       		.uleb128 0x3
 667 00c4 04       		.byte	0x4
 668 00c5 04       		.byte	0x4
 669 00c6 F9000000 		.4byte	.LASF17
 670 00ca 03       		.uleb128 0x3
 671 00cb 08       		.byte	0x8
 672 00cc 04       		.byte	0x4
 673 00cd D3020000 		.4byte	.LASF18
 674 00d1 03       		.uleb128 0x3
 675 00d2 01       		.byte	0x1
 676 00d3 08       		.byte	0x8
 677 00d4 6E020000 		.4byte	.LASF19
 678 00d8 05       		.uleb128 0x5
 679 00d9 80010000 		.4byte	.LASF20
 680 00dd 04       		.byte	0x4
 681 00de 7E01     		.2byte	0x17e
 682 00e0 E4000000 		.4byte	0xe4
 683 00e4 06       		.uleb128 0x6
 684 00e5 04       		.byte	0x4
 685 00e6 EA000000 		.4byte	0xea
 686 00ea 07       		.uleb128 0x7
 687 00eb 03       		.uleb128 0x3
 688 00ec 04       		.byte	0x4
 689 00ed 07       		.byte	0x7
 690 00ee 57020000 		.4byte	.LASF21
 691 00f2 08       		.uleb128 0x8
 692 00f3 04       		.byte	0x4
 693 00f4 03       		.uleb128 0x3
 694 00f5 08       		.byte	0x8
 695 00f6 04       		.byte	0x4
 696 00f7 BB020000 		.4byte	.LASF22
ARM GAS  C:\Users\mjphi\AppData\Local\Temp\cco5j2jf.s 			page 16


 697 00fb 09       		.uleb128 0x9
 698 00fc 8D010000 		.4byte	.LASF23
 699 0100 01       		.byte	0x1
 700 0101 23       		.byte	0x23
 701 0102 00000000 		.4byte	.LFB64
 702 0106 0C000000 		.4byte	.LFE64-.LFB64
 703 010a 01       		.uleb128 0x1
 704 010b 9C       		.byte	0x9c
 705 010c 09       		.uleb128 0x9
 706 010d DA020000 		.4byte	.LASF24
 707 0111 01       		.byte	0x1
 708 0112 28       		.byte	0x28
 709 0113 00000000 		.4byte	.LFB65
 710 0117 0C000000 		.4byte	.LFE65-.LFB65
 711 011b 01       		.uleb128 0x1
 712 011c 9C       		.byte	0x9c
 713 011d 0A       		.uleb128 0xa
 714 011e AA010000 		.4byte	.LASF46
 715 0122 01       		.byte	0x1
 716 0123 2E       		.byte	0x2e
 717 0124 89000000 		.4byte	0x89
 718 0128 00000000 		.4byte	.LFB66
 719 012c AC000000 		.4byte	.LFE66-.LFB66
 720 0130 01       		.uleb128 0x1
 721 0131 9C       		.byte	0x9c
 722 0132 0B       		.uleb128 0xb
 723 0133 F8020000 		.4byte	.LASF28
 724 0137 01       		.byte	0x1
 725 0138 49       		.byte	0x49
 726 0139 00000000 		.4byte	.LFB67
 727 013d 30000000 		.4byte	.LFE67-.LFB67
 728 0141 01       		.uleb128 0x1
 729 0142 9C       		.byte	0x9c
 730 0143 68010000 		.4byte	0x168
 731 0147 0C       		.uleb128 0xc
 732 0148 DF000000 		.4byte	.LASF25
 733 014c 01       		.byte	0x1
 734 014d 4C       		.byte	0x4c
 735 014e 0C       		.uleb128 0xc
 736 014f AF010000 		.4byte	.LASF26
 737 0153 01       		.byte	0x1
 738 0154 4D       		.byte	0x4d
 739 0155 0C       		.uleb128 0xc
 740 0156 73020000 		.4byte	.LASF27
 741 015a 01       		.byte	0x1
 742 015b 4E       		.byte	0x4e
 743 015c 0D       		.uleb128 0xd
 744 015d 1D000000 		.4byte	.LASF34
 745 0161 01       		.byte	0x1
 746 0162 4F       		.byte	0x4f
 747 0163 68010000 		.4byte	0x168
 748 0167 00       		.byte	0
 749 0168 0E       		.uleb128 0xe
 750 0169 D8000000 		.4byte	0xd8
 751 016d 73010000 		.4byte	0x173
 752 0171 0F       		.uleb128 0xf
 753 0172 00       		.byte	0
ARM GAS  C:\Users\mjphi\AppData\Local\Temp\cco5j2jf.s 			page 17


 754 0173 10       		.uleb128 0x10
 755 0174 08020000 		.4byte	.LASF29
 756 0178 01       		.byte	0x1
 757 0179 5A       		.byte	0x5a
 758 017a 00000000 		.4byte	.LFB68
 759 017e 40000000 		.4byte	.LFE68-.LFB68
 760 0182 01       		.uleb128 0x1
 761 0183 9C       		.byte	0x9c
 762 0184 97010000 		.4byte	0x197
 763 0188 11       		.uleb128 0x11
 764 0189 AA020000 		.4byte	.LASF31
 765 018d 01       		.byte	0x1
 766 018e 5A       		.byte	0x5a
 767 018f F2000000 		.4byte	0xf2
 768 0193 02       		.uleb128 0x2
 769 0194 91       		.byte	0x91
 770 0195 74       		.sleb128 -12
 771 0196 00       		.byte	0
 772 0197 10       		.uleb128 0x10
 773 0198 2A000000 		.4byte	.LASF30
 774 019c 01       		.byte	0x1
 775 019d 66       		.byte	0x66
 776 019e 00000000 		.4byte	.LFB69
 777 01a2 E0000000 		.4byte	.LFE69-.LFB69
 778 01a6 01       		.uleb128 0x1
 779 01a7 9C       		.byte	0x9c
 780 01a8 D3010000 		.4byte	0x1d3
 781 01ac 11       		.uleb128 0x11
 782 01ad AA020000 		.4byte	.LASF31
 783 01b1 01       		.byte	0x1
 784 01b2 66       		.byte	0x66
 785 01b3 F2000000 		.4byte	0xf2
 786 01b7 02       		.uleb128 0x2
 787 01b8 91       		.byte	0x91
 788 01b9 6C       		.sleb128 -20
 789 01ba 12       		.uleb128 0x12
 790 01bb 08000000 		.4byte	.LBB2
 791 01bf C6000000 		.4byte	.LBE2-.LBB2
 792 01c3 13       		.uleb128 0x13
 793 01c4 3A010000 		.4byte	.LASF47
 794 01c8 01       		.byte	0x1
 795 01c9 6B       		.byte	0x6b
 796 01ca D3010000 		.4byte	0x1d3
 797 01ce 02       		.uleb128 0x2
 798 01cf 91       		.byte	0x91
 799 01d0 74       		.sleb128 -12
 800 01d1 00       		.byte	0
 801 01d2 00       		.byte	0
 802 01d3 0E       		.uleb128 0xe
 803 01d4 97000000 		.4byte	0x97
 804 01d8 E3010000 		.4byte	0x1e3
 805 01dc 14       		.uleb128 0x14
 806 01dd EB000000 		.4byte	0xeb
 807 01e1 03       		.byte	0x3
 808 01e2 00       		.byte	0
 809 01e3 10       		.uleb128 0x10
 810 01e4 16010000 		.4byte	.LASF32
ARM GAS  C:\Users\mjphi\AppData\Local\Temp\cco5j2jf.s 			page 18


 811 01e8 01       		.byte	0x1
 812 01e9 7F       		.byte	0x7f
 813 01ea 00000000 		.4byte	.LFB70
 814 01ee 2C000000 		.4byte	.LFE70-.LFB70
 815 01f2 01       		.uleb128 0x1
 816 01f3 9C       		.byte	0x9c
 817 01f4 07020000 		.4byte	0x207
 818 01f8 11       		.uleb128 0x11
 819 01f9 AA020000 		.4byte	.LASF31
 820 01fd 01       		.byte	0x1
 821 01fe 7F       		.byte	0x7f
 822 01ff F2000000 		.4byte	0xf2
 823 0203 02       		.uleb128 0x2
 824 0204 91       		.byte	0x91
 825 0205 74       		.sleb128 -12
 826 0206 00       		.byte	0
 827 0207 10       		.uleb128 0x10
 828 0208 75010000 		.4byte	.LASF33
 829 020c 01       		.byte	0x1
 830 020d 8B       		.byte	0x8b
 831 020e 00000000 		.4byte	.LFB71
 832 0212 68000000 		.4byte	.LFE71-.LFB71
 833 0216 01       		.uleb128 0x1
 834 0217 9C       		.byte	0x9c
 835 0218 2B020000 		.4byte	0x22b
 836 021c 11       		.uleb128 0x11
 837 021d AA020000 		.4byte	.LASF31
 838 0221 01       		.byte	0x1
 839 0222 8B       		.byte	0x8b
 840 0223 F2000000 		.4byte	0xf2
 841 0227 02       		.uleb128 0x2
 842 0228 91       		.byte	0x91
 843 0229 74       		.sleb128 -12
 844 022a 00       		.byte	0
 845 022b 15       		.uleb128 0x15
 846 022c 57010000 		.4byte	.LASF35
 847 0230 05       		.byte	0x5
 848 0231 2A06     		.2byte	0x62a
 849 0233 37020000 		.4byte	0x237
 850 0237 16       		.uleb128 0x16
 851 0238 B8000000 		.4byte	0xb8
 852 023c 0D       		.uleb128 0xd
 853 023d 1D000000 		.4byte	.LASF34
 854 0241 01       		.byte	0x1
 855 0242 4F       		.byte	0x4f
 856 0243 68010000 		.4byte	0x168
 857 0247 17       		.uleb128 0x17
 858 0248 83020000 		.4byte	.LASF36
 859 024c 06       		.byte	0x6
 860 024d 37       		.byte	0x37
 861 024e A2000000 		.4byte	0xa2
 862 0252 05       		.uleb128 0x5
 863 0253 03       		.byte	0x3
 864 0254 00000000 		.4byte	Cmd_SetData
 865 0258 17       		.uleb128 0x17
 866 0259 AF020000 		.4byte	.LASF37
 867 025d 06       		.byte	0x6
ARM GAS  C:\Users\mjphi\AppData\Local\Temp\cco5j2jf.s 			page 19


 868 025e 38       		.byte	0x38
 869 025f A2000000 		.4byte	0xa2
 870 0263 05       		.uleb128 0x5
 871 0264 03       		.byte	0x3
 872 0265 00000000 		.4byte	Cmd_SetAddr
 873 0269 17       		.uleb128 0x17
 874 026a FB010000 		.4byte	.LASF38
 875 026e 06       		.byte	0x6
 876 026f 39       		.byte	0x39
 877 0270 A2000000 		.4byte	0xa2
 878 0274 05       		.uleb128 0x5
 879 0275 03       		.byte	0x3
 880 0276 00000000 		.4byte	Cmd_DispCtrl
 881 027a 17       		.uleb128 0x17
 882 027b 8F020000 		.4byte	.LASF39
 883 027f 06       		.byte	0x6
 884 0280 3A       		.byte	0x3a
 885 0281 A2000000 		.4byte	0xa2
 886 0285 05       		.uleb128 0x5
 887 0286 03       		.byte	0x3
 888 0287 00000000 		.4byte	DisplayPointFlag
 889 028b 17       		.uleb128 0x17
 890 028c 64010000 		.4byte	.LASF40
 891 0290 06       		.byte	0x6
 892 0291 3B       		.byte	0x3b
 893 0292 A2000000 		.4byte	0xa2
 894 0296 05       		.uleb128 0x5
 895 0297 03       		.byte	0x3
 896 0298 00000000 		.4byte	DisplayBrigtness
 897 029c 17       		.uleb128 0x17
 898 029d D0010000 		.4byte	.LASF41
 899 02a1 01       		.byte	0x1
 900 02a2 13       		.byte	0x13
 901 02a3 AD000000 		.4byte	0xad
 902 02a7 05       		.uleb128 0x5
 903 02a8 03       		.byte	0x3
 904 02a9 00000000 		.4byte	lightoutput
 905 02ad 17       		.uleb128 0x17
 906 02ae 52010000 		.4byte	.LASF42
 907 02b2 01       		.byte	0x1
 908 02b3 14       		.byte	0x14
 909 02b4 97000000 		.4byte	0x97
 910 02b8 05       		.uleb128 0x5
 911 02b9 03       		.byte	0x3
 912 02ba 00000000 		.4byte	mute
 913 02be 00       		.byte	0
 914              		.section	.debug_abbrev,"",%progbits
 915              	.Ldebug_abbrev0:
 916 0000 01       		.uleb128 0x1
 917 0001 11       		.uleb128 0x11
 918 0002 01       		.byte	0x1
 919 0003 25       		.uleb128 0x25
 920 0004 0E       		.uleb128 0xe
 921 0005 13       		.uleb128 0x13
 922 0006 0B       		.uleb128 0xb
 923 0007 03       		.uleb128 0x3
 924 0008 0E       		.uleb128 0xe
ARM GAS  C:\Users\mjphi\AppData\Local\Temp\cco5j2jf.s 			page 20


 925 0009 1B       		.uleb128 0x1b
 926 000a 0E       		.uleb128 0xe
 927 000b 55       		.uleb128 0x55
 928 000c 17       		.uleb128 0x17
 929 000d 11       		.uleb128 0x11
 930 000e 01       		.uleb128 0x1
 931 000f 10       		.uleb128 0x10
 932 0010 17       		.uleb128 0x17
 933 0011 00       		.byte	0
 934 0012 00       		.byte	0
 935 0013 02       		.uleb128 0x2
 936 0014 16       		.uleb128 0x16
 937 0015 00       		.byte	0
 938 0016 03       		.uleb128 0x3
 939 0017 0E       		.uleb128 0xe
 940 0018 3A       		.uleb128 0x3a
 941 0019 0B       		.uleb128 0xb
 942 001a 3B       		.uleb128 0x3b
 943 001b 0B       		.uleb128 0xb
 944 001c 49       		.uleb128 0x49
 945 001d 13       		.uleb128 0x13
 946 001e 00       		.byte	0
 947 001f 00       		.byte	0
 948 0020 03       		.uleb128 0x3
 949 0021 24       		.uleb128 0x24
 950 0022 00       		.byte	0
 951 0023 0B       		.uleb128 0xb
 952 0024 0B       		.uleb128 0xb
 953 0025 3E       		.uleb128 0x3e
 954 0026 0B       		.uleb128 0xb
 955 0027 03       		.uleb128 0x3
 956 0028 0E       		.uleb128 0xe
 957 0029 00       		.byte	0
 958 002a 00       		.byte	0
 959 002b 04       		.uleb128 0x4
 960 002c 24       		.uleb128 0x24
 961 002d 00       		.byte	0
 962 002e 0B       		.uleb128 0xb
 963 002f 0B       		.uleb128 0xb
 964 0030 3E       		.uleb128 0x3e
 965 0031 0B       		.uleb128 0xb
 966 0032 03       		.uleb128 0x3
 967 0033 08       		.uleb128 0x8
 968 0034 00       		.byte	0
 969 0035 00       		.byte	0
 970 0036 05       		.uleb128 0x5
 971 0037 16       		.uleb128 0x16
 972 0038 00       		.byte	0
 973 0039 03       		.uleb128 0x3
 974 003a 0E       		.uleb128 0xe
 975 003b 3A       		.uleb128 0x3a
 976 003c 0B       		.uleb128 0xb
 977 003d 3B       		.uleb128 0x3b
 978 003e 05       		.uleb128 0x5
 979 003f 49       		.uleb128 0x49
 980 0040 13       		.uleb128 0x13
 981 0041 00       		.byte	0
ARM GAS  C:\Users\mjphi\AppData\Local\Temp\cco5j2jf.s 			page 21


 982 0042 00       		.byte	0
 983 0043 06       		.uleb128 0x6
 984 0044 0F       		.uleb128 0xf
 985 0045 00       		.byte	0
 986 0046 0B       		.uleb128 0xb
 987 0047 0B       		.uleb128 0xb
 988 0048 49       		.uleb128 0x49
 989 0049 13       		.uleb128 0x13
 990 004a 00       		.byte	0
 991 004b 00       		.byte	0
 992 004c 07       		.uleb128 0x7
 993 004d 15       		.uleb128 0x15
 994 004e 00       		.byte	0
 995 004f 27       		.uleb128 0x27
 996 0050 19       		.uleb128 0x19
 997 0051 00       		.byte	0
 998 0052 00       		.byte	0
 999 0053 08       		.uleb128 0x8
 1000 0054 0F       		.uleb128 0xf
 1001 0055 00       		.byte	0
 1002 0056 0B       		.uleb128 0xb
 1003 0057 0B       		.uleb128 0xb
 1004 0058 00       		.byte	0
 1005 0059 00       		.byte	0
 1006 005a 09       		.uleb128 0x9
 1007 005b 2E       		.uleb128 0x2e
 1008 005c 00       		.byte	0
 1009 005d 3F       		.uleb128 0x3f
 1010 005e 19       		.uleb128 0x19
 1011 005f 03       		.uleb128 0x3
 1012 0060 0E       		.uleb128 0xe
 1013 0061 3A       		.uleb128 0x3a
 1014 0062 0B       		.uleb128 0xb
 1015 0063 3B       		.uleb128 0x3b
 1016 0064 0B       		.uleb128 0xb
 1017 0065 27       		.uleb128 0x27
 1018 0066 19       		.uleb128 0x19
 1019 0067 11       		.uleb128 0x11
 1020 0068 01       		.uleb128 0x1
 1021 0069 12       		.uleb128 0x12
 1022 006a 06       		.uleb128 0x6
 1023 006b 40       		.uleb128 0x40
 1024 006c 18       		.uleb128 0x18
 1025 006d 9742     		.uleb128 0x2117
 1026 006f 19       		.uleb128 0x19
 1027 0070 00       		.byte	0
 1028 0071 00       		.byte	0
 1029 0072 0A       		.uleb128 0xa
 1030 0073 2E       		.uleb128 0x2e
 1031 0074 00       		.byte	0
 1032 0075 3F       		.uleb128 0x3f
 1033 0076 19       		.uleb128 0x19
 1034 0077 03       		.uleb128 0x3
 1035 0078 0E       		.uleb128 0xe
 1036 0079 3A       		.uleb128 0x3a
 1037 007a 0B       		.uleb128 0xb
 1038 007b 3B       		.uleb128 0x3b
ARM GAS  C:\Users\mjphi\AppData\Local\Temp\cco5j2jf.s 			page 22


 1039 007c 0B       		.uleb128 0xb
 1040 007d 27       		.uleb128 0x27
 1041 007e 19       		.uleb128 0x19
 1042 007f 49       		.uleb128 0x49
 1043 0080 13       		.uleb128 0x13
 1044 0081 11       		.uleb128 0x11
 1045 0082 01       		.uleb128 0x1
 1046 0083 12       		.uleb128 0x12
 1047 0084 06       		.uleb128 0x6
 1048 0085 40       		.uleb128 0x40
 1049 0086 18       		.uleb128 0x18
 1050 0087 9642     		.uleb128 0x2116
 1051 0089 19       		.uleb128 0x19
 1052 008a 00       		.byte	0
 1053 008b 00       		.byte	0
 1054 008c 0B       		.uleb128 0xb
 1055 008d 2E       		.uleb128 0x2e
 1056 008e 01       		.byte	0x1
 1057 008f 03       		.uleb128 0x3
 1058 0090 0E       		.uleb128 0xe
 1059 0091 3A       		.uleb128 0x3a
 1060 0092 0B       		.uleb128 0xb
 1061 0093 3B       		.uleb128 0x3b
 1062 0094 0B       		.uleb128 0xb
 1063 0095 27       		.uleb128 0x27
 1064 0096 19       		.uleb128 0x19
 1065 0097 11       		.uleb128 0x11
 1066 0098 01       		.uleb128 0x1
 1067 0099 12       		.uleb128 0x12
 1068 009a 06       		.uleb128 0x6
 1069 009b 40       		.uleb128 0x40
 1070 009c 18       		.uleb128 0x18
 1071 009d 9742     		.uleb128 0x2117
 1072 009f 19       		.uleb128 0x19
 1073 00a0 01       		.uleb128 0x1
 1074 00a1 13       		.uleb128 0x13
 1075 00a2 00       		.byte	0
 1076 00a3 00       		.byte	0
 1077 00a4 0C       		.uleb128 0xc
 1078 00a5 2E       		.uleb128 0x2e
 1079 00a6 00       		.byte	0
 1080 00a7 3F       		.uleb128 0x3f
 1081 00a8 19       		.uleb128 0x19
 1082 00a9 03       		.uleb128 0x3
 1083 00aa 0E       		.uleb128 0xe
 1084 00ab 3A       		.uleb128 0x3a
 1085 00ac 0B       		.uleb128 0xb
 1086 00ad 3B       		.uleb128 0x3b
 1087 00ae 0B       		.uleb128 0xb
 1088 00af 27       		.uleb128 0x27
 1089 00b0 19       		.uleb128 0x19
 1090 00b1 3C       		.uleb128 0x3c
 1091 00b2 19       		.uleb128 0x19
 1092 00b3 00       		.byte	0
 1093 00b4 00       		.byte	0
 1094 00b5 0D       		.uleb128 0xd
 1095 00b6 34       		.uleb128 0x34
ARM GAS  C:\Users\mjphi\AppData\Local\Temp\cco5j2jf.s 			page 23


 1096 00b7 00       		.byte	0
 1097 00b8 03       		.uleb128 0x3
 1098 00b9 0E       		.uleb128 0xe
 1099 00ba 3A       		.uleb128 0x3a
 1100 00bb 0B       		.uleb128 0xb
 1101 00bc 3B       		.uleb128 0x3b
 1102 00bd 0B       		.uleb128 0xb
 1103 00be 49       		.uleb128 0x49
 1104 00bf 13       		.uleb128 0x13
 1105 00c0 3F       		.uleb128 0x3f
 1106 00c1 19       		.uleb128 0x19
 1107 00c2 3C       		.uleb128 0x3c
 1108 00c3 19       		.uleb128 0x19
 1109 00c4 00       		.byte	0
 1110 00c5 00       		.byte	0
 1111 00c6 0E       		.uleb128 0xe
 1112 00c7 01       		.uleb128 0x1
 1113 00c8 01       		.byte	0x1
 1114 00c9 49       		.uleb128 0x49
 1115 00ca 13       		.uleb128 0x13
 1116 00cb 01       		.uleb128 0x1
 1117 00cc 13       		.uleb128 0x13
 1118 00cd 00       		.byte	0
 1119 00ce 00       		.byte	0
 1120 00cf 0F       		.uleb128 0xf
 1121 00d0 21       		.uleb128 0x21
 1122 00d1 00       		.byte	0
 1123 00d2 00       		.byte	0
 1124 00d3 00       		.byte	0
 1125 00d4 10       		.uleb128 0x10
 1126 00d5 2E       		.uleb128 0x2e
 1127 00d6 01       		.byte	0x1
 1128 00d7 03       		.uleb128 0x3
 1129 00d8 0E       		.uleb128 0xe
 1130 00d9 3A       		.uleb128 0x3a
 1131 00da 0B       		.uleb128 0xb
 1132 00db 3B       		.uleb128 0x3b
 1133 00dc 0B       		.uleb128 0xb
 1134 00dd 27       		.uleb128 0x27
 1135 00de 19       		.uleb128 0x19
 1136 00df 11       		.uleb128 0x11
 1137 00e0 01       		.uleb128 0x1
 1138 00e1 12       		.uleb128 0x12
 1139 00e2 06       		.uleb128 0x6
 1140 00e3 40       		.uleb128 0x40
 1141 00e4 18       		.uleb128 0x18
 1142 00e5 9642     		.uleb128 0x2116
 1143 00e7 19       		.uleb128 0x19
 1144 00e8 01       		.uleb128 0x1
 1145 00e9 13       		.uleb128 0x13
 1146 00ea 00       		.byte	0
 1147 00eb 00       		.byte	0
 1148 00ec 11       		.uleb128 0x11
 1149 00ed 05       		.uleb128 0x5
 1150 00ee 00       		.byte	0
 1151 00ef 03       		.uleb128 0x3
 1152 00f0 0E       		.uleb128 0xe
ARM GAS  C:\Users\mjphi\AppData\Local\Temp\cco5j2jf.s 			page 24


 1153 00f1 3A       		.uleb128 0x3a
 1154 00f2 0B       		.uleb128 0xb
 1155 00f3 3B       		.uleb128 0x3b
 1156 00f4 0B       		.uleb128 0xb
 1157 00f5 49       		.uleb128 0x49
 1158 00f6 13       		.uleb128 0x13
 1159 00f7 02       		.uleb128 0x2
 1160 00f8 18       		.uleb128 0x18
 1161 00f9 00       		.byte	0
 1162 00fa 00       		.byte	0
 1163 00fb 12       		.uleb128 0x12
 1164 00fc 0B       		.uleb128 0xb
 1165 00fd 01       		.byte	0x1
 1166 00fe 11       		.uleb128 0x11
 1167 00ff 01       		.uleb128 0x1
 1168 0100 12       		.uleb128 0x12
 1169 0101 06       		.uleb128 0x6
 1170 0102 00       		.byte	0
 1171 0103 00       		.byte	0
 1172 0104 13       		.uleb128 0x13
 1173 0105 34       		.uleb128 0x34
 1174 0106 00       		.byte	0
 1175 0107 03       		.uleb128 0x3
 1176 0108 0E       		.uleb128 0xe
 1177 0109 3A       		.uleb128 0x3a
 1178 010a 0B       		.uleb128 0xb
 1179 010b 3B       		.uleb128 0x3b
 1180 010c 0B       		.uleb128 0xb
 1181 010d 49       		.uleb128 0x49
 1182 010e 13       		.uleb128 0x13
 1183 010f 02       		.uleb128 0x2
 1184 0110 18       		.uleb128 0x18
 1185 0111 00       		.byte	0
 1186 0112 00       		.byte	0
 1187 0113 14       		.uleb128 0x14
 1188 0114 21       		.uleb128 0x21
 1189 0115 00       		.byte	0
 1190 0116 49       		.uleb128 0x49
 1191 0117 13       		.uleb128 0x13
 1192 0118 2F       		.uleb128 0x2f
 1193 0119 0B       		.uleb128 0xb
 1194 011a 00       		.byte	0
 1195 011b 00       		.byte	0
 1196 011c 15       		.uleb128 0x15
 1197 011d 34       		.uleb128 0x34
 1198 011e 00       		.byte	0
 1199 011f 03       		.uleb128 0x3
 1200 0120 0E       		.uleb128 0xe
 1201 0121 3A       		.uleb128 0x3a
 1202 0122 0B       		.uleb128 0xb
 1203 0123 3B       		.uleb128 0x3b
 1204 0124 05       		.uleb128 0x5
 1205 0125 49       		.uleb128 0x49
 1206 0126 13       		.uleb128 0x13
 1207 0127 3F       		.uleb128 0x3f
 1208 0128 19       		.uleb128 0x19
 1209 0129 3C       		.uleb128 0x3c
ARM GAS  C:\Users\mjphi\AppData\Local\Temp\cco5j2jf.s 			page 25


 1210 012a 19       		.uleb128 0x19
 1211 012b 00       		.byte	0
 1212 012c 00       		.byte	0
 1213 012d 16       		.uleb128 0x16
 1214 012e 35       		.uleb128 0x35
 1215 012f 00       		.byte	0
 1216 0130 49       		.uleb128 0x49
 1217 0131 13       		.uleb128 0x13
 1218 0132 00       		.byte	0
 1219 0133 00       		.byte	0
 1220 0134 17       		.uleb128 0x17
 1221 0135 34       		.uleb128 0x34
 1222 0136 00       		.byte	0
 1223 0137 03       		.uleb128 0x3
 1224 0138 0E       		.uleb128 0xe
 1225 0139 3A       		.uleb128 0x3a
 1226 013a 0B       		.uleb128 0xb
 1227 013b 3B       		.uleb128 0x3b
 1228 013c 0B       		.uleb128 0xb
 1229 013d 49       		.uleb128 0x49
 1230 013e 13       		.uleb128 0x13
 1231 013f 3F       		.uleb128 0x3f
 1232 0140 19       		.uleb128 0x19
 1233 0141 02       		.uleb128 0x2
 1234 0142 18       		.uleb128 0x18
 1235 0143 00       		.byte	0
 1236 0144 00       		.byte	0
 1237 0145 00       		.byte	0
 1238              		.section	.debug_aranges,"",%progbits
 1239 0000 54000000 		.4byte	0x54
 1240 0004 0200     		.2byte	0x2
 1241 0006 00000000 		.4byte	.Ldebug_info0
 1242 000a 04       		.byte	0x4
 1243 000b 00       		.byte	0
 1244 000c 0000     		.2byte	0
 1245 000e 0000     		.2byte	0
 1246 0010 00000000 		.4byte	.LFB64
 1247 0014 0C000000 		.4byte	.LFE64-.LFB64
 1248 0018 00000000 		.4byte	.LFB65
 1249 001c 0C000000 		.4byte	.LFE65-.LFB65
 1250 0020 00000000 		.4byte	.LFB66
 1251 0024 AC000000 		.4byte	.LFE66-.LFB66
 1252 0028 00000000 		.4byte	.LFB67
 1253 002c 30000000 		.4byte	.LFE67-.LFB67
 1254 0030 00000000 		.4byte	.LFB68
 1255 0034 40000000 		.4byte	.LFE68-.LFB68
 1256 0038 00000000 		.4byte	.LFB69
 1257 003c E0000000 		.4byte	.LFE69-.LFB69
 1258 0040 00000000 		.4byte	.LFB70
 1259 0044 2C000000 		.4byte	.LFE70-.LFB70
 1260 0048 00000000 		.4byte	.LFB71
 1261 004c 68000000 		.4byte	.LFE71-.LFB71
 1262 0050 00000000 		.4byte	0
 1263 0054 00000000 		.4byte	0
 1264              		.section	.debug_ranges,"",%progbits
 1265              	.Ldebug_ranges0:
 1266 0000 00000000 		.4byte	.LFB64
ARM GAS  C:\Users\mjphi\AppData\Local\Temp\cco5j2jf.s 			page 26


 1267 0004 0C000000 		.4byte	.LFE64
 1268 0008 00000000 		.4byte	.LFB65
 1269 000c 0C000000 		.4byte	.LFE65
 1270 0010 00000000 		.4byte	.LFB66
 1271 0014 AC000000 		.4byte	.LFE66
 1272 0018 00000000 		.4byte	.LFB67
 1273 001c 30000000 		.4byte	.LFE67
 1274 0020 00000000 		.4byte	.LFB68
 1275 0024 40000000 		.4byte	.LFE68
 1276 0028 00000000 		.4byte	.LFB69
 1277 002c E0000000 		.4byte	.LFE69
 1278 0030 00000000 		.4byte	.LFB70
 1279 0034 2C000000 		.4byte	.LFE70
 1280 0038 00000000 		.4byte	.LFB71
 1281 003c 68000000 		.4byte	.LFE71
 1282 0040 00000000 		.4byte	0
 1283 0044 00000000 		.4byte	0
 1284              		.section	.debug_line,"",%progbits
 1285              	.Ldebug_line0:
 1286 0000 14020000 		.section	.debug_str,"MS",%progbits,1
 1286      02005701 
 1286      00000201 
 1286      FB0E0D00 
 1286      01010101 
 1287              	.LASF0:
 1288 0000 5F5F696E 		.ascii	"__int8_t\000"
 1288      74385F74 
 1288      00
 1289              	.LASF1:
 1290 0009 5F5F7569 		.ascii	"__uint8_t\000"
 1290      6E74385F 
 1290      7400
 1291              	.LASF4:
 1292 0013 5F5F696E 		.ascii	"__int16_t\000"
 1292      7431365F 
 1292      7400
 1293              	.LASF34:
 1294 001d 43795261 		.ascii	"CyRamVectors\000"
 1294      6D566563 
 1294      746F7273 
 1294      00
 1295              	.LASF30:
 1296 002a 55706461 		.ascii	"Update_Display_Task\000"
 1296      74655F44 
 1296      6973706C 
 1296      61795F54 
 1296      61736B00 
 1297              	.LASF7:
 1298 003e 5F5F696E 		.ascii	"__int32_t\000"
 1298      7433325F 
 1298      7400
 1299              	.LASF8:
 1300 0048 6C6F6E67 		.ascii	"long int\000"
 1300      20696E74 
 1300      00
 1301              	.LASF43:
 1302 0051 474E5520 		.ascii	"GNU C 4.9.3 20150303 (release) [ARM/embedded-4_9-br"
ARM GAS  C:\Users\mjphi\AppData\Local\Temp\cco5j2jf.s 			page 27


 1302      4320342E 
 1302      392E3320 
 1302      32303135 
 1302      30333033 
 1303 0084 616E6368 		.ascii	"anch revision 221220] -mcpu=cortex-m3 -mthumb -g -O"
 1303      20726576 
 1303      6973696F 
 1303      6E203232 
 1303      31323230 
 1304 00b7 30202D66 		.ascii	"0 -ffunction-sections -ffat-lto-objects\000"
 1304      66756E63 
 1304      74696F6E 
 1304      2D736563 
 1304      74696F6E 
 1305              	.LASF25:
 1306 00df 78506F72 		.ascii	"xPortPendSVHandler\000"
 1306      7450656E 
 1306      64535648 
 1306      616E646C 
 1306      657200
 1307              	.LASF13:
 1308 00f2 696E7438 		.ascii	"int8_t\000"
 1308      5F7400
 1309              	.LASF17:
 1310 00f9 666C6F61 		.ascii	"float\000"
 1310      7400
 1311              	.LASF3:
 1312 00ff 756E7369 		.ascii	"unsigned char\000"
 1312      676E6564 
 1312      20636861 
 1312      7200
 1313              	.LASF44:
 1314 010d 2E5C6D61 		.ascii	".\\main.c\000"
 1314      696E2E63 
 1314      00
 1315              	.LASF32:
 1316 0116 4C696768 		.ascii	"Light_Sensor_Task\000"
 1316      745F5365 
 1316      6E736F72 
 1316      5F546173 
 1316      6B00
 1317              	.LASF9:
 1318 0128 6C6F6E67 		.ascii	"long unsigned int\000"
 1318      20756E73 
 1318      69676E65 
 1318      6420696E 
 1318      7400
 1319              	.LASF47:
 1320 013a 74656D70 		.ascii	"temp\000"
 1320      00
 1321              	.LASF6:
 1322 013f 73686F72 		.ascii	"short unsigned int\000"
 1322      7420756E 
 1322      7369676E 
 1322      65642069 
 1322      6E7400
 1323              	.LASF42:
ARM GAS  C:\Users\mjphi\AppData\Local\Temp\cco5j2jf.s 			page 28


 1324 0152 6D757465 		.ascii	"mute\000"
 1324      00
 1325              	.LASF35:
 1326 0157 49544D5F 		.ascii	"ITM_RxBuffer\000"
 1326      52784275 
 1326      66666572 
 1326      00
 1327              	.LASF40:
 1328 0164 44697370 		.ascii	"DisplayBrigtness\000"
 1328      6C617942 
 1328      72696774 
 1328      6E657373 
 1328      00
 1329              	.LASF33:
 1330 0175 416C6172 		.ascii	"Alarm_Task\000"
 1330      6D5F5461 
 1330      736B00
 1331              	.LASF20:
 1332 0180 63796973 		.ascii	"cyisraddress\000"
 1332      72616464 
 1332      72657373 
 1332      00
 1333              	.LASF23:
 1334 018d 76417070 		.ascii	"vApplicationMallocFailedHook\000"
 1334      6C696361 
 1334      74696F6E 
 1334      4D616C6C 
 1334      6F634661 
 1335              	.LASF46:
 1336 01aa 6D61696E 		.ascii	"main\000"
 1336      00
 1337              	.LASF26:
 1338 01af 78506F72 		.ascii	"xPortSysTickHandler\000"
 1338      74537973 
 1338      5469636B 
 1338      48616E64 
 1338      6C657200 
 1339              	.LASF12:
 1340 01c3 756E7369 		.ascii	"unsigned int\000"
 1340      676E6564 
 1340      20696E74 
 1340      00
 1341              	.LASF41:
 1342 01d0 6C696768 		.ascii	"lightoutput\000"
 1342      746F7574 
 1342      70757400 
 1343              	.LASF11:
 1344 01dc 6C6F6E67 		.ascii	"long long unsigned int\000"
 1344      206C6F6E 
 1344      6720756E 
 1344      7369676E 
 1344      65642069 
 1345              	.LASF14:
 1346 01f3 75696E74 		.ascii	"uint8_t\000"
 1346      385F7400 
 1347              	.LASF38:
 1348 01fb 436D645F 		.ascii	"Cmd_DispCtrl\000"
ARM GAS  C:\Users\mjphi\AppData\Local\Temp\cco5j2jf.s 			page 29


 1348      44697370 
 1348      4374726C 
 1348      00
 1349              	.LASF29:
 1350 0208 43686563 		.ascii	"Check_Buttons_Task\000"
 1350      6B5F4275 
 1350      74746F6E 
 1350      735F5461 
 1350      736B00
 1351              	.LASF15:
 1352 021b 696E7431 		.ascii	"int16_t\000"
 1352      365F7400 
 1353              	.LASF45:
 1354 0223 433A5C63 		.ascii	"C:\\code\\uci_winter_2016\\Final_Project.cydsn\000"
 1354      6F64655C 
 1354      7563695F 
 1354      77696E74 
 1354      65725F32 
 1355              	.LASF16:
 1356 024f 696E7433 		.ascii	"int32_t\000"
 1356      325F7400 
 1357              	.LASF21:
 1358 0257 73697A65 		.ascii	"sizetype\000"
 1358      74797065 
 1358      00
 1359              	.LASF10:
 1360 0260 6C6F6E67 		.ascii	"long long int\000"
 1360      206C6F6E 
 1360      6720696E 
 1360      7400
 1361              	.LASF19:
 1362 026e 63686172 		.ascii	"char\000"
 1362      00
 1363              	.LASF27:
 1364 0273 76506F72 		.ascii	"vPortSVCHandler\000"
 1364      74535643 
 1364      48616E64 
 1364      6C657200 
 1365              	.LASF36:
 1366 0283 436D645F 		.ascii	"Cmd_SetData\000"
 1366      53657444 
 1366      61746100 
 1367              	.LASF39:
 1368 028f 44697370 		.ascii	"DisplayPointFlag\000"
 1368      6C617950 
 1368      6F696E74 
 1368      466C6167 
 1368      00
 1369              	.LASF5:
 1370 02a0 73686F72 		.ascii	"short int\000"
 1370      7420696E 
 1370      7400
 1371              	.LASF31:
 1372 02aa 7061726D 		.ascii	"parm\000"
 1372      00
 1373              	.LASF37:
 1374 02af 436D645F 		.ascii	"Cmd_SetAddr\000"
ARM GAS  C:\Users\mjphi\AppData\Local\Temp\cco5j2jf.s 			page 30


 1374      53657441 
 1374      64647200 
 1375              	.LASF22:
 1376 02bb 6C6F6E67 		.ascii	"long double\000"
 1376      20646F75 
 1376      626C6500 
 1377              	.LASF2:
 1378 02c7 7369676E 		.ascii	"signed char\000"
 1378      65642063 
 1378      68617200 
 1379              	.LASF18:
 1380 02d3 646F7562 		.ascii	"double\000"
 1380      6C6500
 1381              	.LASF24:
 1382 02da 76417070 		.ascii	"vApplicationStackOverflowHook\000"
 1382      6C696361 
 1382      74696F6E 
 1382      53746163 
 1382      6B4F7665 
 1383              	.LASF28:
 1384 02f8 70727648 		.ascii	"prvHardwareSetup\000"
 1384      61726477 
 1384      61726553 
 1384      65747570 
 1384      00
 1385              		.ident	"GCC: (GNU Tools for ARM Embedded Processors) 4.9.3 20150303 (release) [ARM/embedded-4_9-br
